{
    "_id": "sFaAWmy1szDRmFtk",
    "data": {
        "attributes": {
            "ac": {
                "value": 10
            },
            "hardness": 0,
            "hasHealth": false,
            "hp": {
                "details": "",
                "max": 0,
                "temp": 0,
                "tempmax": 0,
                "value": 0
            },
            "stealth": {
                "details": "(expert)",
                "value": 21
            }
        },
        "creatureType": "",
        "details": {
            "description": "Allies appear to shed their disguises and reveal themselves to be malevolent monsters.",
            "disable": "DC 28 Deception (expert) twice to confound the haunt with your own deceptions, or DC 28 Occultism (trained) twice to create a ward against the haunt's mental influence ",
            "isComplex": true,
            "level": 8,
            "reset": "The haunt deactivates 1 minute after all creatures leave the area but resets immediately thereafter.",
            "routine": "(1 action, illusion, incapacitation, occult) The haunt continues to confound victims' senses and inspire them to commit violence against each other. Each creature in the haunt's area must attempt a DC 26 Will save. <br /><br /><b>Critical Success</b> The creature is unaffected and temporarily immune for 1 minute.<br /><b>Success</b> The creature is unaffected.<br /><b>Failure</b> The creature is confused for 1 round.<br /><b>Critical Failure</b> The creature is confused for 1 minute."
        },
        "recallKnowledgeText": "",
        "saves": {
            "fortitude": {
                "rank": 0,
                "saveDetail": "",
                "value": 0
            },
            "reflex": {
                "rank": 0,
                "saveDetail": "",
                "value": 0
            },
            "will": {
                "rank": 0,
                "saveDetail": "",
                "value": 0
            }
        },
        "schema": {
            "version": {
                "value": ""
            }
        },
        "source": {
            "value": ""
        },
        "statusEffects": [],
        "traits": {
            "ci": [],
            "di": {
                "custom": "",
                "selected": {},
                "value": []
            },
            "dr": [],
            "dv": [],
            "rarity": {
                "value": "common"
            },
            "size": {
                "value": "med"
            },
            "traits": {
                "custom": "",
                "value": [
                    "haunt"
                ]
            }
        }
    },
    "effects": [],
    "flags": {},
    "folder": null,
    "img": "systems/pf2e/icons/default-icons/hazard.svg",
    "items": [
        {
            "_id": "QrgnumULVnz8pWfK",
            "data": {
                "actionCategory": {
                    "value": ""
                },
                "actionType": {
                    "value": "reaction"
                },
                "actions": {
                    "value": ""
                },
                "description": {
                    "chat": "",
                    "unidentified": "",
                    "value": "<p><strong>Trigger</strong> Two or more creatures enter the haunt's area. <br /><strong>Effect</strong> Each creature sees the forms of nearby creatures shift and change, appearing to transform into fiendish or aberrant beings with a thirst for blood. Each creature in the area must attempt a <span data-pf2-saving-throw=\"will\" data-pf2-dc=\"30\" data-pf2-traits=\"illusion,occult\" data-pf2-label=\"Unmask DC\" data-pf2-show-dc=\"gm\">Will</span> save.<br /><br /><strong>Critical Success</strong> The creature sees through the illusions entirely and is temporarily immune to the haunt's routine for 1 minute.<br /><strong>Success</strong> The creature is unaffected by the strange images.<br /><strong>Failure</strong> The creature believes the illusions to be true; if they become confused by the haunt's routine, they can't attempt flat checks to end the confused condition when they take damage.<br /><strong>Critical Failure</strong> As failure, but the creature is left with a lingering suspicion of others and can't benefit from Aid reactions for 24 hours.</p>"
                },
                "requirements": {
                    "value": ""
                },
                "rules": [],
                "slug": null,
                "source": {
                    "value": ""
                },
                "traits": {
                    "custom": "",
                    "rarity": {
                        "value": "common"
                    },
                    "value": [
                        "illusion",
                        "occult"
                    ]
                },
                "trigger": {
                    "value": ""
                },
                "usage": {
                    "value": "held-in-one-hand"
                },
                "weapon": {
                    "value": ""
                }
            },
            "effects": [],
            "flags": {},
            "folder": null,
            "img": "systems/pf2e/icons/actions/Reaction.webp",
            "name": "Unmask",
            "permission": {
                "default": 0
            },
            "sort": 100000,
            "type": "action"
        }
    ],
    "name": "Confounding Betrayal",
    "permission": {
        "default": 0
    },
    "token": {
        "actorId": "sFaAWmy1szDRmFtk",
        "actorLink": false,
        "alpha": 1,
        "bar1": {
            "attribute": null
        },
        "bar2": {
            "attribute": null
        },
        "brightLight": 0,
        "brightSight": 0,
        "dimLight": 0,
        "dimSight": 0,
        "displayBars": 20,
        "displayName": 20,
        "disposition": 0,
        "flags": {},
        "height": 1,
        "img": "systems/pf2e/icons/default-icons/hazard.svg",
        "lightAlpha": 1,
        "lightAngle": 0,
        "lightAnimation": {
            "intensity": 5,
            "speed": 5
        },
        "lockRotation": false,
        "mirrorX": false,
        "mirrorY": false,
        "name": "Confounding Betrayal",
        "randomImg": false,
        "rotation": 0,
        "scale": 1,
        "sightAngle": 0,
        "tint": null,
        "vision": false,
        "width": 1
    },
    "type": "hazard"
}
