{
    "_id": "bDyb0k0rTfDTyhd8",
    "data": {
        "boosts": {
            "0": {
                "value": [
                    "con",
                    "wis"
                ]
            },
            "1": {
                "value": [
                    "cha",
                    "con",
                    "dex",
                    "int",
                    "str",
                    "wis"
                ]
            }
        },
        "description": {
            "chat": "",
            "unidentified": "",
            "value": "<p><strong>Prerequisite</strong>: Region - Impossible Lands</p>\n<hr />\n<p>You grew up considering the existence of the undead nation of Geb an atrocity and trained to one day take part in destroying it and putting its vile inhabitants to their final rest. Key to your preparations is a thorough study of Pharasma, Urgathoa, and other undead-related deities and their philosophies.</p>\n<p>Choose two ability boosts. One must be to <strong>Constitution</strong> or <strong>Wisdom</strong>, and one is a free ability boost.</p>\n<p>You're trained in the Religion skill and the Undead Lore skill. You gain the @Compendium[pf2e.feats-srd.Student of the Canon]{Student of the Canon} skill feat.</p>"
        },
        "items": {
            "9uslx": {
                "id": "x7EMZNMavris2aHY",
                "img": "systems/pf2e/icons/features/feats/feats.webp",
                "level": "1",
                "name": "Student of the Canon",
                "pack": "pf2e.feats-srd"
            }
        },
        "rules": [],
        "source": {
            "value": ""
        },
        "trainedLore": "Undead Lore",
        "trainedSkills": {
            "value": [
                "rel"
            ]
        },
        "traits": {
            "custom": "",
            "rarity": {
                "value": "common"
            },
            "value": []
        }
    },
    "effects": [],
    "flags": {},
    "folder": null,
    "img": "systems/pf2e/icons/default-icons/mystery-man.svg",
    "name": "Geb Crusader",
    "permission": {
        "default": 0
    },
    "type": "background"
}
