{
    "_id": "WueM94C9JXk10jPd",
    "data": {
        "boosts": {
            "0": {
                "value": [
                    "cha",
                    "dex"
                ]
            },
            "1": {
                "value": [
                    "cha",
                    "con",
                    "dex",
                    "int",
                    "str",
                    "wis"
                ]
            }
        },
        "description": {
            "chat": "",
            "unidentified": "",
            "value": "<p><strong>Prerequisite</strong>: Region - Eye of Dread</p>\n<hr />\n<p>Oprak doesn't share the secrets of the Onyx Vault with many, but you are one of the lucky few to be permitted into the heart of the nation. You have traveled the extradimensional paths of the Stone Roads and traded goods across a wide variety of lands. You've learned to step lively in foreign markets of all types.</p>\n<p>Choose two ability boosts. One must be to <strong>Dexterity</strong> or <strong>Charisma</strong>, and one is a free ability boost.</p>\n<p>You're trained in the Society skill and the Mercantile Lore skill. You gain the @Compendium[pf2e.feats-srd.Multilingual]{Multilingual} skill feat.</p>"
        },
        "items": {
            "5mn6l": {
                "id": "P9HCz0uR6xPHuw72",
                "img": "systems/pf2e/icons/features/feats/feats.webp",
                "level": "1",
                "name": "Multilingual",
                "pack": "pf2e.feats-srd"
            }
        },
        "rules": [],
        "source": {
            "value": ""
        },
        "trainedLore": "Mercantile Lore",
        "trainedSkills": {
            "value": [
                "soc"
            ]
        },
        "traits": {
            "custom": "",
            "rarity": {
                "value": "common"
            },
            "value": []
        }
    },
    "effects": [],
    "flags": {},
    "folder": null,
    "img": "systems/pf2e/icons/default-icons/mystery-man.svg",
    "name": "Onyx Trader",
    "permission": {
        "default": 0
    },
    "type": "background"
}
