{
    "_id": "OcBPjVplvy2GbQ8P",
    "data": {
        "activation": {
            "condition": "",
            "cost": 0,
            "type": ""
        },
        "autoDestroy": {
            "_deprecated": true,
            "value": true
        },
        "autoUse": {
            "_deprecated": true,
            "value": true
        },
        "baseItem": null,
        "brokenThreshold": {
            "value": 0
        },
        "bulkCapacity": {
            "value": ""
        },
        "charges": {
            "_deprecated": true,
            "max": 1,
            "value": 1
        },
        "collapsed": {
            "value": false
        },
        "consumableType": {
            "value": "potion"
        },
        "consume": {
            "_deprecated": true,
            "value": ""
        },
        "containerId": {
            "value": ""
        },
        "description": {
            "chat": "",
            "unidentified": "",
            "value": "<p>This bitter draught opens your mind to the potential of the written word. For the listed duration after drinking this elixir, you can understand any words you read, so long as they are written in a common language. This elixir doesn't automatically allow you to understand codes or extremely esoteric passages-you still need to attempt a skill check to Decipher Writing. The duration is 10 minutes.</p>"
        },
        "duration": {
            "units": "",
            "value": null
        },
        "equipped": {
            "value": false
        },
        "equippedBulk": {
            "value": ""
        },
        "hardness": {
            "value": 0
        },
        "hp": {
            "value": 0
        },
        "identification": {
            "misidentified": {},
            "status": "identified",
            "unidentified": {
                "data": {
                    "description": {
                        "value": ""
                    }
                },
                "img": "",
                "name": ""
            }
        },
        "invested": {
            "value": false
        },
        "level": {
            "value": 7
        },
        "maxHp": {
            "value": 0
        },
        "negateBulk": {
            "value": "0"
        },
        "preciousMaterial": {
            "value": ""
        },
        "preciousMaterialGrade": {
            "value": ""
        },
        "price": {
            "value": "54 gp"
        },
        "quantity": {
            "value": 1
        },
        "range": {
            "long": null,
            "units": "",
            "value": null
        },
        "rules": [],
        "size": {
            "value": "med"
        },
        "source": {
            "value": ""
        },
        "spell": {
            "data": null,
            "heightenedLevel": null
        },
        "stackGroup": {
            "value": ""
        },
        "target": {
            "type": "",
            "units": "",
            "value": null
        },
        "traits": {
            "custom": "",
            "rarity": {
                "value": "common"
            },
            "usage": {
                "value": "held-in-one-hand"
            },
            "value": [
                "alchemical",
                "consumable",
                "elixir",
                "mental"
            ]
        },
        "usage": {
            "value": "held-in-one-hand"
        },
        "uses": {
            "autoDestroy": true,
            "autoUse": true,
            "max": 0,
            "per": null,
            "value": 0
        },
        "weight": {
            "value": "L"
        }
    },
    "effects": [],
    "flags": {},
    "folder": null,
    "img": "systems/pf2e/icons/equipment/alchemical-items/alchemical-elixirs/comprehension-elixir.webp",
    "name": "Comprehension Elixir (Greater)",
    "permission": {
        "default": 0
    },
    "type": "consumable"
}
