{
    "_id": "y0cRr28w57VapTcn",
    "data": {
        "baseItem": null,
        "brokenThreshold": {
            "value": 0
        },
        "bulkCapacity": {
            "value": ""
        },
        "collapsed": {
            "value": false
        },
        "containerId": {
            "value": ""
        },
        "description": {
            "value": "<p><strong>Devil</strong> @Compendium[pf2e.pathfinder-bestiary.Imp]{Imp};</p>\n<p><strong>Decipher Writing</strong> Arcana, Occultism, Society</p>\n<hr />\n<p>You’ve bargained with an imp, one of the least powerful devils, for a fragment of infernal luck.</p>\n<p><strong>Benefit</strong> Once per day, you can roll a saving throw twice and use the higher result.</p>\n<p><strong>Payment</strong> At the termination of your mortal life, your soul must serve the imp for 100 years.</p>\n<p><strong>Hidden Condition</strong> The “termination of mortal life” clause is carefully worded to hasten your demise. You can’t use the benefit against a death effect, and if you roll a failure on a saving throw against a death effect, you get a critical failure instead.</p>\n<p><strong>Termination Clause</strong> If you critically fail a saving throw against a death effect and do not die, the contract becomes unenforceable on its terms and is voided.</p>"
        },
        "equipped": {
            "value": false
        },
        "equippedBulk": {
            "value": ""
        },
        "hardness": {
            "value": 0
        },
        "hp": {
            "value": 0
        },
        "identification": {
            "misidentified": {},
            "status": "identified",
            "unidentified": {
                "data": {
                    "description": {
                        "value": ""
                    }
                },
                "img": "",
                "name": ""
            }
        },
        "invested": {
            "value": false
        },
        "level": {
            "value": "3"
        },
        "maxHp": {
            "value": 0
        },
        "negateBulk": {
            "value": "0"
        },
        "preciousMaterial": {
            "value": ""
        },
        "preciousMaterialGrade": {
            "value": ""
        },
        "price": {
            "value": "0"
        },
        "quantity": {
            "value": 1
        },
        "rules": [],
        "size": {
            "value": "med"
        },
        "source": {
            "value": ""
        },
        "stackGroup": {
            "value": ""
        },
        "traits": {
            "custom": "",
            "rarity": {
                "value": "rare"
            },
            "usage": {
                "value": "held-in-one-hand"
            },
            "value": [
                "contract",
                "enchantment",
                "fortune",
                "invested",
                "magical"
            ]
        },
        "usage": {
            "value": ""
        },
        "weight": {
            "value": "-"
        }
    },
    "effects": [],
    "flags": {},
    "folder": null,
    "img": "systems/pf2e/icons/equipment/contracts/infernal-contracts/devils_luck.webp",
    "name": "Devil's Luck",
    "permission": {
        "default": 0
    },
    "type": "equipment"
}
