{
    "_id": "SemkRkQPVBljg9Id",
    "data": {
        "baseItem": null,
        "brokenThreshold": {
            "value": 0
        },
        "bulkCapacity": {
            "value": ""
        },
        "collapsed": {
            "value": false
        },
        "containerId": {
            "value": ""
        },
        "description": {
            "chat": "",
            "unidentified": "",
            "value": "<p>You regain triple the normal number of Hit Points when resting (meaning you regain triple your Constitution modifier multiplied by your level). The healing you gain from long-term rest is similarly tripled. Once per day, from any distance, Abrogail Thrune II can recite a voidability clause in your Thrune contract as a 1-minute activity to prevent you from regaining Hit Points from resting for 1 day.</p>\n<p><strong>Activate</strong> <span class=\"pf2-icon\">1</span> Command;</p>\n<p><strong>Frequency</strong> once per day;</p>\n<p><strong>Effect</strong> You recite a subclause regarding mandatory remediation from your Thrune contract. For 6 rounds, at the start of your turn each round, you recover 25 Hit Points unless you took good damage since the start of your previous turn.</p>"
        },
        "equipped": {
            "value": false
        },
        "equippedBulk": {
            "value": ""
        },
        "hardness": {
            "value": 0
        },
        "hp": {
            "value": 0
        },
        "identification": {
            "misidentified": {},
            "status": "identified",
            "unidentified": {
                "data": {
                    "description": {
                        "value": ""
                    }
                },
                "img": "",
                "name": ""
            }
        },
        "invested": {
            "value": false
        },
        "level": {
            "value": "15"
        },
        "maxHp": {
            "value": 0
        },
        "negateBulk": {
            "value": "0"
        },
        "preciousMaterial": {
            "value": ""
        },
        "preciousMaterialGrade": {
            "value": ""
        },
        "price": {
            "value": null
        },
        "quantity": {
            "value": 1
        },
        "rules": [],
        "size": {
            "value": "med"
        },
        "source": {
            "value": ""
        },
        "stackGroup": {
            "value": ""
        },
        "traits": {
            "custom": "",
            "rarity": {
                "value": "rare"
            },
            "usage": {
                "value": "held-in-one-hand"
            },
            "value": [
                "contract",
                "healing",
                "invested",
                "magical"
            ]
        },
        "usage": {
            "value": "held-in-one-hand"
        },
        "weight": {
            "value": "-"
        }
    },
    "effects": [],
    "flags": {},
    "folder": null,
    "img": "systems/pf2e/icons/equipment/contracts/infernal-contracts/infernal-health.webp",
    "name": "Infernal Health",
    "permission": {
        "default": 0
    },
    "type": "equipment"
}
