{
    "_id": "9uhJ7OB65ZTdUc8b",
    "data": {
        "baseItem": null,
        "brokenThreshold": {
            "value": 0
        },
        "bulkCapacity": {
            "value": ""
        },
        "collapsed": {
            "value": false
        },
        "containerId": {
            "value": ""
        },
        "description": {
            "chat": "",
            "unidentified": "",
            "value": "<p><span>This necklace strung with miniature stone throwing knives. As long as you wear it, you are never without a weapon, a crude surgical tool, or stake for a vampire, if necessary in following Pharasma's teachings.<br /></span></p>\n<p><span><strong>Activate</strong> <span class=\"pf2-icon\">A</span> Interact; <strong>Effect</strong> You pluck a miniature knife from the necklace, and it grows into a normal stone, steel, or wooden dagger for as long as you hold it, fading away 1 round after it leaves your hand. No matter how many knives you pull from the necklace, you never seem to deplete them. Wooden daggers from the necklace are as effective as ordinary steel daggers and can be useful to stake vampires.</span></p>"
        },
        "equipped": {
            "value": false
        },
        "equippedBulk": {
            "value": ""
        },
        "hardness": {
            "value": 0
        },
        "hp": {
            "value": 0
        },
        "identification": {
            "misidentified": {},
            "status": "identified",
            "unidentified": {
                "data": {
                    "description": {
                        "value": ""
                    }
                },
                "img": "",
                "name": ""
            }
        },
        "invested": {
            "value": false
        },
        "level": {
            "value": "2"
        },
        "maxHp": {
            "value": 0
        },
        "negateBulk": {
            "value": ""
        },
        "preciousMaterial": {
            "value": ""
        },
        "preciousMaterialGrade": {
            "value": ""
        },
        "price": {
            "value": "25 gp"
        },
        "quantity": {
            "value": 1
        },
        "rules": [
            {
                "category": "simple",
                "damage": {
                    "base": {
                        "damageType": "piercing",
                        "dice": 1,
                        "die": "d4"
                    }
                },
                "group": "brawling",
                "key": "PF2E.RuleElement.Strike",
                "label": "Dagger (Necklace of Knives)",
                "range": "melee",
                "traits": [
                    "agile",
                    "finesse",
                    "thrown 10 ft.",
                    "versatile s"
                ]
            },
            {
                "category": "simple",
                "damage": {
                    "base": {
                        "damageType": "piercing",
                        "dice": 1,
                        "die": "d4"
                    }
                },
                "group": "brawling",
                "key": "PF2E.RuleElement.Strike",
                "label": "Dagger (Necklace of Knives) (Thrown)",
                "range": "ranged",
                "traits": [
                    "agile",
                    "finesse",
                    "thrown 10 ft.",
                    "versatile s"
                ]
            }
        ],
        "size": {
            "value": "med"
        },
        "source": {
            "value": ""
        },
        "stackGroup": {
            "value": ""
        },
        "traits": {
            "custom": "",
            "rarity": {
                "value": "uncommon"
            },
            "value": [
                "conjuration",
                "invested",
                "magical"
            ]
        },
        "usage": {
            "value": "worn"
        },
        "weight": {
            "value": "-"
        }
    },
    "effects": [],
    "flags": {},
    "folder": null,
    "img": "systems/pf2e/icons/equipment/worn-items/other-worn-items/necklace-of-knives.webp",
    "name": "Necklace of Knives",
    "permission": {
        "default": 0
    },
    "type": "equipment"
}
