{
    "_id": "FABVnBeYtGXshlwm",
    "data": {
        "baseItem": null,
        "brokenThreshold": {
            "value": 0
        },
        "bulkCapacity": {
            "value": ""
        },
        "collapsed": {
            "value": false
        },
        "containerId": {
            "value": ""
        },
        "description": {
            "chat": "",
            "unidentified": "",
            "value": "<p>This ring magically conceals any armor and sheathed weapons you're wearing by either turning them invisible or creating the illusion of ordinary clothes. The ring doesn't change your appearance beyond concealing weapons and armor. As soon as you wield a weapon, the weapon becomes obvious to onlookers and is no longer affected by the ring until you sheathe the weapon for at least 1 minute. A creature can disbelieve this illusion by Seeking or any time it hits you with an attack.</p>"
        },
        "equipped": {
            "value": false
        },
        "equippedBulk": {
            "value": ""
        },
        "hardness": {
            "value": 0
        },
        "hp": {
            "value": 0
        },
        "identification": {
            "misidentified": {},
            "status": "identified",
            "unidentified": {
                "data": {
                    "description": {
                        "value": ""
                    }
                },
                "img": "",
                "name": ""
            }
        },
        "invested": {
            "value": false
        },
        "level": {
            "value": "1"
        },
        "maxHp": {
            "value": 0
        },
        "negateBulk": {
            "value": "0"
        },
        "preciousMaterial": {
            "value": ""
        },
        "preciousMaterialGrade": {
            "value": ""
        },
        "price": {
            "value": "15 gp"
        },
        "quantity": {
            "value": 1
        },
        "rules": [],
        "size": {
            "value": "med"
        },
        "source": {
            "value": ""
        },
        "stackGroup": {
            "value": ""
        },
        "traits": {
            "custom": "",
            "rarity": {
                "value": "common"
            },
            "value": [
                "illusion",
                "invested",
                "magical",
                "visual"
            ]
        },
        "usage": {
            "value": "wornring"
        },
        "weight": {
            "value": "-"
        }
    },
    "effects": [],
    "flags": {},
    "folder": null,
    "img": "systems/pf2e/icons/equipment/worn-items/other-worn-items/ring-of-discretion.webp",
    "name": "Ring of Discretion",
    "permission": {
        "default": 0
    },
    "type": "equipment"
}
