{
    "_id": "neNlIrZOs6zOODoe",
    "data": {
        "attributes": {
            "ac": {
                "value": 0
            },
            "hardness": 0,
            "hasHealth": true,
            "hp": {
                "details": "",
                "max": 0,
                "temp": 0,
                "value": 0
            },
            "stealth": {
                "details": "<p>DC 32 (master)</p>",
                "value": 32
            }
        },
        "creatureType": "",
        "details": {
            "description": "<p>A hard-to-reach rune is placed on the lock&rsquo;s tumbler. It emits a blast of force when the door is jostled.</p>",
            "disable": "<p>DC 32 Thievery (master) to disarm the rune, or @Compendium[pf2e.spells-srd.Dispel Magic]{Dispel Magic}&nbsp;(5th level; counteract DC 28) to counteract the rune&rsquo;s magic.</p>",
            "isComplex": false,
            "level": 10,
            "reset": "<p>The rune resets 1 minute after it triggers.</p>",
            "routine": ""
        },
        "recallKnowledgeText": "",
        "saves": {
            "fortitude": {
                "rank": 0,
                "saveDetail": "",
                "value": null
            },
            "reflex": {
                "rank": 0,
                "saveDetail": "",
                "value": null
            },
            "will": {
                "rank": 0,
                "saveDetail": "",
                "value": null
            }
        },
        "schema": {
            "version": {
                "value": ""
            }
        },
        "source": {
            "value": ""
        },
        "statusEffects": [],
        "traits": {
            "ci": [],
            "di": {
                "custom": "",
                "selected": {},
                "value": []
            },
            "dr": [],
            "dv": [],
            "rarity": {
                "value": "common"
            },
            "size": {
                "value": "med"
            },
            "traits": {
                "custom": "",
                "value": [
                    "magical",
                    "mechanical",
                    "trap"
                ]
            }
        }
    },
    "effects": [],
    "flags": {},
    "folder": null,
    "img": "systems/pf2e/icons/default-icons/hazard.svg",
    "items": [
        {
            "_id": "OlnYDBwZvO3CeHG3",
            "data": {
                "actionCategory": {
                    "value": ""
                },
                "actionType": {
                    "value": "reaction"
                },
                "actions": {
                    "value": ""
                },
                "description": {
                    "value": "<p><strong>Trigger</strong> A non‑undead creature opens the door or critically fails an attempt to disarm or dispel the rune;</p>\n<p><strong>Effect</strong> A 30‑foot cone of force issues forth from the lock. Creatures within the cone must succeed a <span data-pf2-saving-throw=\"fortitude\" data-pf2-dc=\"29\" data-pf2-traits=\"evocation,force,occult,damaging-effect\" data-pf2-label=\"Force Blast DC\" data-pf2-show-dc=\"gm\">basic Fortitude</span> saving throw or take [[/r 8d12 #force]] force damage. Those who fail the save are pushed 10 feet, and those who critically fail are pushed 20 feet and are @Compendium[pf2e.conditionitems.Stunned]{Stunned 2}.</p>"
                },
                "requirements": {
                    "value": ""
                },
                "rules": [],
                "slug": null,
                "source": {
                    "value": ""
                },
                "traits": {
                    "custom": "",
                    "rarity": {
                        "value": "common"
                    },
                    "value": [
                        "evocation",
                        "force",
                        "occult"
                    ]
                },
                "trigger": {
                    "value": ""
                },
                "weapon": {
                    "value": ""
                }
            },
            "effects": [],
            "flags": {},
            "folder": null,
            "img": "systems/pf2e/icons/actions/Reaction.webp",
            "name": "Force Blast",
            "permission": {
                "default": 0
            },
            "sort": 100000,
            "type": "action"
        }
    ],
    "name": "Blast Tumbler",
    "permission": {
        "default": 0
    },
    "token": {
        "actorId": "neNlIrZOs6zOODoe",
        "actorLink": false,
        "alpha": 1,
        "bar1": {
            "attribute": null
        },
        "bar2": {
            "attribute": null
        },
        "brightLight": 0,
        "brightSight": 0,
        "dimLight": 0,
        "dimSight": 0,
        "displayBars": 20,
        "displayName": 20,
        "disposition": 0,
        "flags": {},
        "height": 1,
        "img": "systems/pf2e/icons/default-icons/hazard.svg",
        "lightAlpha": 1,
        "lightAngle": 0,
        "lightAnimation": {
            "intensity": 5,
            "speed": 5
        },
        "lockRotation": false,
        "mirrorX": false,
        "mirrorY": false,
        "name": "Blast Tumbler",
        "randomImg": false,
        "rotation": 0,
        "scale": 1,
        "sightAngle": 0,
        "tint": null,
        "vision": false,
        "width": 1
    },
    "type": "hazard"
}
