{
    "_id": "8VXEF3cnjzcokCTL",
    "data": {
        "attributes": {
            "ac": {
                "value": 0
            },
            "hardness": 0,
            "hasHealth": true,
            "hp": {
                "details": "",
                "max": 10,
                "temp": 0,
                "tempmax": 0,
                "value": 10
            },
            "stealth": {
                "details": "<p>+11 (trained)</p>",
                "value": 11
            }
        },
        "creatureType": "",
        "details": {
            "description": "<p>A half-dozen ghostly kobolds rise from the rubble in a howling vortex.</p>",
            "disable": "<p>DC 18 Intimidate (trained) to frighten the spirits with a threatening display, or DC 21 Religion (trained) to exorcise the spirits</p>",
            "isComplex": true,
            "level": 2,
            "reset": "<p>The haunt deactivates if there are no frightened creatures in area A7 at the start of its turn. The ghostly kobolds return to the rubble pile. The haunt can't activate again for 1 hour.</p>",
            "routine": "<p>(1 action) The spirits swoop together toward one creature in area A7 who's frightened, instilling feelings of betrayal and confusion. The target takes 1d10+4 mental damage (DC 18 basic Will save).</p>"
        },
        "recallKnowledgeText": "",
        "saves": {
            "fortitude": {
                "rank": 0,
                "saveDetail": "",
                "value": null
            },
            "reflex": {
                "rank": 0,
                "saveDetail": "",
                "value": null
            },
            "will": {
                "rank": 0,
                "saveDetail": "",
                "value": null
            }
        },
        "schema": {
            "version": {
                "value": ""
            }
        },
        "source": {
            "value": ""
        },
        "statusEffects": [],
        "traits": {
            "ci": [],
            "di": {
                "custom": "",
                "selected": {},
                "value": []
            },
            "dr": [],
            "dv": [],
            "rarity": {
                "value": "common"
            },
            "size": {
                "value": "med"
            },
            "traits": {
                "custom": "",
                "value": [
                    "haunt"
                ]
            }
        }
    },
    "effects": [],
    "flags": {},
    "folder": null,
    "img": "systems/pf2e/icons/default-icons/hazard.svg",
    "items": [
        {
            "_id": "IM2z6ZQvAhXIgpsu",
            "data": {
                "actionCategory": {
                    "value": ""
                },
                "actionType": {
                    "value": "reaction"
                },
                "actions": {
                    "value": ""
                },
                "description": {
                    "chat": "",
                    "unidentified": "",
                    "value": "<p><strong>Trigger</strong> A creature enters a square either fully or partially filled with rubble in the middle of the room;</p>\n<p><strong>Effect</strong> Six ghostly kobolds surge out of the rubble with eerie yowls. Each creature in area A7 must attempt a <span data-pf2-saving-throw=\"will\" data-pf2-dc=\"18\" data-pf2-traits=\"emotion,enchantment,fear,mental\" data-pf2-label=\"Confusing Confrontation DC\" data-pf2-show-dc=\"gm\">Will</span> save with the following results. The haunt then rolls initiative.</p>\n<hr />\n<p><strong>Critical Success</strong> The creature is unaffected, is temporarily immune to Confusing Confrontation for 24 hours, and realizes that a display of intimidating dominance might quell the ghostly kobolds' assault.</p>\n<p><strong>Success</strong> The creature is frightened 1.</p>\n<p><strong>Failure</strong> The creature is confused for 1 round and is frightened 2.</p>\n<p><strong>Critical Failure</strong> The creature is confused for 2 rounds and is frightened 3.</p>"
                },
                "requirements": {
                    "value": ""
                },
                "rules": [],
                "slug": null,
                "source": {
                    "value": ""
                },
                "traits": {
                    "custom": "",
                    "rarity": {
                        "value": "common"
                    },
                    "value": [
                        "emotion",
                        "enchantment",
                        "fear",
                        "mental"
                    ]
                },
                "trigger": {
                    "value": ""
                },
                "weapon": {
                    "value": ""
                }
            },
            "effects": [],
            "flags": {},
            "folder": null,
            "img": "systems/pf2e/icons/actions/Reaction.webp",
            "name": "Confusing Confrontation",
            "permission": {
                "default": 0
            },
            "sort": 100000,
            "type": "action"
        }
    ],
    "name": "Stonescale Spirits",
    "permission": {
        "default": 0
    },
    "token": {
        "actorId": "8VXEF3cnjzcokCTL",
        "actorLink": false,
        "alpha": 1,
        "bar1": {
            "attribute": null
        },
        "bar2": {
            "attribute": null
        },
        "brightLight": 0,
        "brightSight": 0,
        "dimLight": 0,
        "dimSight": 0,
        "displayBars": 20,
        "displayName": 20,
        "disposition": 0,
        "flags": {},
        "height": 1,
        "img": "systems/pf2e/icons/default-icons/hazard.svg",
        "lightAlpha": 1,
        "lightAngle": 0,
        "lightAnimation": {
            "intensity": 5,
            "speed": 5
        },
        "lockRotation": false,
        "mirrorX": false,
        "mirrorY": false,
        "name": "Stonescale Spirits",
        "randomImg": false,
        "rotation": 0,
        "scale": 1,
        "sightAngle": 0,
        "tint": null,
        "vision": false,
        "width": 1
    },
    "type": "hazard"
}
