{
    "_id": "roRmUbaC9kJC7met",
    "data": {
        "attributes": {
            "ac": {
                "value": 20
            },
            "hardness": 15,
            "hasHealth": true,
            "hp": {
                "details": "",
                "max": 30,
                "temp": 0,
                "tempmax": 0,
                "value": 30
            },
            "stealth": {
                "details": "(Master)",
                "value": 33
            }
        },
        "creatureType": "",
        "details": {
            "description": "A haunted mural fascinates characters and swiftly drains their vitality.",
            "disable": "Occultism DC 38 (master) or Religion DC 38 (master) to calm the restless energies and suppress the haunt for 1 hour; a critical success deactivates the haunt permanently.",
            "isComplex": true,
            "level": 17,
            "reset": "The haunt continues its routine until there are no targets within 30 feet of the room. It then resets over the course of 1 minute and is able to activate again.",
            "routine": "(2 actions) The haunt lures creatures into area A2 using Captivate. Any actions it hasn't used to Captivate are used to drain a living creature in the room with Live a Thousand Lives."
        },
        "recallKnowledgeText": "",
        "saves": {
            "fortitude": {
                "rank": 0,
                "saveDetail": "",
                "value": 13
            },
            "reflex": {
                "rank": 0,
                "saveDetail": "",
                "value": 5
            },
            "will": {
                "rank": 0,
                "saveDetail": "",
                "value": null
            }
        },
        "schema": {
            "version": {
                "value": ""
            }
        },
        "source": {
            "value": ""
        },
        "statusEffects": [],
        "traits": {
            "ci": [],
            "di": {
                "custom": "",
                "selected": {},
                "value": [
                    "critical-hits",
                    "object-immunities",
                    "precision"
                ]
            },
            "dr": [],
            "dv": [],
            "rarity": {
                "value": "common"
            },
            "size": {
                "value": "med"
            },
            "traits": {
                "custom": "",
                "value": [
                    "haunt",
                    "magical"
                ]
            }
        }
    },
    "effects": [],
    "flags": {},
    "folder": null,
    "img": "systems/pf2e/icons/default-icons/hazard.svg",
    "items": [
        {
            "_id": "mpY2GaSzimTVNvF7",
            "data": {
                "actionCategory": {
                    "value": ""
                },
                "actionType": {
                    "value": "passive"
                },
                "actions": {
                    "value": ""
                },
                "description": {
                    "chat": "",
                    "unidentified": "",
                    "value": ""
                },
                "requirements": {
                    "value": ""
                },
                "rules": [],
                "slug": null,
                "source": {
                    "value": ""
                },
                "traits": {
                    "custom": "",
                    "rarity": {
                        "value": "common"
                    },
                    "selected": {},
                    "value": []
                },
                "trigger": {
                    "value": ""
                },
                "usage": {
                    "value": "held-in-one-hand"
                },
                "weapon": {
                    "value": ""
                }
            },
            "effects": [],
            "flags": {},
            "folder": null,
            "img": "systems/pf2e/icons/default-icons/action.svg",
            "name": "HP is 30 per square (6 must be destroyed)",
            "permission": {
                "default": 0
            },
            "sort": 100000,
            "type": "action"
        },
        {
            "_id": "fyWgrVIE0U0GZARU",
            "data": {
                "actionCategory": {
                    "value": ""
                },
                "actionType": {
                    "value": "reaction"
                },
                "actions": {
                    "value": ""
                },
                "description": {
                    "chat": "",
                    "unidentified": "",
                    "value": "<p><strong>Trigger</strong>: A living creature examines the mural or enters the room;</p>\n<p><strong>Effect</strong>: The haunt activates and rolls initiative.</p>"
                },
                "requirements": {
                    "value": ""
                },
                "rules": [],
                "slug": null,
                "source": {
                    "value": ""
                },
                "traits": {
                    "custom": "",
                    "rarity": {
                        "value": "common"
                    },
                    "selected": {
                        "divination": "Divination",
                        "occult": "Occult"
                    },
                    "value": [
                        "divination",
                        "occult"
                    ]
                },
                "trigger": {
                    "value": ""
                },
                "usage": {
                    "value": "held-in-one-hand"
                },
                "weapon": {
                    "value": ""
                }
            },
            "effects": [],
            "flags": {},
            "folder": null,
            "img": "systems/pf2e/icons/actions/Reaction.webp",
            "name": "Lifelike Scintillation",
            "permission": {
                "default": 0
            },
            "sort": 200000,
            "type": "action"
        },
        {
            "_id": "QsuzBxkK6bf7oS8S",
            "data": {
                "actionCategory": {
                    "value": ""
                },
                "actionType": {
                    "value": "action"
                },
                "actions": {
                    "value": ""
                },
                "description": {
                    "chat": "",
                    "unidentified": "",
                    "value": "<p>The faintly moving images compel one creature within 30 feet of the room to move into the room. The creature attempts a <span data-pf2-saving-throw=\"will\" data-pf2-dc=\"38\" data-pf2-traits=\"enchantment,incapacitation,mental,occult,custom\" data-pf2-label=\"Captivate DC\" data-pf2-show-dc=\"gm\">Will</span> save.</p>\n<hr />\n<p><strong>Success</strong>: The target is unaffected.</p>\n<p><strong>Failure</strong>: The target must spend all its actions on its next turn moving into the room, and is then @Compendium[pf2e.conditionitems.Paralyzed]{Paralyzed} until the end of its next turn.</p>\n<p><strong>Critical Failure</strong>: As failure, and the target is also @Compendium[pf2e.conditionitems.Stupefied]{Stupefied} 2 for 1 minute.</p>"
                },
                "requirements": {
                    "value": ""
                },
                "rules": [],
                "slug": null,
                "source": {
                    "value": ""
                },
                "traits": {
                    "custom": "Charm",
                    "rarity": {
                        "value": "common"
                    },
                    "selected": {
                        "custom": "Charm",
                        "enchantment": "Enchantment",
                        "incapacitation": "Incapacitation",
                        "mental": "Mental",
                        "occult": "Occult"
                    },
                    "value": [
                        "enchantment",
                        "incapacitation",
                        "mental",
                        "occult",
                        "custom"
                    ]
                },
                "trigger": {
                    "value": ""
                },
                "usage": {
                    "value": "held-in-one-hand"
                },
                "weapon": {
                    "value": ""
                }
            },
            "effects": [],
            "flags": {},
            "folder": null,
            "img": "systems/pf2e/icons/actions/OneAction.webp",
            "name": "Captivate",
            "permission": {
                "default": 0
            },
            "sort": 300000,
            "type": "action"
        },
        {
            "_id": "bvXcRvh1dBNmRcSg",
            "data": {
                "actionCategory": {
                    "value": ""
                },
                "actionType": {
                    "value": "action"
                },
                "actions": {
                    "value": ""
                },
                "description": {
                    "chat": "",
                    "unidentified": "",
                    "value": "<p>The haunt causes a living creature in the room to experience a full elven life, weathering every wound, misfortune, loss, and consequence of aging centuries in a matter of seconds. The target must attempt a <span data-pf2-saving-throw=\"fortitude\" data-pf2-dc=\"38\" data-pf2-traits=\"mental,occult\" data-pf2-label=\"Live a Thousand Lives DC\" data-pf2-show-dc=\"gm\">Fortitude</span> save.</p>\n<hr />\n<p><strong>Critical Success</strong>: The target is unaffected.</p>\n<p><strong>Success</strong>: The target becomes @Compendium[pf2e.conditionitems.Fatigued]{Fatigued}.</p>\n<p><strong>Failure</strong>: The target becomes @Compendium[pf2e.conditionitems.Drained]{Drained} 1 (or its drained value increases by 1, to a maximum of drained 3), and it is @Compendium[pf2e.conditionitems.Paralyzed]{Paralyzed} until the end of its next turn.</p>\n<p><strong>Critical Failure</strong>: As failure, but the target also becomes @Compendium[pf2e.conditionitems.Doomed]{Doomed} 1 (or its doomed value increases by 1).</p>"
                },
                "requirements": {
                    "value": ""
                },
                "rules": [],
                "slug": null,
                "source": {
                    "value": ""
                },
                "traits": {
                    "custom": "",
                    "rarity": {
                        "value": "common"
                    },
                    "selected": {
                        "mental": "Mental",
                        "occult": "Occult"
                    },
                    "value": [
                        "mental",
                        "occult"
                    ]
                },
                "trigger": {
                    "value": ""
                },
                "usage": {
                    "value": "held-in-one-hand"
                },
                "weapon": {
                    "value": ""
                }
            },
            "effects": [],
            "flags": {},
            "folder": null,
            "img": "systems/pf2e/icons/actions/OneAction.webp",
            "name": "Live a Thousand Lives",
            "permission": {
                "default": 0
            },
            "sort": 400000,
            "type": "action"
        }
    ],
    "name": "Endless Elven Aging",
    "permission": {
        "default": 0
    },
    "token": {
        "actorId": "roRmUbaC9kJC7met",
        "actorLink": false,
        "alpha": 1,
        "bar1": {
            "attribute": null
        },
        "bar2": {
            "attribute": null
        },
        "brightLight": 0,
        "brightSight": 0,
        "dimLight": 0,
        "dimSight": 0,
        "displayBars": 20,
        "displayName": 20,
        "disposition": 0,
        "flags": {},
        "height": 1,
        "img": "systems/pf2e/icons/default-icons/hazard.svg",
        "lightAlpha": 1,
        "lightAngle": 0,
        "lightAnimation": {
            "intensity": 5,
            "speed": 5
        },
        "lockRotation": false,
        "mirrorX": false,
        "mirrorY": false,
        "name": "Endless Elven Aging",
        "randomImg": false,
        "rotation": 0,
        "scale": 1,
        "sightAngle": 0,
        "tint": null,
        "vision": false,
        "width": 1
    },
    "type": "hazard"
}
