{
    "_id": "AJstokjdG6iDjVjE",
    "data": {
        "actionCategory": {
            "value": ""
        },
        "actionType": {
            "value": "passive"
        },
        "actions": {
            "value": ""
        },
        "description": {
            "chat": "",
            "unidentified": "",
            "value": "<p>You create a disguise to pass yourself off as someone or something you are not. Assembling a convincing disguise takes 10 minutes and requires a @Compendium[pf2e.equipment-srd.Disguise Kit]{Disguise Kit}, but a simpler, quicker disguise might do the job if you're not trying to imitate a specific individual, at the GM's discretion.</p>\n<p>In most cases, creatures have a chance to detect your deception only if they use the @Compendium[pf2e.actionspf2e.Seek]{Seek} action to attempt Perception checks against your Deception DC. If you attempt to directly interact with someone while disguised, the GM rolls a secret <span data-pf2-action=\"impersonate\">Deception</span> check for you against that creature's Perception DC instead. If you're disguised as a specific individual, the GM might give creatures you interact with a circumstance bonus based on how well they know the person you're imitating, or the GM might roll a secret Deception check even if you aren't directly interacting with others.</p>\n<hr />\n<p><strong>Success</strong> You trick the creature into thinking you're the person you're disguised as. You might have to attempt a new check if your behavior changes.</p>\n<p><strong>Failure</strong> The creature can tell you're not who you claim to be.</p>\n<p><strong>Critical Failure</strong> The creature can tell you're not who you claim to be, and it recognizes you if it would know you without a disguise.</p>"
        },
        "requirements": {
            "value": ""
        },
        "rules": [],
        "source": {
            "value": ""
        },
        "traits": {
            "custom": "",
            "rarity": {
                "value": "common"
            },
            "value": [
                "manipulate",
                "concentrate",
                "skill",
                "secret",
                "exploration"
            ]
        },
        "trigger": {
            "value": ""
        },
        "weapon": {
            "value": ""
        }
    },
    "effects": [],
    "flags": {},
    "folder": null,
    "img": "systems/pf2e/icons/default-icons/mystery-man.svg",
    "name": "Impersonate",
    "permission": {
        "default": 0
    },
    "type": "action"
}
