{
    "_id": "OX4fy22hQgUHDr0q",
    "data": {
        "actionCategory": {
            "value": ""
        },
        "actionType": {
            "value": "passive"
        },
        "actions": {
            "value": ""
        },
        "description": {
            "chat": "",
            "unidentified": "",
            "value": "<p>With at least 1 minute of conversation, during which you engage in charismatic overtures, flattery, and other acts of goodwill, you seek to make a good impression on someone to make them temporarily agreeable. At the end of the conversation, attempt a <span data-pf2-action=\"makeAnImpression\">Diplomacy</span> check against the Will DC of one target, modified by any circumstances the GM sees fit. Good impressions (or bad impressions, on a critical failure) last for only the current social interaction unless the GM decides otherwise.</p>\n<hr />\n<p><strong>Critical Success</strong> The target's attitude toward you improves by two steps.</p>\n<p><strong>Success</strong> The target's attitude toward you improves by one step.</p>\n<p><strong>Critical Failure</strong> The target's attitude toward you decreases by one step.</p>"
        },
        "requirements": {
            "value": ""
        },
        "rules": [],
        "source": {
            "value": ""
        },
        "traits": {
            "custom": "Linguistic",
            "rarity": {
                "value": "common"
            },
            "value": [
                "concentrate",
                "skill",
                "auditory",
                "exploration",
                "mental",
                "custom"
            ]
        },
        "trigger": {
            "value": ""
        },
        "weapon": {
            "value": ""
        }
    },
    "effects": [],
    "flags": {},
    "folder": null,
    "img": "systems/pf2e/icons/default-icons/mystery-man.svg",
    "name": "Make an Impression",
    "permission": {
        "default": 0
    },
    "type": "action"
}
