{
    "_id": "viCX9fZzTWGuoO85",
    "data": {
        "description": {
            "chat": "",
            "unidentified": "",
            "value": "<p>Granted by @Compendium[pf2e.equipment-srd.Cloak of Elvenkind (Greater)]{Cloak of Elvenkind (Greater)}</p>\n<p>Automatically applied effects:</p>\n<ul>\n<li>+2 item bonus to Stealth checks</li>\n</ul>"
        },
        "duration": {
            "expiry": "turn-start",
            "sustained": false,
            "unit": "unlimited",
            "value": -1
        },
        "level": {
            "value": 12
        },
        "rules": [
            {
                "key": "PF2E.RuleElement.FlatModifier",
                "selector": "stealth",
                "type": "item",
                "value": 2
            },
            {
                "key": "PF2E.RuleElement.TokenEffectIcon"
            }
        ],
        "source": {
            "value": ""
        },
        "start": {
            "initiative": null,
            "value": 0
        },
        "traits": {
            "custom": "",
            "rarity": {
                "value": "common"
            },
            "value": []
        }
    },
    "effects": [],
    "flags": {},
    "img": "systems/pf2e/icons/equipment/worn-items/other-worn-items/cloak-of-elvenkind.webp",
    "name": "Effect: Cloak of Elvenkind (Greater)",
    "permission": {
        "default": 0
    },
    "type": "effect"
}
