{
    "_id": "zyMRLQnFCQVpltiR",
    "data": {
        "description": {
            "chat": "",
            "unidentified": "",
            "value": "<p>It understands and speaks a language you know.</p>"
        },
        "level": {
            "value": 1
        },
        "rules": [],
        "source": {
            "value": ""
        },
        "traits": {
            "custom": "",
            "rarity": {
                "value": "common"
            },
            "value": []
        }
    },
    "effects": [],
    "flags": {},
    "img": "systems/pf2e/icons/default-icons/mystery-man.svg",
    "name": "Speech",
    "permission": {
        "default": 0
    },
    "type": "effect"
}
