{
    "_id": "nyNsIePvpovlDAws",
    "data": {
        "actionCategory": {
            "value": ""
        },
        "actionType": {
            "value": "passive"
        },
        "actions": {
            "value": ""
        },
        "description": {
            "chat": "",
            "unidentified": "",
            "value": "<p>You learn formulas more easily. You gain four common 1st-level alchemical formulas when you take this feat, and each time you gain a level, you gain a common alchemical formula of that level. You still need @Compendium[pf2e.feats-srd.Alchemical Crafting]{Alchemical Crafting}to Craft alchemical items.<br /><br /><strong>Special</strong> You can take this feat only at 1st level, and you can't retrain into or out of this feat.</p>"
        },
        "featType": {
            "value": "ancestry"
        },
        "level": {
            "value": "1"
        },
        "prerequisites": {
            "value": []
        },
        "rules": [],
        "source": {
            "value": ""
        },
        "traits": {
            "custom": "",
            "rarity": {
                "value": "common"
            },
            "value": [
                "hobgoblin"
            ]
        }
    },
    "effects": [],
    "flags": {},
    "img": "systems/pf2e/icons/features/feats/feats.webp",
    "name": "Alchemical Scholar",
    "permission": {
        "default": 0
    },
    "type": "feat"
}
