{
    "_id": "05k4nkjazjjEUoGu",
    "data": {
        "actionCategory": {
            "value": ""
        },
        "actionType": {
            "value": "passive"
        },
        "actions": {
            "value": ""
        },
        "description": {
            "chat": "",
            "unidentified": "",
            "value": "<p>Your deceptions confound even the most powerful mortal divinations. Detection, revelation, and scrying effects pass right over you, your possessions, and your auras, detecting nothing unless the detecting effect has a counteract level of 10 or higher.</p>\n<p>For example, @Compendium[pf2e.spells-srd.Detect Magic]{Detect Magic} would still detect other magic in the area but not any magic on you, @Compendium[pf2e.spells-srd.True Seeing]{True Seeing} wouldn't reveal you, @Compendium[pf2e.spells-srd.Locate]{Locate} or @Compendium[pf2e.spells-srd.Scrying]{Scrying} wouldn't find you, and so on.</p>"
        },
        "featType": {
            "value": "class"
        },
        "level": {
            "value": 16
        },
        "location": "",
        "prerequisites": {
            "value": [
                {
                    "value": "legendary in Deception"
                }
            ]
        },
        "rules": [],
        "source": {
            "value": ""
        },
        "traits": {
            "custom": "",
            "rarity": {
                "value": "common"
            },
            "value": [
                "rogue"
            ]
        }
    },
    "effects": [],
    "flags": {},
    "folder": null,
    "img": "systems/pf2e/icons/features/feats/feats.webp",
    "name": "Blank Slate",
    "permission": {
        "default": 0
    },
    "type": "feat"
}
