{
    "_id": "IsNs6hXQm9pJcXB1",
    "data": {
        "actionCategory": {
            "value": ""
        },
        "actionType": {
            "value": "passive"
        },
        "actions": {
            "value": ""
        },
        "description": {
            "chat": "",
            "unidentified": "",
            "value": "<p>You can perform simple Interact actions with your shadow, such as opening an unlocked door. Anything your shadow Interacts with must be within your reach. Your shadow can’t perform actions that require significant manual dexterity, including any action that would require a check to accomplish, and you can’t use it to hold items.</p>"
        },
        "featType": {
            "value": "ancestry"
        },
        "level": {
            "value": 5
        },
        "location": "",
        "prerequisites": {
            "value": []
        },
        "rules": [],
        "source": {
            "value": ""
        },
        "traits": {
            "custom": "",
            "rarity": {
                "value": "common"
            },
            "value": [
                "evocation",
                "fetchling",
                "occult",
                "shadow"
            ]
        },
        "usage": {
            "value": ""
        }
    },
    "effects": [],
    "flags": {},
    "img": "systems/pf2e/icons/features/feats/feats.webp",
    "name": "Clever Shadow",
    "permission": {
        "default": 0
    },
    "type": "feat"
}
