{
    "_id": "r0twuF5nxXN5lkLk",
    "data": {
        "actionCategory": {
            "value": ""
        },
        "actionType": {
            "value": "action"
        },
        "actions": {
            "value": "1"
        },
        "description": {
            "chat": "",
            "unidentified": "",
            "value": "<p>Select a magical effect that has made an adjacent member of your crop clumsy, grabbed, paralyzed, restrained, or slowed. Attempt a counteract check using your attack modifier (including your multiple attack penalty) with a melee weapon with which you have expert proficiency. Your counteract level is half your level rounded up. On a success, you free that member from the effect; on a failure, you can't attempt to use Cut the Bonds on that effect on that crop member until 24 hours have passed.</p>"
        },
        "featType": {
            "value": "archetype"
        },
        "level": {
            "value": 12
        },
        "prerequisites": {
            "value": [
                {
                    "value": "Bellflower Dedication"
                },
                {
                    "value": "expert in a melee weapon"
                }
            ]
        },
        "rules": [],
        "source": {
            "value": ""
        },
        "traits": {
            "custom": "",
            "rarity": {
                "value": "common"
            },
            "value": [
                "archetype",
                "attack"
            ]
        }
    },
    "effects": [],
    "flags": {},
    "img": "systems/pf2e/icons/features/feats/feats.webp",
    "name": "Cut the Bonds",
    "permission": {
        "default": 0
    },
    "type": "feat"
}
