{
    "_id": "hT4INKGtly4QY8KN",
    "data": {
        "actionCategory": {
            "value": ""
        },
        "actionType": {
            "value": "passive"
        },
        "actions": {
            "value": ""
        },
        "description": {
            "chat": "",
            "unidentified": "",
            "value": "<p>Your deity bestows a special spell related to their powers. Select one domain - a subject of particular interest to you within your religion - from your deity's list. You gain an initial domain spell for that domain, a spell unique to the domain and not available to other clerics.</p>\n<p>Domain spells are a type of focus spell. It costs 1 Focus Point to cast a focus spell, and you start with a focus pool of 1 Focus Point. You refill your focus pool during your daily preparations, and you can regain 1 Focus Point by spending 10 minutes using the Refocus activity to pray to your deity or do service toward their causes. Focus spells are automatically heightened to half your level rounded up.</p>\n<p>Focus spells don't require spell slots, nor can you cast them using spell slots. Certain feats can give you more focus spells and increase the size of your focus pool, though your focus pool can never hold more than 3 Focus Points.</p>\n<hr />\n<p><strong>Special</strong> You can select this feat multiple times, selecting a different domain each time and gaining its domain spell.</p>"
        },
        "featType": {
            "value": "class"
        },
        "level": {
            "value": 1
        },
        "location": "",
        "prerequisites": {
            "value": []
        },
        "rules": [],
        "source": {
            "value": ""
        },
        "traits": {
            "custom": "",
            "rarity": {
                "value": "common"
            },
            "value": [
                "cleric"
            ]
        }
    },
    "effects": [],
    "flags": {},
    "img": "systems/pf2e/icons/features/feats/feats.webp",
    "name": "Domain Initiate",
    "permission": {
        "default": 0
    },
    "type": "feat"
}
