{
    "_id": "BaVO8UU5ZkL8OZZj",
    "data": {
        "actionCategory": {
            "value": ""
        },
        "actionType": {
            "value": "passive"
        },
        "actions": {
            "value": ""
        },
        "description": {
            "chat": "",
            "unidentified": "",
            "value": "<p>You can put more effort into your Kobold Breath to channel greater draconic power, though it takes more out of you. When you use Kobold Breath, you can increase the damage dice to d8s and increase the area to 60 feet for a line breath weapon or 30 feet for a cone. If you do, you can't use Kobold Breath again for 1 hour.</p>"
        },
        "featType": {
            "value": "ancestry"
        },
        "level": {
            "value": "9"
        },
        "prerequisites": {
            "value": [
                {
                    "value": "Kobold Breath"
                }
            ]
        },
        "rules": [],
        "source": {
            "value": ""
        },
        "traits": {
            "custom": "",
            "rarity": {
                "value": "common"
            },
            "value": [
                "kobold"
            ]
        }
    },
    "effects": [],
    "flags": {},
    "img": "systems/pf2e/icons/features/feats/feats.webp",
    "name": "Dragon's Breath",
    "permission": {
        "default": 0
    },
    "type": "feat"
}
