{
    "_id": "SAOtGk9k8veaX3Ww",
    "data": {
        "actionCategory": {
            "value": ""
        },
        "actionType": {
            "value": "passive"
        },
        "actions": {
            "value": ""
        },
        "description": {
            "chat": "",
            "unidentified": "",
            "value": "<p>You love to kick your enemies when they're down, and you look fabulous when you do.</p>\n<p>When you make a melee weapon Strike against a foe that has at least two of the following conditions, you gain a circumstance bonus to your damage roll equal to the number of these conditions the foe has.</p>\n<p>The qualifying conditions are @Compendium[pf2e.conditionitems.Clumsy]{Clumsy}, @Compendium[pf2e.conditionitems.Drained]{Drained}, @Compendium[pf2e.conditionitems.Enfeebled]{Enfeebled}, @Compendium[pf2e.conditionitems.Frightened]{Frightened}, @Compendium[pf2e.conditionitems.Sickened]{Sickened}, and @Compendium[pf2e.conditionitems.Stupefied]{Stupefied}.</p>\n<p>If you hit such a foe, you gain a +1 circumstance bonus to skill checks to @Compendium[pf2e.actionspf2e.Tumble Through]{Tumble Through} and to perform your style's Panache-granting actions until the end of your turn.</p>\n<p>@Compendium[pf2e.feat-effects.Effect: Flamboyant Cruelty]{Effect: Flamboyant Cruelty}</p>"
        },
        "featType": {
            "value": "class"
        },
        "level": {
            "value": 8
        },
        "location": "",
        "prerequisites": {
            "value": []
        },
        "rules": [],
        "source": {
            "value": ""
        },
        "traits": {
            "custom": "",
            "rarity": {
                "value": "rare"
            },
            "selected": {
                "swashbuckler": "Swashbuckler"
            },
            "value": [
                "swashbuckler"
            ]
        }
    },
    "effects": [],
    "flags": {},
    "folder": null,
    "img": "systems/pf2e/icons/features/feats/feats.webp",
    "name": "Flamboyant Cruelty",
    "permission": {
        "default": 0
    },
    "type": "feat"
}
