{
    "_id": "J2CPfHKPvu6RGfY6",
    "data": {
        "actionCategory": {
            "value": ""
        },
        "actionType": {
            "value": "passive"
        },
        "actions": {
            "value": ""
        },
        "description": {
            "chat": "",
            "unidentified": "",
            "value": "<p>You gain the effects of Juvenile Flight at all times, rather than just once per day for 10 minutes. This includes the status bonus to your Speed if you have Fledgling Flight.</p>"
        },
        "featType": {
            "value": "ancestry"
        },
        "level": {
            "value": 13
        },
        "location": "",
        "prerequisites": {
            "value": [
                {
                    "value": "Juvenile Flight"
                }
            ]
        },
        "rules": [],
        "source": {
            "value": ""
        },
        "traits": {
            "custom": "",
            "rarity": {
                "value": "common"
            },
            "value": [
                "strix"
            ]
        },
        "usage": {
            "value": ""
        }
    },
    "effects": [],
    "flags": {},
    "img": "systems/pf2e/icons/features/feats/feats.webp",
    "name": "Fully Flighted",
    "permission": {
        "default": 0
    },
    "type": "feat"
}
