{
    "_id": "2GrlSP1xhKIz4G8B",
    "data": {
        "actionCategory": {
            "value": ""
        },
        "actionType": {
            "value": "action"
        },
        "actions": {
            "value": "1"
        },
        "description": {
            "chat": "",
            "unidentified": "",
            "value": "<p><strong>Frequency</strong> once per day</p>\n<hr />\n<p>You are descended from the einherji, the worthy warriors of chaos. You call upon your ascendant blood with a mighty cry that fills you with a revitalizing energy for 1 minute or until you critically fail a Strike, whichever comes first. For the duration, the first time each round you successfully Strike a creature of your level or higher, you regain Hit Points equal to half your level.</p>"
        },
        "featType": {
            "value": "ancestry"
        },
        "level": {
            "value": 9
        },
        "location": "",
        "prerequisites": {
            "value": []
        },
        "rules": [],
        "source": {
            "value": ""
        },
        "traits": {
            "custom": "",
            "rarity": {
                "value": "common"
            },
            "value": [
                "auditory",
                "ganzi",
                "healing",
                "necromancy",
                "primal"
            ]
        },
        "usage": {
            "value": ""
        }
    },
    "effects": [],
    "flags": {},
    "img": "systems/pf2e/icons/features/feats/feats.webp",
    "name": "Glory And Valor!",
    "permission": {
        "default": 0
    },
    "type": "feat"
}
