{
    "_id": "CR9NcAIPTT4oWSEy",
    "data": {
        "actionCategory": {
            "value": ""
        },
        "actionType": {
            "value": "action"
        },
        "actions": {
            "value": "3"
        },
        "description": {
            "chat": "",
            "unidentified": "",
            "value": "<p><strong>Requirements</strong> You're wielding a non-finesse melee weapon in two hands.</p>\n<hr />\n<p>You smash the ground with your weapon, knocking nearby creatures to the ground.</p>\n<p>Choose a square within your reach, including your own space. If there's a foe in the chosen square, @Compendium[pf2e.actionspf2e.Strike]{Strike} that foe with the required weapon. Then attempt to @Compendium[pf2e.actionspf2e.Trip]{Trip} every foe in the chosen square plus each square adjacent to that square, ignoring Trip's requirement that you have a hand free. This counts as three attacks toward your multiple attack penalty, but the penalty doesn't increase until after you've made the Strike, if any, and all the Trip attempts.</p>"
        },
        "featType": {
            "value": "archetype"
        },
        "level": {
            "value": 14
        },
        "prerequisites": {
            "value": [
                {
                    "value": "Mauler Dedication"
                }
            ]
        },
        "rules": [],
        "source": {
            "value": ""
        },
        "traits": {
            "custom": "",
            "rarity": {
                "value": "common"
            },
            "value": [
                "archetype",
                "flourish",
                "open"
            ]
        }
    },
    "effects": [],
    "flags": {},
    "img": "systems/pf2e/icons/features/feats/feats.webp",
    "name": "Hammer Quake",
    "permission": {
        "default": 0
    },
    "type": "feat"
}
