{
    "_id": "qhs0mWbaLKsdckZX",
    "data": {
        "actionCategory": {
            "value": ""
        },
        "actionType": {
            "value": "passive"
        },
        "actions": {
            "value": ""
        },
        "description": {
            "chat": "",
            "unidentified": "",
            "value": "<p><strong>Access</strong> You are from Old Cheliax.</p>\n<hr />\n<p>Your Hellknight training teaches you to terrorize others into compliance, but you also study the structure and hierarchy of Hell. You must survive painful tests of your body and mind called reckonings, which steady your mind against all sorts of trauma. You gain resistance to mental damage equal to 1 + your number of class feats from the Hellknight Armiger archetype and other Hellknight archetypes. You become trained in Intimidation and Hell Lore; if you were already trained, you become an expert instead.<br /><br /><strong>Special</strong> You can't select another dedication feat except dedication feats for higher positions within the Hellknights until you have gained two other feats from the Hellknight armiger archetype.</p>"
        },
        "featType": {
            "value": "archetype"
        },
        "level": {
            "value": 2
        },
        "location": "",
        "prerequisites": {
            "value": [
                {
                    "value": "member of a Hellknight order"
                },
                {
                    "value": "trained in heave armor"
                },
                {
                    "value": "trained in your order's favored weapon"
                }
            ]
        },
        "rules": [],
        "source": {
            "value": ""
        },
        "traits": {
            "custom": "",
            "rarity": {
                "value": "uncommon"
            },
            "value": [
                "archetype",
                "dedication"
            ]
        }
    },
    "effects": [],
    "flags": {},
    "img": "systems/pf2e/icons/features/feats/feats.webp",
    "name": "Hellknight Armiger Dedication",
    "permission": {
        "default": 0
    },
    "type": "feat"
}
