{
    "_id": "vW8dGtOD3rZVOJoq",
    "data": {
        "actionCategory": {
            "value": ""
        },
        "actionType": {
            "value": "passive"
        },
        "actions": {
            "value": ""
        },
        "description": {
            "chat": "",
            "unidentified": "",
            "value": "<p>When you @Compendium[pf2e.actionspf2e.Craft]{Craft} a temporary item using Scrounger Dedication, it can be an item of up to 3rd level (though the item must still be a weapon, armor, or a nonconsumable piece of adventuring gear).</p>\n<p>You can instead Craft it for someone else's use, allowing them to avoid taking the penalty for using a shoddy item when using it, but causing you to take the penalty if you use it.</p>"
        },
        "featType": {
            "value": "archetype"
        },
        "level": {
            "value": "6"
        },
        "prerequisites": {
            "value": [
                {
                    "value": "Scrounger Dedication"
                }
            ]
        },
        "rules": [],
        "source": {
            "value": ""
        },
        "traits": {
            "custom": "",
            "rarity": {
                "value": "common"
            },
            "value": [
                "archetype"
            ]
        }
    },
    "effects": [],
    "flags": {},
    "img": "systems/pf2e/icons/features/feats/feats.webp",
    "name": "High-quality Scrounger",
    "permission": {
        "default": 0
    },
    "type": "feat"
}
