{
    "_id": "iTsLr3zEaGZ45zez",
    "data": {
        "actionCategory": {
            "value": ""
        },
        "actionType": {
            "value": "passive"
        },
        "actions": {
            "value": ""
        },
        "description": {
            "chat": "",
            "unidentified": "",
            "value": "<p>Even other halflings consider you to be particularly lucky. You can use Halfling Luck once per hour, rather than once per day. If you have @Compendium[pf2e.feats-srd.Guiding Luck]{Guiding Luck}, you can still use Halfling Luck when you fail a Perception check or attack roll only once per day (though you can use it within the same hour that you used Halfling Luck), and if you have @Compendium[pf2e.feats-srd.Helpful Halfling]{Helpful Halfling}, you can still use Halfling Luck on an ally instead of yourself only once per day.</p>"
        },
        "featType": {
            "value": "ancestry"
        },
        "level": {
            "value": "13"
        },
        "prerequisites": {
            "value": [
                {
                    "value": "Halfling Luck"
                }
            ]
        },
        "rules": [],
        "source": {
            "value": ""
        },
        "traits": {
            "custom": "",
            "rarity": {
                "value": "common"
            },
            "value": [
                "halfling"
            ]
        }
    },
    "effects": [],
    "flags": {},
    "img": "systems/pf2e/icons/features/feats/feats.webp",
    "name": "Incredible Luck (Halfling)",
    "permission": {
        "default": 0
    },
    "type": "feat"
}
