{
    "_id": "3a07jkWezSuORSpS",
    "data": {
        "actionCategory": {
            "value": ""
        },
        "actionType": {
            "value": "passive"
        },
        "actions": {
            "value": ""
        },
        "description": {
            "chat": "",
            "unidentified": "",
            "value": "<p>Your study of the flow of mystical energy allows you to harness it into your physical strikes. You gain the @Compendium[pf2e.spells-srd.Ki Strike]{Ki Strike} ki spell and a focus pool of 1 Focus Point.</p>"
        },
        "featType": {
            "value": "class"
        },
        "level": {
            "value": 1
        },
        "prerequisites": {
            "value": []
        },
        "rules": [],
        "source": {
            "value": ""
        },
        "traits": {
            "custom": "",
            "rarity": {
                "value": "common"
            },
            "value": [
                "monk"
            ]
        }
    },
    "effects": [],
    "flags": {},
    "img": "systems/pf2e/icons/features/feats/feats.webp",
    "name": "Ki Strike",
    "permission": {
        "default": 0
    },
    "type": "feat"
}
