{
    "_id": "AimSmPyiMhJZVZRq",
    "data": {
        "actionCategory": {
            "value": ""
        },
        "actionType": {
            "value": "passive"
        },
        "actions": {
            "value": ""
        },
        "description": {
            "chat": "",
            "unidentified": "",
            "value": "<p>You specialize in weapons that require two hands. You become trained in all simple and martial melee weapons that require two hands to wield or have the two-hand trait.</p>\n<p>Whenever you gain a class feature that grants you expert or greater proficiency in weapons, you also gain that proficiency rank in these weapons. If you are at least an expert in such a weapon, you gain access to the critical specialization effect with that weapon.</p>\n<p><strong>Special</strong> You can't select another dedication feat until you have gained two other feats from the mauler archetype.</p>"
        },
        "featType": {
            "value": "archetype"
        },
        "level": {
            "value": "2"
        },
        "prerequisites": {
            "value": [
                {
                    "value": "Strength 14"
                }
            ]
        },
        "rules": [],
        "source": {
            "value": ""
        },
        "traits": {
            "custom": "",
            "rarity": {
                "value": "common"
            },
            "value": [
                "archetype",
                "dedication"
            ]
        }
    },
    "effects": [],
    "flags": {},
    "img": "systems/pf2e/icons/features/feats/feats.webp",
    "name": "Mauler Dedication",
    "permission": {
        "default": 0
    },
    "type": "feat"
}
