{
    "_id": "rByA8NDI6ZtNgBeT",
    "data": {
        "actionCategory": {
            "value": ""
        },
        "actionType": {
            "value": "action"
        },
        "actions": {
            "value": "1"
        },
        "description": {
            "chat": "",
            "unidentified": "",
            "value": "<p>Your shots become nimble and deadly. While you're in this stance, your ranged Strikes don't trigger Attacks of Opportunity or other reactions that are triggered by a ranged attack.</p>\n<p>If you have @Compendium[pf2e.feats-srd.Attack of Opportunity (Fighter)]{Attack of Opportunity}, you can use it with a loaded ranged weapon you're wielding. The triggering creature must be within 5 feet of you for you to do so.</p>"
        },
        "featType": {
            "value": "class"
        },
        "level": {
            "value": 8
        },
        "prerequisites": {
            "value": []
        },
        "rules": [],
        "source": {
            "value": ""
        },
        "traits": {
            "custom": "",
            "rarity": {
                "value": "common"
            },
            "value": [
                "fighter",
                "stance"
            ]
        }
    },
    "effects": [],
    "flags": {},
    "img": "systems/pf2e/icons/features/feats/feats.webp",
    "name": "Mobile Shot Stance",
    "permission": {
        "default": 0
    },
    "type": "feat"
}
