{
    "_id": "nc5G99d20PI9JKCK",
    "data": {
        "actionCategory": {
            "value": ""
        },
        "actionType": {
            "value": "passive"
        },
        "actions": {
            "value": ""
        },
        "description": {
            "chat": "",
            "unidentified": "",
            "value": "<p>You gain 3 additional Hit Points for each monk archetype class feat you have. As you continue selecting monk archetype class feats, you continue to gain additional Hit Points in this way.</p>"
        },
        "featType": {
            "value": "archetype"
        },
        "level": {
            "value": 4
        },
        "prerequisites": {
            "value": [
                {
                    "value": "Monk Dedication"
                },
                {
                    "value": "class granting no more Hit Points per level than 8 + your Constitution modifier"
                }
            ]
        },
        "rules": [],
        "source": {
            "value": ""
        },
        "traits": {
            "custom": "",
            "rarity": {
                "value": "common"
            },
            "value": [
                "archetype"
            ]
        }
    },
    "effects": [],
    "flags": {},
    "img": "systems/pf2e/icons/features/feats/feats.webp",
    "name": "Monk Resiliency",
    "permission": {
        "default": 0
    },
    "type": "feat"
}
