{
    "_id": "PPSH5vdf90KC95jJ",
    "data": {
        "actionCategory": {
            "value": ""
        },
        "actionType": {
            "value": "passive"
        },
        "actions": {
            "value": ""
        },
        "description": {
            "value": "<p>You are adept at revealing—or creating—weaknesses among those who are a threat to civilization. If you roll a success on a check to Recall Knowledge to identify an animal or a beast, you get a critical success instead. The next time you damage that creature, it gains weakness 5 during that attack to one damage type of your choice that you dealt it.</p>"
        },
        "featType": {
            "value": "bonus"
        },
        "level": {
            "value": 0
        },
        "location": "",
        "prerequisites": {
            "value": [
                {
                    "value": "Order of the Nail"
                }
            ]
        },
        "rules": [],
        "source": {
            "value": ""
        },
        "traits": {
            "custom": "",
            "rarity": {
                "value": "common"
            },
            "value": []
        }
    },
    "effects": [],
    "flags": {},
    "img": "systems/pf2e/icons/default-icons/feat.svg",
    "name": "Reveal Beasts",
    "permission": {
        "default": 0
    },
    "type": "feat"
}
