{
    "_id": "Yk3QGpalWDn5MhBV",
    "data": {
        "actionCategory": {
            "value": ""
        },
        "actionType": {
            "value": "action"
        },
        "actions": {
            "value": "1"
        },
        "description": {
            "chat": "",
            "unidentified": "",
            "value": "<p>A quick strike to the face or mouth silences your opponent. Make a melee @Compendium[pf2e.actionspf2e.Strike]{Strike} against a foe. The foe must succeed at a Fortitude save against your class DC.</p>\n<hr />\n<p><strong>Success</strong> The target is unaffected.</p>\n<p><strong>Failure</strong> The target is dazed and can barely vocalize. It's @Compendium[pf2e.conditionitems.Stunned]{Stunned} 1 and its speech is raspy and hard to understand. It must succeed at a DC 11 flat check to use linguistic actions or supply verbal spellcasting components until the end of its next turn.</p>\n<p><strong>Critical Failure</strong> As failure, but the creature is stunned 3 instead of stunned 1.</p>"
        },
        "featType": {
            "value": "class"
        },
        "level": {
            "value": "10"
        },
        "prerequisites": {
            "value": []
        },
        "rules": [],
        "source": {
            "value": ""
        },
        "traits": {
            "custom": "",
            "rarity": {
                "value": "common"
            },
            "value": [
                "barbarian",
                "incapacitation",
                "rage"
            ]
        }
    },
    "effects": [],
    "flags": {},
    "img": "systems/pf2e/icons/features/feats/feats.webp",
    "name": "Silencing Strike",
    "permission": {
        "default": 0
    },
    "type": "feat"
}
