{
    "_id": "L0f3c0DkT7FLQF9W",
    "data": {
        "actionCategory": {
            "value": ""
        },
        "actionType": {
            "value": "free"
        },
        "actions": {
            "value": ""
        },
        "description": {
            "chat": "",
            "unidentified": "",
            "value": "<p><strong>Frequency</strong> once per day</p>\n<p><strong>Requirements</strong> You haven't acted yet on your turn.</p>\n<hr />\n<p>You draw upon the reservoir of your patron's magic that resides within your familiar. During your turn, you can cast one spell your familiar knows that was granted by your patron's theme or lessons without spending a spell slot to do so (or even having it prepared). The spell must be at least 1 level lower than the highest-level spell you can cast.</p>\n<p><strong>Special</strong> This feat has the trait corresponding to the tradition of spells you cast (arcane, divine, occult, or primal).</p>"
        },
        "featType": {
            "value": "class"
        },
        "level": {
            "value": "16"
        },
        "prerequisites": {
            "value": []
        },
        "rules": [],
        "source": {
            "value": ""
        },
        "traits": {
            "custom": "",
            "rarity": {
                "value": "common"
            },
            "value": [
                "witch"
            ]
        }
    },
    "effects": [],
    "flags": {},
    "img": "systems/pf2e/icons/features/feats/feats.webp",
    "name": "Siphon Power",
    "permission": {
        "default": 0
    },
    "type": "feat"
}
