{
    "_id": "hdt3RHZljLrO49kq",
    "data": {
        "actionCategory": {
            "value": ""
        },
        "actionType": {
            "value": "passive"
        },
        "actions": {
            "value": ""
        },
        "description": {
            "chat": "",
            "unidentified": "",
            "value": "<p>The animal companion you gain from the Animal Trainer Dedication feat gains one specialization of your choice. Increase its proficiency rank in Performance to legendary instead of one of the specialization's skill increases.</p>"
        },
        "featType": {
            "value": "archetype"
        },
        "level": {
            "value": 18
        },
        "prerequisites": {
            "value": [
                {
                    "value": "Splendid Companion"
                }
            ]
        },
        "rules": [],
        "source": {
            "value": ""
        },
        "traits": {
            "custom": "",
            "rarity": {
                "value": "common"
            },
            "value": [
                "archetype"
            ]
        }
    },
    "effects": [],
    "flags": {},
    "img": "systems/pf2e/icons/features/feats/feats.webp",
    "name": "Specialized Companion (Animal Trainer)",
    "permission": {
        "default": 0
    },
    "type": "feat"
}
