{
    "_id": "55XNy1TVETEMc0vf",
    "data": {
        "actionCategory": {
            "value": ""
        },
        "actionType": {
            "value": "passive"
        },
        "actions": {
            "value": ""
        },
        "description": {
            "chat": "",
            "unidentified": "",
            "value": "<p>Humans are renowned for their ability to persist through the most grueling of trials. When you would become @Compendium[pf2e.conditionitems.Fatigued]{Fatigued}, attempt a DC 17 flat check. On a success, you aren't fatigued.</p>\n<p>If the fatigued condition has an underlying cause that you don't address, such as lack of rest, you must attempt the check again at an interval determined by the GM until you fail the flat check or address the underlying cause.</p>"
        },
        "featType": {
            "value": "ancestry"
        },
        "level": {
            "value": "13"
        },
        "prerequisites": {
            "value": []
        },
        "rules": [],
        "source": {
            "value": ""
        },
        "traits": {
            "custom": "",
            "rarity": {
                "value": "common"
            },
            "value": [
                "human"
            ]
        }
    },
    "effects": [],
    "flags": {},
    "img": "systems/pf2e/icons/features/feats/feats.webp",
    "name": "Stubborn Persistence",
    "permission": {
        "default": 0
    },
    "type": "feat"
}
