{
    "_id": "cU5NdcwnMkFQNPjh",
    "data": {
        "actionCategory": {
            "value": ""
        },
        "actionType": {
            "value": "action"
        },
        "actions": {
            "value": "2"
        },
        "description": {
            "chat": "",
            "unidentified": "",
            "value": "<p>With a resounding cry, you rally your ally to the offensive. Choose one ally within your marshal's aura who has a reaction available. If you spend 1 action, that ally can use their reaction to immediately @Compendium[pf2e.actionspf2e.Stride]{Stride}. If you spend 2 actions, that ally can use their reaction to immediately @Compendium[pf2e.actionspf2e.Strike]{Strike}.</p>"
        },
        "featType": {
            "value": "archetype"
        },
        "level": {
            "value": "8"
        },
        "prerequisites": {
            "value": [
                {
                    "value": "Marshal Dedication"
                }
            ]
        },
        "rules": [],
        "source": {
            "value": ""
        },
        "traits": {
            "custom": "",
            "rarity": {
                "value": "common"
            },
            "value": [
                "archetype",
                "auditory",
                "flourish"
            ]
        }
    },
    "effects": [],
    "flags": {},
    "img": "systems/pf2e/icons/features/feats/feats.webp",
    "name": "To Battle!",
    "permission": {
        "default": 0
    },
    "type": "feat"
}
