{
    "_id": "AmP0qu7c5dlBSath",
    "data": {
        "actionCategory": {
            "value": ""
        },
        "actionType": {
            "value": "passive"
        },
        "actions": {
            "value": ""
        },
        "description": {
            "chat": "",
            "unidentified": "",
            "value": "<p>You can withstand more punishment than most before succumbing. Increase your maximum Hit Points by your level. The DC of recovery checks is equal to 9 + your dying condition value.</p>"
        },
        "featType": {
            "value": "general"
        },
        "level": {
            "value": 1
        },
        "location": "",
        "prerequisites": {
            "value": []
        },
        "rules": [
            {
                "key": "PF2E.RuleElement.RecoveryCheckDC"
            }
        ],
        "source": {
            "value": ""
        },
        "traits": {
            "custom": "",
            "rarity": {
                "value": "common"
            },
            "value": [
                "general"
            ]
        }
    },
    "effects": [
        {
            "_id": "Qp1gKcCLQ8O4d1Lo",
            "changes": [
                {
                    "key": "data.attributes.hp.modifiers",
                    "mode": 2,
                    "value": "{ \"modifier\": \"@data.details.level.value * 1\", \"type\": \"untyped\" }"
                }
            ],
            "disabled": false,
            "duration": {
                "rounds": null,
                "seconds": null,
                "startRound": null,
                "startTime": null,
                "startTurn": null,
                "turns": null
            },
            "flags": {},
            "icon": "systems/pf2e/icons/features/feats/feats.webp",
            "label": "Toughness",
            "origin": "",
            "tint": "",
            "transfer": true
        }
    ],
    "flags": {},
    "img": "systems/pf2e/icons/features/feats/feats.webp",
    "name": "Toughness",
    "permission": {
        "default": 0
    },
    "type": "feat"
}
