{
    "_id": "Ks1HaYEuSRybaq8U",
    "data": {
        "actionCategory": {
            "value": ""
        },
        "actionType": {
            "value": "passive"
        },
        "actions": {
            "value": ""
        },
        "description": {
            "chat": "",
            "unidentified": "",
            "value": "<p><strong>Moderate Boon</strong>: A foot-long wasp finds and befriends you. It serves you as a familiar as long as you maintain Calistria's grace. The wasp always has the burrower and flier familiar abilities.</p>"
        },
        "featType": {
            "value": "deityboon"
        },
        "level": {
            "value": 0
        },
        "prerequisites": {
            "value": []
        },
        "rules": [],
        "source": {
            "value": ""
        },
        "traits": {
            "custom": "",
            "rarity": {
                "value": "common"
            },
            "selected": {},
            "value": []
        }
    },
    "effects": [],
    "flags": {},
    "img": "systems/pf2e/icons/deity/Calistria.webp",
    "name": "Calistria - Moderate Boon",
    "permission": {
        "default": 0
    },
    "type": "feat"
}
