{
    "_id": "wEqPbkQMuqlL2TPn",
    "data": {
        "actionCategory": {
            "value": ""
        },
        "actionType": {
            "value": "passive"
        },
        "actions": {
            "value": ""
        },
        "description": {
            "chat": "",
            "unidentified": "",
            "value": "<p>Irori makes all living creatures forget your existence. This can be further compounded by raising Irori's ire, resulting in your name being obliterated from all written records. In both cases, memories and writings rearrange themselves to omit you smoothly, rather than leaving obvious gaps.</p>"
        },
        "featType": {
            "value": "deityboon"
        },
        "level": {
            "value": "0"
        },
        "prerequisites": {
            "value": []
        },
        "rules": [],
        "source": {
            "value": ""
        },
        "traits": {
            "custom": "",
            "rarity": {
                "value": "common"
            },
            "selected": {},
            "value": []
        }
    },
    "effects": [],
    "flags": {},
    "img": "systems/pf2e/icons/deity/Irori.webp",
    "name": "Irori - Major Curse",
    "permission": {
        "default": 0
    },
    "type": "feat"
}
