{
    "_id": "OeCn76SB92GPOZwr",
    "data": {
        "description": {
            "value": "<p>Calling upon powerful transformative magic, you gain a Large dragon battle form. You must have space to expand or the spell is lost. While in this form, you gain the dragon trait. You have hands in this battle form and can take manipulate actions. You can Dismiss the spell.</p>\n<p>You gain the following statistics and abilities regardless of which battle form you choose:</p>\n<ul>\n<li>AC = 18 + your level. Ignore your armor's check penalty and Speed reduction.</li>\n<li>10 temporary Hit Points.</li>\n<li>Speed 40 feet, fly Speed 100 feet.</li>\n<li>Resistance 10 against the damage type of your breath weapon (see below).</li>\n<li>Darkvision and imprecise scent 60 feet.</li>\n<li>One or more unarmed melee attacks specific to the battle form you choose, which are the only attacks you can use. You're trained with them. Your attack modifier is +22, and your damage bonus is +6. These attacks are Strength based (for the purpose of the @Compendium[pf2e.conditionitems.Enfeebled]{Enfeebled} condition, for example). If your unarmed attack modifier is higher, you can use it instead. See below for more on these attacks.</li>\n<li>Athletics modifier of +23, unless your own modifier is higher.</li>\n<li><strong>Breath Weapon</strong> <span class=\"pf2-icon\">2</span> (arcane, evocation) The shape, damage, and damage type of your breath weapon depend on your specific dragon form (see below). A creature in the area attempts a basic save against your spell DC. This is a Reflex save unless stated otherwise in the special ability description for your specific dragon form. Once activated, your breath weapon can't be used again for [[/r 1d4 #rounds]] rounds. Your breath weapon has the trait corresponding to the type of damage it deals.</li>\n</ul>\n<p>You also gain specific abilities based on the type of dragon you choose:</p>\n<ul>\n<li><strong>Brass</strong>\n<ul>\n<li>burrow Speed 20 feet;</li>\n<li><strong>Melee</strong> <span class=\"pf2-icon\">1</span> jaws, <strong>Damage</strong> 3d8 piercing plus 2d4 fire;</li>\n<li><strong>Melee</strong> <span class=\"pf2-icon\">1</span> claw (agile), 3d10 slashing;</li>\n<li><strong>Melee</strong> <span class=\"pf2-icon\">1</span> tail (reach 10 feet), <strong>Damage</strong> 3d10 bludgeoning;</li>\n<li><strong>Melee</strong> <span class=\"pf2-icon\">1</span> spikes (reach 10 feet), <strong>Damage</strong> 3d8 piercing;</li>\n<li>breath weapon 60-foot line, [[/r 15d4 #fire]] fire.</li>\n</ul>\n</li>\n</ul>\n<hr />\n<p><strong>Heightened (8th)</strong> Your battle form is Huge, you gain a +20-foot status bonus to your fly Speed, and your attacks have 10-foot reach (or 15-foot reach if they previously had 10-foot reach). You instead gain AC = 21 + your level, 15 temporary HP, an attack modifier of +28, a damage bonus of +12, Athletics +28, and a +14 status bonus to breath weapon damage ([[/r 15d4+14 #fire]] fire damage).</p>\n<hr />\n<p><em>Note: To heighten this effect, import it into your Item Directory and edit the level before adding it to the target</em></p>"
        },
        "duration": {
            "expiry": "turn-start",
            "sustained": false,
            "unit": "minutes",
            "value": 1
        },
        "level": {
            "value": 6
        },
        "rules": [
            {
                "key": "PF2E.RuleElement.FixedProficiency",
                "label": "Dragon Form",
                "roll-options": [
                    "ac",
                    "all"
                ],
                "selector": "ac",
                "type": "polymorph",
                "value": {
                    "brackets": [
                        {
                            "end": 7,
                            "start": 6,
                            "value": "18 + @details.level.value"
                        },
                        {
                            "start": 8,
                            "value": "21 + @details.level.value"
                        }
                    ],
                    "field": "item|data.level.value"
                }
            },
            {
                "key": "PF2E.RuleElement.TempHP",
                "label": "Dragon Form",
                "value": {
                    "brackets": [
                        {
                            "end": 7,
                            "start": 6,
                            "value": 10
                        },
                        {
                            "start": 8,
                            "value": 15
                        }
                    ],
                    "field": "item|data.level.value"
                }
            },
            {
                "key": "PF2E.RuleElement.Sense",
                "label": "PF2E.SensesDarkvision",
                "selector": "darkvision"
            },
            {
                "acuity": "imprecise",
                "key": "PF2E.RuleElement.Sense",
                "label": "PF2E.SensesScent",
                "range": 60,
                "selector": "scent"
            },
            {
                "key": "PF2E.RuleElement.BaseSpeed",
                "selector": "land-speed",
                "value": 40
            },
            {
                "key": "PF2E.RuleElement.BaseSpeed",
                "selector": "fly",
                "value": 100
            },
            {
                "key": "PF2E.RuleElement.BaseSpeed",
                "selector": "burrow",
                "value": 20
            },
            {
                "ability": "str",
                "key": "PF2E.RuleElement.FixedProficiency",
                "label": "Dragon Form",
                "selector": "attack",
                "value": {
                    "brackets": [
                        {
                            "end": 7,
                            "start": 6,
                            "value": 22
                        },
                        {
                            "start": 8,
                            "value": 28
                        }
                    ],
                    "field": "item|data.level.value"
                }
            },
            {
                "ability": "str",
                "key": "PF2E.RuleElement.FixedProficiency",
                "label": "Dragon Form",
                "roll-options": [
                    "all"
                ],
                "selector": "damage",
                "value": {
                    "brackets": [
                        {
                            "end": 7,
                            "start": 6,
                            "value": 6
                        },
                        {
                            "start": 8,
                            "value": 12
                        }
                    ],
                    "field": "item|data.level.value"
                }
            },
            {
                "key": "PF2E.RuleElement.FixedProficiency",
                "label": "Dragon Form",
                "roll-options": [
                    "all"
                ],
                "selector": "athletics",
                "value": {
                    "brackets": [
                        {
                            "end": 7,
                            "start": 6,
                            "value": 23
                        },
                        {
                            "start": 8,
                            "value": 28
                        }
                    ],
                    "field": "item|data.level.value"
                }
            },
            {
                "key": "PF2E.RuleElement.TokenSize",
                "value": {
                    "brackets": [
                        {
                            "end": 7,
                            "start": 6,
                            "value": 2
                        },
                        {
                            "start": 8,
                            "value": 3
                        }
                    ],
                    "field": "item|data.level.value"
                }
            },
            {
                "category": "unarmed",
                "damage": {
                    "base": {
                        "damageType": "piercing",
                        "dice": 3,
                        "die": "d8"
                    }
                },
                "group": "brawling",
                "key": "PF2E.RuleElement.Strike",
                "label": "Jaws",
                "options": [
                    "dragon-jaws",
                    "dragon-form"
                ],
                "range": "melee",
                "traits": [
                    "melee"
                ]
            },
            {
                "critical": false,
                "damageType": "fire",
                "diceNumber": 2,
                "dieSize": "d4",
                "key": "PF2E.RuleElement.DamageDice",
                "label": "Dragon Jaws",
                "predicate": {
                    "all": [
                        "dragon-jaws"
                    ]
                },
                "selector": "damage"
            },
            {
                "category": "unarmed",
                "damage": {
                    "base": {
                        "damageType": "slashing",
                        "dice": 3,
                        "die": "d10"
                    }
                },
                "group": "brawling",
                "key": "PF2E.RuleElement.Strike",
                "label": "Claw",
                "options": [
                    "dragon-form"
                ],
                "range": "melee",
                "traits": [
                    "melee",
                    "agile"
                ]
            },
            {
                "category": "unarmed",
                "damage": {
                    "base": {
                        "damageType": "bludgeoning",
                        "dice": 3,
                        "die": "d10"
                    }
                },
                "group": "brawling",
                "key": "PF2E.RuleElement.Strike",
                "label": "Tail",
                "options": [
                    "dragon-form"
                ],
                "range": "melee",
                "traits": [
                    "melee",
                    "reach-10"
                ]
            },
            {
                "category": "unarmed",
                "damage": {
                    "base": {
                        "damageType": "piercing",
                        "dice": 3,
                        "die": "d8"
                    }
                },
                "group": "brawling",
                "key": "PF2E.RuleElement.Strike",
                "label": "Spikes",
                "options": [
                    "dragon-form"
                ],
                "range": "melee",
                "traits": [
                    "melee",
                    "reach-10"
                ]
            },
            {
                "key": "PF2E.RuleElement.SetProperty",
                "on": {
                    "added": true,
                    "removed": false
                },
                "property": "flags.pf2e.rollOptions.all.polymorph",
                "retain": true
            }
        ],
        "source": {
            "value": ""
        },
        "start": {
            "initiative": null,
            "value": 0
        },
        "target": null,
        "tokenIcon": {
            "show": true
        },
        "traits": {
            "custom": "",
            "rarity": {
                "value": "common"
            },
            "value": []
        }
    },
    "effects": [],
    "flags": {},
    "img": "systems/pf2e/icons/spells/dragon-form.webp",
    "name": "Spell Effect: Dragon Form (Brass)",
    "permission": {
        "default": 0
    },
    "type": "effect"
}
