{
    "_id": "u1cuwAE3xzhYW4Mi",
    "data": {
        "attributes": {
            "ac": {
                "value": 31
            },
            "hardness": 25,
            "hasHealth": true,
            "hp": {
                "details": "",
                "max": 100,
                "temp": 0,
                "tempmax": 0,
                "value": 100
            },
            "stealth": {
                "details": "(expert)",
                "value": 27
            }
        },
        "creatureType": "",
        "details": {
            "description": "A hidden needle delivers a magical poison to anyone trying to open the door.",
            "disable": "DC 32 Thievery (master) to jam the needle in its housing or <i>dispel magic</i> (6th level, counteract DC 30) to dispel the magical poison.",
            "isComplex": false,
            "level": 12,
            "reset": "",
            "routine": ""
        },
        "recallKnowledgeText": "",
        "saves": {
            "fortitude": {
                "rank": 0,
                "saveDetail": "",
                "value": 23
            },
            "reflex": {
                "rank": 0,
                "saveDetail": "",
                "value": 17
            },
            "will": {
                "rank": 0,
                "saveDetail": "",
                "value": 0
            }
        },
        "schema": {
            "version": {
                "value": ""
            }
        },
        "source": {
            "value": ""
        },
        "statusEffects": [],
        "traits": {
            "ci": [],
            "di": {
                "custom": "",
                "selected": {},
                "value": [
                    "critical-hits",
                    "object-immunities",
                    "precision"
                ]
            },
            "dr": [],
            "dv": [],
            "rarity": {
                "value": "common"
            },
            "size": {
                "value": "med"
            },
            "traits": {
                "custom": "",
                "value": [
                    "magical",
                    "mechanical"
                ]
            }
        }
    },
    "effects": [],
    "flags": {},
    "folder": null,
    "img": "systems/pf2e/icons/default-icons/hazard.svg",
    "items": [
        {
            "_id": "VeiaoxMMsn7EH0Ri",
            "data": {
                "actionCategory": {
                    "value": "offensive"
                },
                "actionType": {
                    "value": "reaction"
                },
                "actions": {
                    "value": ""
                },
                "description": {
                    "chat": "",
                    "unidentified": "",
                    "value": "<p><strong>Trigger</strong> A creature touches the door; <strong>Effect</strong> The creature is targeted by <i>purple worm sting</i> (<span data-pf2-saving-throw=\"fortitude\" data-pf2-dc=\"32\" data-pf2-traits=\"necromancy,poison,primal\" data-pf2-label=\"Purple Worm Sting DC\" data-pf2-show-dc=\"gm\">Fortitude</span> save).</p>"
                },
                "requirements": {
                    "value": ""
                },
                "rules": [],
                "slug": null,
                "source": {
                    "value": ""
                },
                "traits": {
                    "custom": "",
                    "rarity": {
                        "value": "common"
                    },
                    "value": [
                        "necromancy",
                        "poison",
                        "primal"
                    ]
                },
                "trigger": {
                    "value": ""
                },
                "usage": {
                    "value": "held-in-one-hand"
                },
                "weapon": {
                    "value": ""
                }
            },
            "effects": [],
            "flags": {},
            "folder": null,
            "img": "systems/pf2e/icons/actions/Reaction.webp",
            "name": "Purple Worm Sting",
            "permission": {
                "default": 0
            },
            "sort": 300000,
            "type": "action"
        },
        {
            "_id": "4XbK3Gnf0R1gkYPJ",
            "data": {
                "activation": {
                    "condition": "",
                    "cost": 0,
                    "type": ""
                },
                "autoDestroy": {
                    "_deprecated": true,
                    "value": true
                },
                "autoUse": {
                    "_deprecated": true,
                    "value": true
                },
                "baseItem": null,
                "brokenThreshold": {
                    "value": 0
                },
                "bulkCapacity": {
                    "value": ""
                },
                "charges": {
                    "_deprecated": true,
                    "max": 1,
                    "value": 1
                },
                "collapsed": {
                    "value": false
                },
                "consumableType": {
                    "value": "potion"
                },
                "consume": {
                    "_deprecated": true,
                    "value": ""
                },
                "containerId": {
                    "value": ""
                },
                "description": {
                    "chat": "",
                    "unidentified": "",
                    "value": "<p>Venom from enormous purple worms leaves a victim weakened.</p>\n<hr />\n<p><strong>Activate</strong> <span class=\"pf2-icon\">D</span> Interact (Injury)</p>\n<p><strong>Saving Throw</strong> DC 32 Fortitude</p>\n<p><strong>Maximum Duration</strong> 6 rounds</p>\n<p><strong>Stage 1</strong> [[/r 5d6#poison]] poison damage and @Compendium[pf2e.conditionitems.Enfeebled]{Enfeebled} 2 (1 round)</p>\n<p><strong>Stage 2</strong> [[/r 6d6#poison]] poison damage and enfeebled 2 (1 round)</p>\n<p><strong>Stage 3</strong> [[/r 8d6#poison]] poison and enfeebled 2 (1 round)</p>"
                },
                "duration": {
                    "units": "",
                    "value": null
                },
                "equipped": {
                    "value": false
                },
                "equippedBulk": {
                    "value": ""
                },
                "hardness": {
                    "value": 0
                },
                "hp": {
                    "value": 0
                },
                "identification": {
                    "misidentified": {},
                    "status": "identified",
                    "unidentified": {
                        "data": {
                            "description": {
                                "value": ""
                            }
                        },
                        "img": "",
                        "name": ""
                    }
                },
                "invested": {
                    "value": false
                },
                "level": {
                    "value": 13
                },
                "maxHp": {
                    "value": 0
                },
                "negateBulk": {
                    "value": "0"
                },
                "preciousMaterial": {
                    "value": ""
                },
                "preciousMaterialGrade": {
                    "value": ""
                },
                "price": {
                    "value": " 500 gp"
                },
                "quantity": {
                    "value": 1
                },
                "range": {
                    "long": null,
                    "units": "",
                    "value": null
                },
                "rules": [],
                "size": {
                    "value": "med"
                },
                "slug": null,
                "source": {
                    "value": ""
                },
                "spell": {
                    "data": null,
                    "heightenedLevel": null
                },
                "stackGroup": {
                    "value": ""
                },
                "target": {
                    "type": "",
                    "units": "",
                    "value": null
                },
                "traits": {
                    "custom": "",
                    "rarity": {
                        "value": "common"
                    },
                    "usage": {
                        "value": "held-in-one-hand"
                    },
                    "value": [
                        "alchemical",
                        "consumable",
                        "injury",
                        "poison"
                    ]
                },
                "usage": {
                    "value": "held-in-one-hand"
                },
                "uses": {
                    "autoDestroy": true,
                    "autoUse": true,
                    "max": 0,
                    "per": null,
                    "value": 0
                },
                "weight": {
                    "value": "L"
                }
            },
            "effects": [],
            "flags": {},
            "folder": null,
            "img": "systems/pf2e/icons/equipment/alchemical-items/alchemical-poisons/purple-worm-venom.webp",
            "name": "Purple Worm Venom",
            "permission": {
                "default": 0
            },
            "sort": 100000,
            "type": "consumable"
        },
        {
            "_id": "gzMwqFLG38aJHUIa",
            "data": {
                "actionCategory": {
                    "value": ""
                },
                "actionType": {
                    "value": "passive"
                },
                "actions": {
                    "value": null
                },
                "description": {
                    "chat": "",
                    "unidentified": "",
                    "value": "<p>Venom from enormous purple worms leaves a victim weakened.</p>\n<p><strong>Saving Throw</strong> DC 32 Fortitude</p>\n<p><strong>Maximum Duration</strong> 6 rounds</p>\n<p><strong>Stage 1</strong> [[/r 5d6#poison]] poison damage and @Compendium[pf2e.conditionitems.Enfeebled]{Enfeebled} 2 (1 round)</p>\n<p><strong>Stage 2</strong> [[/r 6d6#poison]] poison damage and enfeebled 2 (1 round)</p>\n<p><strong>Stage 3</strong> [[/r 8d6#poison]] poison and enfeebled 2 (1 round)</p>"
                },
                "requirements": {
                    "value": ""
                },
                "rules": [],
                "slug": null,
                "source": {
                    "value": ""
                },
                "traits": {
                    "custom": "",
                    "rarity": {
                        "value": "common"
                    },
                    "value": []
                },
                "trigger": {
                    "value": ""
                },
                "usage": {
                    "value": "held-in-one-hand"
                },
                "weapon": {
                    "value": ""
                }
            },
            "effects": [],
            "flags": {},
            "folder": null,
            "img": "systems/pf2e/icons/default-icons/action.svg",
            "name": "Purple Worm Venom",
            "permission": {
                "default": 0
            },
            "sort": 200000,
            "type": "action"
        }
    ],
    "name": "False Door Trap",
    "permission": {
        "default": 0
    },
    "token": {
        "actorId": "u1cuwAE3xzhYW4Mi",
        "actorLink": false,
        "alpha": 1,
        "bar1": {
            "attribute": null
        },
        "bar2": {
            "attribute": null
        },
        "brightLight": 0,
        "brightSight": 0,
        "dimLight": 0,
        "dimSight": 0,
        "displayBars": 20,
        "displayName": 20,
        "disposition": 0,
        "flags": {},
        "height": 1,
        "img": "systems/pf2e/icons/default-icons/hazard.svg",
        "lightAlpha": 1,
        "lightAngle": 0,
        "lightAnimation": {
            "intensity": 5,
            "speed": 5
        },
        "lockRotation": false,
        "mirrorX": false,
        "mirrorY": false,
        "name": "False Door Trap",
        "randomImg": false,
        "rotation": 0,
        "scale": 1,
        "sightAngle": 0,
        "tint": null,
        "vision": false,
        "width": 1
    },
    "type": "hazard"
}
