{
    "_id": "PmHt7Gb5fCrlWWTr",
    "author": "qZdAigNsA8Xx4gAx",
    "command": "game.pf2e.actions.senseMotive({ event: event });",
    "flags": {},
    "folder": null,
    "img": "icons/svg/dice-target.svg",
    "name": "Sense Motive: Perception",
    "permission": {
        "default": 1
    },
    "scope": "global",
    "type": "script"
}
