{
    "_id": "Ra32tlqBxHzT6fzN",
    "data": {
        "actionCategory": {
            "value": ""
        },
        "actionType": {
            "value": "passive"
        },
        "actions": {
            "value": ""
        },
        "description": {
            "chat": "",
            "unidentified": "",
            "value": "<p>You have become thoroughly familiar with the weapons of your trade. Your proficiency ranks for all simple weapons and unarmed attacks increase to expert.</p>"
        },
        "featType": {
            "value": "classfeature"
        },
        "level": {
            "value": 11
        },
        "location": "",
        "prerequisites": {
            "value": []
        },
        "rules": [],
        "source": {
            "value": ""
        },
        "traits": {
            "custom": "",
            "rarity": {
                "value": "common"
            },
            "value": [
                "druid"
            ]
        }
    },
    "effects": [
        {
            "_id": "vMvEiquTE4DqyCkT",
            "changes": [
                {
                    "key": "data.martial.simple.rank",
                    "mode": 4,
                    "value": "2"
                },
                {
                    "key": "data.martial.unarmed.rank",
                    "mode": 4,
                    "value": "2"
                }
            ],
            "disabled": false,
            "duration": {
                "startTime": null
            },
            "flags": {},
            "icon": "systems/pf2e/icons/features/classes/druid-weapon-expertise.webp",
            "label": "Druid Weapon Expertise",
            "origin": "",
            "tint": null,
            "transfer": true
        }
    ],
    "flags": {},
    "folder": null,
    "img": "systems/pf2e/icons/features/classes/druid-weapon-expertise.webp",
    "name": "Druid Weapon Expertise",
    "permission": {
        "default": 0
    },
    "type": "feat"
}
