{
    "_id": "xxkszluN9icAiTO4",
    "data": {
        "actionCategory": {
            "value": ""
        },
        "actionType": {
            "value": "passive"
        },
        "actions": {
            "value": ""
        },
        "description": {
            "value": "<p>You're trained in light and medium armor, and you have expert proficiency in Fortitude saves.</p>\n<p>You gain the @Compendium[pf2e.feats-srd.Shield Block]{Shield Block} general feat, a reaction to reduce damage with a shield.</p>\n<p>If your deity's weapon is simple, you gain the @Compendium[pf2e.feats-srd.Deadly Simplicity]{Deadly Simplicity} cleric feat.</p>\n<p>At 13th level, if you gain the divine defense class feature, you also gain expert proficiency in light and medium armor.</p>"
        },
        "featType": {
            "value": "classfeature"
        },
        "level": {
            "value": 1
        },
        "location": "",
        "prerequisites": {
            "value": []
        },
        "rules": [],
        "source": {
            "value": ""
        },
        "traits": {
            "custom": "",
            "rarity": {
                "value": "common"
            },
            "value": [
                "cleric"
            ]
        }
    },
    "effects": [
        {
            "_id": "vKpvnHxNzPpjBEUE",
            "changes": [
                {
                    "key": "data.martial.medium.rank",
                    "mode": 4,
                    "value": "1"
                },
                {
                    "key": "data.martial.light.rank",
                    "mode": 4,
                    "value": "1"
                },
                {
                    "key": "data.saves.fortitude.rank",
                    "mode": 4,
                    "value": "2"
                }
            ],
            "disabled": false,
            "duration": {
                "startTime": null
            },
            "flags": {},
            "icon": "systems/pf2e/icons/features/classes/warpriest.webp",
            "label": "First Doctrine (Warpriest)",
            "origin": "",
            "tint": null,
            "transfer": true
        }
    ],
    "flags": {},
    "folder": null,
    "img": "systems/pf2e/icons/features/classes/warpriest.webp",
    "name": "First Doctrine (Warpriest)",
    "permission": {
        "default": 0
    },
    "type": "feat"
}
