{
    "_id": "mzkkj9LEWjJPBhaq",
    "data": {
        "actionCategory": {
            "value": ""
        },
        "actionType": {
            "value": "passive"
        },
        "actions": {
            "value": ""
        },
        "description": {
            "value": "<p>You have trained for countless hours to become a skilled hunter and tracker, gaining an additional benefit when you Hunt Prey depending on the focus of your training. Choose one of the following hunter's edges:</p>\n<ul>\n<li>@Compendium[pf2e.classfeatures.Hunter's Edge: Flurry]{Hunter's Edge: Flurry}</li>\n<li>@Compendium[pf2e.classfeatures.Hunter's Edge: Outwit]{Hunter's Edge: Outwit}</li>\n<li>@Compendium[pf2e.classfeatures.Hunter's Edge: Precision]{Hunter's Edge: Precision}</li>\n</ul>"
        },
        "featType": {
            "value": "classfeature"
        },
        "level": {
            "value": 1
        },
        "location": "",
        "prerequisites": {
            "value": []
        },
        "rules": [],
        "source": {
            "value": ""
        },
        "traits": {
            "custom": "",
            "rarity": {
                "value": "common"
            },
            "value": [
                "ranger"
            ]
        }
    },
    "effects": [],
    "flags": {},
    "folder": null,
    "img": "systems/pf2e/icons/default-icons/feat.svg",
    "name": "Hunter's Edge",
    "permission": {
        "default": 0
    },
    "type": "feat"
}
