{
    "_id": "ejP4jVQkS48uKRFz",
    "data": {
        "actionCategory": {
            "value": ""
        },
        "actionType": {
            "value": "passive"
        },
        "actions": {
            "value": ""
        },
        "description": {
            "chat": "",
            "unidentified": "",
            "value": "<p>Your rage makes you even more effective with the weapons you wield. Your proficiency ranks for simple weapons, martial weapons, and unarmed attacks increase to master.</p>"
        },
        "featType": {
            "value": "classfeature"
        },
        "level": {
            "value": 13
        },
        "location": "",
        "prerequisites": {
            "value": []
        },
        "rules": [],
        "source": {
            "value": ""
        },
        "traits": {
            "custom": "",
            "rarity": {
                "value": "common"
            },
            "value": [
                "barbarian"
            ]
        }
    },
    "effects": [
        {
            "_id": "14jp5vJGMloIFdBm",
            "changes": [
                {
                    "key": "data.martial.simple.rank",
                    "mode": 4,
                    "value": "3"
                },
                {
                    "key": "data.martial.martial.rank",
                    "mode": 4,
                    "value": "3"
                },
                {
                    "key": "data.martial.unarmed.rank",
                    "mode": 4,
                    "value": "3"
                }
            ],
            "disabled": false,
            "duration": {
                "startTime": null
            },
            "flags": {},
            "icon": "systems/pf2e/icons/features/classes/weapon-fury.webp",
            "label": "Weapon Fury",
            "origin": "",
            "tint": null,
            "transfer": true
        }
    ],
    "flags": {},
    "folder": null,
    "img": "systems/pf2e/icons/features/classes/weapon-fury.webp",
    "name": "Weapon Fury",
    "permission": {
        "default": 0
    },
    "type": "feat"
}
