{
    "_id": "oMZaSpBmWddKZ1KN",
    "data": {
        "abilities": {
            "cha": {
                "min": 3,
                "mod": 6,
                "value": 22
            },
            "con": {
                "min": 3,
                "mod": 6,
                "value": 22
            },
            "dex": {
                "min": 3,
                "mod": 5,
                "value": 20
            },
            "int": {
                "min": 3,
                "mod": 5,
                "value": 20
            },
            "str": {
                "min": 3,
                "mod": "+9",
                "value": 28
            },
            "wis": {
                "min": 3,
                "mod": 5,
                "value": 20
            }
        },
        "attributes": {
            "ac": {
                "check": 0,
                "details": "",
                "dex": 0,
                "item": 0,
                "min": 0,
                "value": 40
            },
            "allSaves": {
                "value": "+1 status to all saves vs. magic"
            },
            "ancestryhp": 0,
            "bonusEncumbranceBulk": 0,
            "bonusLimitBulk": 0,
            "classDC": {
                "ability": "str",
                "breakdown": "",
                "item": 0,
                "rank": 0,
                "value": 0
            },
            "classhp": 0,
            "flatbonushp": 0,
            "flatbonussp": 0,
            "hp": {
                "details": "",
                "max": 330,
                "min": 0,
                "temp": 0,
                "value": 330
            },
            "init": {
                "bonus": 0,
                "value": 0
            },
            "initiative": {
                "ability": "",
                "circumstance": 0,
                "status": 0
            },
            "levelbonushp": 0,
            "levelbonussp": 0,
            "perception": {
                "ability": "wis",
                "breakdown": "",
                "item": 0,
                "rank": 0,
                "value": 32
            },
            "resolve": {
                "value": 0
            },
            "shield": {
                "ac": 0,
                "brokenThreshold": 0,
                "hardness": 0,
                "max": 0,
                "min": 0,
                "value": 0
            },
            "sp": {
                "details": "",
                "max": 0,
                "min": 0,
                "value": 0
            },
            "speed": {
                "otherSpeeds": [
                    {
                        "exceptions": "",
                        "label": "Fly",
                        "type": "fly",
                        "value": "140"
                    },
                    {
                        "exceptions": "",
                        "label": "Swim",
                        "type": "swim",
                        "value": "70"
                    }
                ],
                "value": "50"
            }
        },
        "currency": {
            "cp": {
                "value": 0
            },
            "gp": {
                "value": 0
            },
            "pp": {
                "value": 0
            },
            "sp": {
                "value": 0
            }
        },
        "customModifiers": {},
        "details": {
            "alignment": {
                "value": "LN"
            },
            "ancestry": {
                "value": "Dragon, Brine"
            },
            "biography": {
                "public": "",
                "value": ""
            },
            "class": {
                "value": ""
            },
            "creatureType": "Dragon, Elemental",
            "deity": {
                "image": "systems/pf2e/assets/sheet/deity.webp",
                "value": ""
            },
            "flavorText": "Brine dragons are usually blue-green in color, with shiny scales, crests that help them glide through the water, and sweeping neck frills. They care little for either good or evil. As they are both opinionated and willing to impose their sense of order on others, many brine dragons eventually seek to rule over a meticulously crafted community. These communities are orderly and well-planned, with rigid standards of courtesy and unchanging laws set down by the dragon themself. A settlement seeded by a brine dragon can be made of members of almost any ancestry, but the most common inhabitants are humans, merfolk, tengus, or sahuagin.<br /><br />Depending on the dragon's personality, their community members might view their brine dragon ruler as anything from a benevolent force of order to a fearful tyrant. Regardless, the typical brine dragon has little patience for kindness or philanthropy, and the strength and health of their settlement as a whole are of greater concern than individuals' well-being. A notable exception to this dispassion rises when an outside force encroaches on their lands. In these cases, the brine dragon is quick to step in and aid in the defense of their community.<br /><br />Although brine dragons enjoy cultivating settlements, they rarely make their lairs within the city limits, instead preferring to dwell in sea caves or cliffside grottoes overlooking the coastline. Here they can retreat for privacy as needed, or can accumulate and display their gathered wealth in a place where they feel safe spreading out their treasures. Brine dragon hoards often consist of a mix of offerings and taxes paid by those they rule over and strange discoveries salvaged from sunken ships.<br /><br />",
            "flavourText": "",
            "heritage": {
                "value": ""
            },
            "keyability": {
                "value": "str"
            },
            "level": {
                "min": 1,
                "value": 17
            },
            "recallKnowledgeText": "Recall Knowledge - Dragon : DC 41<br />Recall Knowledge - Elemental : DC 41",
            "sidebarText": "",
            "source": {
                "value": "Bestiary 2 pg. 88"
            }
        },
        "items": {
            "0": {
                "data": {
                    "slots": {
                        "slot1": {
                            "max": 0,
                            "value": 0
                        },
                        "slot2": {
                            "max": 0,
                            "value": 0
                        },
                        "slot3": {
                            "max": 0,
                            "value": 0
                        },
                        "slot4": {
                            "max": 0,
                            "value": 0
                        },
                        "slot5": {
                            "max": 0,
                            "value": 0
                        },
                        "slot6": {
                            "max": 0,
                            "value": 0
                        },
                        "slot7": {
                            "max": 0,
                            "value": 0
                        },
                        "slot8": {
                            "max": 0,
                            "value": 0
                        },
                        "slot9": {
                            "max": 0,
                            "value": 0
                        }
                    },
                    "spelldc": {
                        "dc": 38,
                        "value": 30
                    }
                }
            },
            "wea1MnyUIhvtedhE": {
                "data": {
                    "spelldc": {
                        "dc": 38,
                        "value": 30
                    }
                }
            }
        },
        "martial": {
            "advanced": {
                "breakdown": "",
                "rank": 0,
                "value": 0
            },
            "heavy": {
                "breakdown": "",
                "rank": 0,
                "value": 0
            },
            "light": {
                "breakdown": "",
                "rank": 0,
                "value": 0
            },
            "martial": {
                "breakdown": "",
                "rank": 0,
                "value": 0
            },
            "medium": {
                "breakdown": "",
                "rank": 0,
                "value": 0
            },
            "simple": {
                "breakdown": "",
                "rank": 0,
                "value": 0
            },
            "unarmed": {
                "breakdown": "",
                "rank": 0,
                "value": 0
            },
            "unarmored": {
                "breakdown": "",
                "rank": 0,
                "value": 0
            }
        },
        "saves": {
            "fortitude": {
                "ability": "con",
                "breakdown": "",
                "item": 0,
                "rank": 0,
                "saveDetail": "",
                "value": 31
            },
            "reflex": {
                "ability": "dex",
                "breakdown": "",
                "item": 0,
                "rank": 0,
                "saveDetail": "",
                "value": 30
            },
            "will": {
                "ability": "wis",
                "breakdown": "",
                "item": 0,
                "rank": 0,
                "saveDetail": "",
                "value": 30
            }
        },
        "schema": {
            "version": {
                "value": ""
            }
        },
        "skills": {
            "acr": {
                "ability": "dex",
                "armor": 1,
                "breakdown": "",
                "item": 0,
                "mod": 0,
                "rank": 0,
                "value": 0
            },
            "arc": {
                "ability": "int",
                "breakdown": "",
                "item": 0,
                "mod": 0,
                "rank": 0,
                "value": 0
            },
            "ath": {
                "ability": "str",
                "armor": 1,
                "breakdown": "",
                "item": 0,
                "mod": 0,
                "rank": 0,
                "value": 0
            },
            "cra": {
                "ability": "int",
                "breakdown": "",
                "item": 0,
                "mod": 0,
                "rank": 0,
                "value": 0
            },
            "dec": {
                "ability": "cha",
                "breakdown": "",
                "item": 0,
                "mod": 0,
                "rank": 0,
                "value": 0
            },
            "dip": {
                "ability": "cha",
                "breakdown": "",
                "item": 0,
                "mod": 0,
                "rank": 0,
                "value": 0
            },
            "itm": {
                "ability": "cha",
                "breakdown": "",
                "item": 0,
                "mod": 0,
                "rank": 0,
                "value": 0
            },
            "med": {
                "ability": "wis",
                "breakdown": "",
                "item": 0,
                "mod": 0,
                "rank": 0,
                "value": 0
            },
            "nat": {
                "ability": "wis",
                "breakdown": "",
                "item": 0,
                "mod": 0,
                "rank": 0,
                "value": 0
            },
            "occ": {
                "ability": "int",
                "breakdown": "",
                "item": 0,
                "mod": 0,
                "rank": 0,
                "value": 0
            },
            "prf": {
                "ability": "cha",
                "breakdown": "",
                "item": 0,
                "mod": 0,
                "rank": 0,
                "value": 0
            },
            "rel": {
                "ability": "wis",
                "breakdown": "",
                "item": 0,
                "mod": 0,
                "rank": 0,
                "value": 0
            },
            "soc": {
                "ability": "int",
                "breakdown": "",
                "item": 0,
                "mod": 0,
                "rank": 0,
                "value": 0
            },
            "ste": {
                "ability": "dex",
                "armor": 1,
                "breakdown": "",
                "item": 0,
                "mod": 0,
                "rank": 0,
                "value": 0
            },
            "sur": {
                "ability": "wis",
                "breakdown": "",
                "item": 0,
                "mod": 0,
                "rank": 0,
                "value": 0
            },
            "thi": {
                "ability": "dex",
                "armor": 1,
                "breakdown": "",
                "item": 0,
                "mod": 0,
                "rank": 0,
                "value": 0
            }
        },
        "spells": {
            "spell0": {
                "max": 0
            },
            "spell1": {
                "max": 0
            },
            "spell10": {
                "max": 0
            },
            "spell11": {
                "max": 0
            },
            "spell2": {
                "max": 0
            },
            "spell3": {
                "max": 0
            },
            "spell4": {
                "max": 0
            },
            "spell5": {
                "max": 0
            },
            "spell6": {
                "max": 0
            },
            "spell7": {
                "max": 0
            },
            "spell8": {
                "max": 0
            },
            "spell9": {
                "max": 0
            }
        },
        "statusEffects": [],
        "traits": {
            "attitude": {
                "value": "hostile"
            },
            "ci": [],
            "di": {
                "custom": "",
                "value": [
                    "acid",
                    "paralyzed",
                    "sleep"
                ]
            },
            "dr": [],
            "dv": [],
            "languages": {
                "custom": "",
                "selected": [],
                "value": [
                    "aquan",
                    "common",
                    "draconic",
                    "sylvan",
                    "utopian"
                ]
            },
            "rarity": {
                "value": "rare"
            },
            "senses": {
                "value": "darkvision, scent (imprecise) 60 feet"
            },
            "size": {
                "value": "grg"
            },
            "traits": {
                "custom": "",
                "value": [
                    "amphibious",
                    "dragon",
                    "elemental",
                    "water"
                ]
            }
        }
    },
    "effects": [],
    "flags": {},
    "folder": null,
    "img": "systems/pf2e/icons/default-icons/npc.svg",
    "items": [
        {
            "_id": "wea1MnyUIhvtedhE",
            "data": {
                "ability": {
                    "value": ""
                },
                "description": {
                    "chat": "",
                    "unidentified": "",
                    "value": ""
                },
                "displayLevel": {},
                "displayLevels": {},
                "focus": {
                    "points": 1,
                    "pool": 1
                },
                "item": {
                    "value": 0
                },
                "prepared": {
                    "value": "Innate"
                },
                "proficiency": {
                    "value": 0
                },
                "rules": [],
                "showUnpreparedSpells": {
                    "value": false
                },
                "signatureSpells": {
                    "value": []
                },
                "slots": {
                    "slot0": {
                        "max": 0,
                        "prepared": [],
                        "value": 0
                    },
                    "slot1": {
                        "max": 0,
                        "prepared": [],
                        "value": 0
                    },
                    "slot10": {
                        "max": 0,
                        "prepared": [],
                        "value": 0
                    },
                    "slot11": {
                        "max": 0,
                        "prepared": [],
                        "value": 0
                    },
                    "slot2": {
                        "max": 0,
                        "prepared": [],
                        "value": 0
                    },
                    "slot3": {
                        "max": 0,
                        "prepared": [],
                        "value": 0
                    },
                    "slot4": {
                        "max": 0,
                        "prepared": [],
                        "value": 0
                    },
                    "slot5": {
                        "max": 0,
                        "prepared": [],
                        "value": 0
                    },
                    "slot6": {
                        "max": 0,
                        "prepared": [],
                        "value": 0
                    },
                    "slot7": {
                        "max": 0,
                        "prepared": [],
                        "value": 0
                    },
                    "slot8": {
                        "max": 0,
                        "prepared": [],
                        "value": 0
                    },
                    "slot9": {
                        "max": 0,
                        "prepared": [],
                        "value": 0
                    }
                },
                "slug": null,
                "source": {
                    "value": ""
                },
                "spelldc": {
                    "dc": "38",
                    "item": 0,
                    "mod": 0,
                    "value": 30
                },
                "tradition": {
                    "value": "primal"
                },
                "traits": {
                    "custom": "",
                    "rarity": {
                        "value": "common"
                    },
                    "value": []
                },
                "usage": {
                    "value": "held-in-one-hand"
                }
            },
            "effects": [],
            "flags": {},
            "folder": null,
            "img": "systems/pf2e/icons/default-icons/mystery-man.svg",
            "name": "Primal Innate Spells",
            "permission": {
                "default": 0
            },
            "sort": 100000,
            "type": "spellcastingEntry"
        },
        {
            "_id": "CAPONuiPj7xEFjGV",
            "data": {
                "ability": {
                    "value": ""
                },
                "area": {
                    "areaType": "",
                    "value": null
                },
                "areasize": {
                    "value": "60-foot line"
                },
                "category": {
                    "value": "spell"
                },
                "components": {
                    "material": false,
                    "somatic": true,
                    "verbal": true
                },
                "cost": {
                    "value": ""
                },
                "damage": {
                    "applyMod": false,
                    "value": "12d6"
                },
                "damageType": {
                    "value": "bludgeoning"
                },
                "description": {
                    "chat": "",
                    "unidentified": "",
                    "value": "<p>A swirling torrent of water manifests along a straight line, battering those that are its path and possibly pushing them away from you. The torrent deals 8d6 bludgeoning damage. Each creature in the area must attempt a basic Fortitude save. Creatures that fail the save are also knocked back 5 feet (10 feet on a critical failure).</p>\n<hr />\n<p><strong>Heightened (+1)</strong> The damage increases by 2d6.</p>"
                },
                "duration": {
                    "value": ""
                },
                "hasCounteractCheck": {
                    "value": false
                },
                "level": {
                    "value": 6
                },
                "location": {
                    "value": "wea1MnyUIhvtedhE"
                },
                "materials": {
                    "value": ""
                },
                "prepared": {
                    "value": ""
                },
                "primarycheck": {
                    "value": ""
                },
                "range": {
                    "value": ""
                },
                "rules": [],
                "save": {
                    "basic": "",
                    "value": "fortitude"
                },
                "scaling": {
                    "formula": "2d6",
                    "mode": "level1"
                },
                "school": {
                    "value": "evocation"
                },
                "secondarycasters": {
                    "value": ""
                },
                "secondarycheck": {
                    "value": ""
                },
                "slug": "hydraulic-torrent",
                "source": {
                    "value": ""
                },
                "spellType": {
                    "value": "save"
                },
                "sustained": {
                    "value": false
                },
                "target": {
                    "value": ""
                },
                "time": {
                    "value": "2"
                },
                "traditions": {
                    "value": [
                        "primal"
                    ]
                },
                "traits": {
                    "custom": "",
                    "rarity": {
                        "value": "common"
                    },
                    "value": [
                        "evocation",
                        "water"
                    ]
                }
            },
            "effects": [],
            "flags": {
                "core": {
                    "sourceId": "Compendium.pf2e.spells-srd.Y3G6Y6EDgCY0s3fq"
                }
            },
            "folder": null,
            "img": "systems/pf2e/icons/spells/hydraulic-torrent.webp",
            "name": "Hydraulic Torrent",
            "permission": {
                "default": 0
            },
            "sort": 200000,
            "type": "spell"
        },
        {
            "_id": "Amy3IYyx3Etum3TI",
            "data": {
                "ability": {
                    "value": ""
                },
                "area": {
                    "areaType": "",
                    "value": null
                },
                "areasize": {
                    "value": "50 feet long by 50 feet wide"
                },
                "category": {
                    "value": "spell"
                },
                "components": {
                    "material": false,
                    "somatic": true,
                    "verbal": true
                },
                "cost": {
                    "value": ""
                },
                "damage": {
                    "applyMod": false,
                    "value": ""
                },
                "damageType": {
                    "value": ""
                },
                "description": {
                    "chat": "",
                    "unidentified": "",
                    "value": "<p>By imposing your will upon the water, you can raise or lower the level of water in the chosen area by 10 feet. Water creatures in the area are subjected to the effects of @Compendium[pf2e.spells-srd.Slow]{Slow}.</p>"
                },
                "duration": {
                    "value": ""
                },
                "hasCounteractCheck": {
                    "value": false
                },
                "level": {
                    "value": 5
                },
                "location": {
                    "value": "wea1MnyUIhvtedhE"
                },
                "materials": {
                    "value": ""
                },
                "prepared": {
                    "value": ""
                },
                "primarycheck": {
                    "value": ""
                },
                "range": {
                    "value": "500 feet"
                },
                "rules": [],
                "save": {
                    "basic": "",
                    "value": ""
                },
                "scaling": {
                    "formula": "",
                    "mode": "none"
                },
                "school": {
                    "value": "evocation"
                },
                "secondarycasters": {
                    "value": ""
                },
                "secondarycheck": {
                    "value": ""
                },
                "slug": "control-water",
                "source": {
                    "value": ""
                },
                "spellType": {
                    "value": "utility"
                },
                "sustained": {
                    "value": false
                },
                "target": {
                    "value": ""
                },
                "time": {
                    "value": "2"
                },
                "traditions": {
                    "value": [
                        "arcane",
                        "primal"
                    ]
                },
                "traits": {
                    "custom": "",
                    "rarity": {
                        "value": "common"
                    },
                    "value": [
                        "evocation",
                        "water"
                    ]
                }
            },
            "effects": [],
            "flags": {
                "core": {
                    "sourceId": "Compendium.pf2e.spells-srd.zfn5RqAdF63neqpP"
                }
            },
            "folder": null,
            "img": "systems/pf2e/icons/spells/control-water.webp",
            "name": "Control Water",
            "permission": {
                "default": 0
            },
            "sort": 300000,
            "type": "spell"
        },
        {
            "_id": "Dkyvv0Exn99Z45HA",
            "data": {
                "ability": {
                    "value": ""
                },
                "area": {
                    "areaType": "",
                    "value": null
                },
                "areasize": {
                    "value": "50 feet long by 50 feet wide"
                },
                "category": {
                    "value": "spell"
                },
                "components": {
                    "material": false,
                    "somatic": true,
                    "verbal": true
                },
                "cost": {
                    "value": ""
                },
                "damage": {
                    "applyMod": false,
                    "value": ""
                },
                "damageType": {
                    "value": ""
                },
                "description": {
                    "chat": "",
                    "unidentified": "",
                    "value": "<p>By imposing your will upon the water, you can raise or lower the level of water in the chosen area by 10 feet. Water creatures in the area are subjected to the effects of @Compendium[pf2e.spells-srd.Slow]{Slow}.</p>"
                },
                "duration": {
                    "value": ""
                },
                "hasCounteractCheck": {
                    "value": false
                },
                "level": {
                    "value": 5
                },
                "location": {
                    "value": "wea1MnyUIhvtedhE"
                },
                "materials": {
                    "value": ""
                },
                "prepared": {
                    "value": ""
                },
                "primarycheck": {
                    "value": ""
                },
                "range": {
                    "value": "500 feet"
                },
                "rules": [],
                "save": {
                    "basic": "",
                    "value": ""
                },
                "scaling": {
                    "formula": "",
                    "mode": "none"
                },
                "school": {
                    "value": "evocation"
                },
                "secondarycasters": {
                    "value": ""
                },
                "secondarycheck": {
                    "value": ""
                },
                "slug": "control-water",
                "source": {
                    "value": ""
                },
                "spellType": {
                    "value": "utility"
                },
                "sustained": {
                    "value": false
                },
                "target": {
                    "value": ""
                },
                "time": {
                    "value": "2"
                },
                "traditions": {
                    "value": [
                        "arcane",
                        "primal"
                    ]
                },
                "traits": {
                    "custom": "",
                    "rarity": {
                        "value": "common"
                    },
                    "value": [
                        "evocation",
                        "water"
                    ]
                }
            },
            "effects": [],
            "flags": {
                "core": {
                    "sourceId": "Compendium.pf2e.spells-srd.zfn5RqAdF63neqpP"
                }
            },
            "folder": null,
            "img": "systems/pf2e/icons/spells/control-water.webp",
            "name": "Control Water",
            "permission": {
                "default": 0
            },
            "sort": 400000,
            "type": "spell"
        },
        {
            "_id": "CT9sC1CdNfMo4OAD",
            "data": {
                "ability": {
                    "value": ""
                },
                "area": {
                    "areaType": "",
                    "value": null
                },
                "areasize": {
                    "value": "50 feet long by 50 feet wide"
                },
                "category": {
                    "value": "spell"
                },
                "components": {
                    "material": false,
                    "somatic": true,
                    "verbal": true
                },
                "cost": {
                    "value": ""
                },
                "damage": {
                    "applyMod": false,
                    "value": ""
                },
                "damageType": {
                    "value": ""
                },
                "description": {
                    "chat": "",
                    "unidentified": "",
                    "value": "<p>By imposing your will upon the water, you can raise or lower the level of water in the chosen area by 10 feet. Water creatures in the area are subjected to the effects of @Compendium[pf2e.spells-srd.Slow]{Slow}.</p>"
                },
                "duration": {
                    "value": ""
                },
                "hasCounteractCheck": {
                    "value": false
                },
                "level": {
                    "value": 5
                },
                "location": {
                    "value": "wea1MnyUIhvtedhE"
                },
                "materials": {
                    "value": ""
                },
                "prepared": {
                    "value": ""
                },
                "primarycheck": {
                    "value": ""
                },
                "range": {
                    "value": "500 feet"
                },
                "rules": [],
                "save": {
                    "basic": "",
                    "value": ""
                },
                "scaling": {
                    "formula": "",
                    "mode": "none"
                },
                "school": {
                    "value": "evocation"
                },
                "secondarycasters": {
                    "value": ""
                },
                "secondarycheck": {
                    "value": ""
                },
                "slug": "control-water",
                "source": {
                    "value": ""
                },
                "spellType": {
                    "value": "utility"
                },
                "sustained": {
                    "value": false
                },
                "target": {
                    "value": ""
                },
                "time": {
                    "value": "2"
                },
                "traditions": {
                    "value": [
                        "arcane",
                        "primal"
                    ]
                },
                "traits": {
                    "custom": "",
                    "rarity": {
                        "value": "common"
                    },
                    "value": [
                        "evocation",
                        "water"
                    ]
                }
            },
            "effects": [],
            "flags": {
                "core": {
                    "sourceId": "Compendium.pf2e.spells-srd.zfn5RqAdF63neqpP"
                }
            },
            "folder": null,
            "img": "systems/pf2e/icons/spells/control-water.webp",
            "name": "Control Water",
            "permission": {
                "default": 0
            },
            "sort": 500000,
            "type": "spell"
        },
        {
            "_id": "3xG14RFp5mrSG9le",
            "data": {
                "ability": {
                    "value": ""
                },
                "area": {
                    "areaType": "",
                    "value": null
                },
                "areasize": {
                    "value": ""
                },
                "category": {
                    "value": "spell"
                },
                "components": {
                    "material": false,
                    "somatic": true,
                    "verbal": true
                },
                "cost": {
                    "value": ""
                },
                "damage": {
                    "applyMod": false,
                    "value": ""
                },
                "damageType": {
                    "value": ""
                },
                "description": {
                    "chat": "",
                    "unidentified": "",
                    "value": "<p>You afflict the target with the curse of the roiling, unforgiving sea. The target must attempt a Will save.</p>\n<hr />\n<p><strong>Critical Success</strong> The target is unaffected.</p>\n<p><strong>Success</strong> The target becomes @Compendium[pf2e.conditionitems.Sickened]{Sickened 1}. Reducing its Sickened condition to 0 ends the curse.</p>\n<p><strong>Failure</strong> The target becomes Sickened 1 and can't reduce its Sickened condition below 1 while the curse remains. The curse can be lifted by remove curse or similar magic. Whenever the target is Sickened and on the water at least a mile from shore, it is also @Compendium[pf2e.conditionitems.Slowed]{Slowed 1}.</p>\n<p><strong>Critical Failure</strong> As failure, but the target becomes Sickened 2.</p>"
                },
                "duration": {
                    "value": ""
                },
                "hasCounteractCheck": {
                    "value": false
                },
                "level": {
                    "value": 5
                },
                "location": {
                    "value": "wea1MnyUIhvtedhE"
                },
                "materials": {
                    "value": ""
                },
                "prepared": {
                    "value": ""
                },
                "primarycheck": {
                    "value": ""
                },
                "range": {
                    "value": "touch"
                },
                "rules": [],
                "save": {
                    "basic": "",
                    "value": "will"
                },
                "scaling": {
                    "formula": "",
                    "mode": "none"
                },
                "school": {
                    "value": "necromancy"
                },
                "secondarycasters": {
                    "value": ""
                },
                "secondarycheck": {
                    "value": ""
                },
                "slug": "mariner-s-curse",
                "source": {
                    "value": ""
                },
                "spellType": {
                    "value": "save"
                },
                "sustained": {
                    "value": false
                },
                "target": {
                    "value": "1 creature"
                },
                "time": {
                    "value": "2"
                },
                "traditions": {
                    "value": [
                        "arcane",
                        "occult",
                        "primal"
                    ]
                },
                "traits": {
                    "custom": "",
                    "rarity": {
                        "value": "common"
                    },
                    "value": [
                        "curse",
                        "necromancy"
                    ]
                }
            },
            "effects": [],
            "flags": {
                "core": {
                    "sourceId": "Compendium.pf2e.spells-srd.z2mfh3oPnfYqXflY"
                }
            },
            "folder": null,
            "img": "systems/pf2e/icons/spells/mariners-curse.webp",
            "name": "Mariner's Curse",
            "permission": {
                "default": 0
            },
            "sort": 600000,
            "type": "spell"
        },
        {
            "_id": "c19tAQpDeptWNyHM",
            "data": {
                "ability": {
                    "value": ""
                },
                "area": {
                    "areaType": "",
                    "value": null
                },
                "areasize": {
                    "value": ""
                },
                "category": {
                    "value": "spell"
                },
                "components": {
                    "material": false,
                    "somatic": true,
                    "verbal": true
                },
                "cost": {
                    "value": ""
                },
                "damage": {
                    "applyMod": false,
                    "value": "9d6"
                },
                "damageType": {
                    "value": "bludgeoning"
                },
                "description": {
                    "chat": "",
                    "unidentified": "",
                    "value": "<p>You call forth a powerful blast of pressurized water that bludgeons the target and knocks it back. Make a ranged spell attack roll.</p>\n<hr /><strong>Critical Success</strong> The target takes 6d6 bludgeoning damage and is knocked back 10 feet.\n<p><strong>Success</strong> The target takes 3d6 bludgeoning damage and is knocked back 5 feet.</p>\n<hr /><strong>Heightened (+1)</strong> The damage increases by 2d6."
                },
                "duration": {
                    "value": ""
                },
                "hasCounteractCheck": {
                    "value": false
                },
                "level": {
                    "value": 4
                },
                "location": {
                    "value": "wea1MnyUIhvtedhE"
                },
                "materials": {
                    "value": ""
                },
                "prepared": {
                    "value": ""
                },
                "primarycheck": {
                    "value": ""
                },
                "range": {
                    "value": "60 feet"
                },
                "rules": [],
                "save": {
                    "basic": "",
                    "value": ""
                },
                "scaling": {
                    "formula": "2d6",
                    "mode": "level1"
                },
                "school": {
                    "value": "evocation"
                },
                "secondarycasters": {
                    "value": ""
                },
                "secondarycheck": {
                    "value": ""
                },
                "slug": "hydraulic-push",
                "source": {
                    "value": ""
                },
                "spellType": {
                    "value": "attack"
                },
                "sustained": {
                    "value": false
                },
                "target": {
                    "value": "1 creature"
                },
                "time": {
                    "value": "2"
                },
                "traditions": {
                    "value": [
                        "arcane",
                        "primal"
                    ]
                },
                "traits": {
                    "custom": "",
                    "rarity": {
                        "value": "common"
                    },
                    "value": [
                        "attack",
                        "evocation",
                        "water"
                    ]
                }
            },
            "effects": [],
            "flags": {
                "core": {
                    "sourceId": "Compendium.pf2e.spells-srd.jfVCuOpzC6mUrf6f"
                }
            },
            "folder": null,
            "img": "systems/pf2e/icons/spells/hydraulic-push.webp",
            "name": "Hydraulic Push (At Will)",
            "permission": {
                "default": 0
            },
            "sort": 700000,
            "type": "spell"
        },
        {
            "_id": "aO9yC0TQ3hBNeO78",
            "data": {
                "ability": {
                    "value": ""
                },
                "area": {
                    "areaType": "burst",
                    "value": 20
                },
                "areasize": {
                    "value": "20-foot burst"
                },
                "category": {
                    "value": "spell"
                },
                "components": {
                    "material": true,
                    "somatic": true,
                    "verbal": true
                },
                "cost": {
                    "value": ""
                },
                "damage": {
                    "applyMod": false,
                    "value": ""
                },
                "damageType": {
                    "value": ""
                },
                "description": {
                    "chat": "",
                    "unidentified": "",
                    "value": "<p>You call forth a cloud of mist. All creatures within the mist become @Compendium[pf2e.conditionitems.Concealed]{Concealed}, and all creatures outside the mist become Concealed to creatures within it. You can Dismiss the cloud.</p>"
                },
                "duration": {
                    "value": "1 minute"
                },
                "hasCounteractCheck": {
                    "value": false
                },
                "level": {
                    "value": 4
                },
                "location": {
                    "value": "wea1MnyUIhvtedhE"
                },
                "materials": {
                    "value": ""
                },
                "prepared": {
                    "value": ""
                },
                "primarycheck": {
                    "value": ""
                },
                "range": {
                    "value": "120 feet"
                },
                "rules": [],
                "save": {
                    "basic": "",
                    "value": ""
                },
                "scaling": {
                    "formula": "",
                    "mode": "none"
                },
                "school": {
                    "value": "conjuration"
                },
                "secondarycasters": {
                    "value": ""
                },
                "secondarycheck": {
                    "value": ""
                },
                "slug": "obscuring-mist",
                "source": {
                    "value": ""
                },
                "spellType": {
                    "value": "utility"
                },
                "sustained": {
                    "value": false
                },
                "target": {
                    "value": ""
                },
                "time": {
                    "value": "3"
                },
                "traditions": {
                    "value": [
                        "arcane",
                        "primal"
                    ]
                },
                "traits": {
                    "custom": "",
                    "rarity": {
                        "value": "common"
                    },
                    "value": [
                        "conjuration",
                        "water"
                    ]
                }
            },
            "effects": [],
            "flags": {
                "core": {
                    "sourceId": "Compendium.pf2e.spells-srd.9XHmC2JgTUIQ1CCm"
                }
            },
            "folder": null,
            "img": "systems/pf2e/icons/spells/obscuring-mist.webp",
            "name": "Obscuring Mist (At Will)",
            "permission": {
                "default": 0
            },
            "sort": 800000,
            "type": "spell"
        },
        {
            "_id": "Pxxr235CKBdgLZ6y",
            "data": {
                "attack": {
                    "value": ""
                },
                "attackEffects": {
                    "value": []
                },
                "bonus": {
                    "value": 34
                },
                "damageRolls": {
                    "cf4hgt9f6wm6y1mu080p": {
                        "damage": "3d10+17",
                        "damageType": "piercing"
                    },
                    "gj7pgoz8n5r7m8wyr1zl": {
                        "damage": "5d4",
                        "damageType": "acid"
                    }
                },
                "description": {
                    "chat": "",
                    "unidentified": "",
                    "value": ""
                },
                "rules": [],
                "slug": null,
                "source": {
                    "value": ""
                },
                "traits": {
                    "custom": "",
                    "rarity": {
                        "value": "common"
                    },
                    "value": [
                        "acid",
                        "magical",
                        "reach-20"
                    ]
                },
                "weaponType": {
                    "value": "melee"
                }
            },
            "effects": [],
            "flags": {},
            "folder": null,
            "img": "systems/pf2e/icons/default-icons/mystery-man.svg",
            "name": "Jaws",
            "permission": {
                "default": 0
            },
            "sort": 900000,
            "type": "melee"
        },
        {
            "_id": "GWbkONUjqsTF8hP7",
            "data": {
                "attack": {
                    "value": ""
                },
                "attackEffects": {
                    "value": []
                },
                "bonus": {
                    "value": 34
                },
                "damageRolls": {
                    "gatglugbz8inewcv7ovr": {
                        "damage": "3d10+17",
                        "damageType": "slashing"
                    }
                },
                "description": {
                    "chat": "",
                    "unidentified": "",
                    "value": ""
                },
                "rules": [],
                "slug": null,
                "source": {
                    "value": ""
                },
                "traits": {
                    "custom": "",
                    "rarity": {
                        "value": "common"
                    },
                    "value": [
                        "agile",
                        "magical",
                        "reach-15"
                    ]
                },
                "weaponType": {
                    "value": "melee"
                }
            },
            "effects": [],
            "flags": {},
            "folder": null,
            "img": "systems/pf2e/icons/default-icons/mystery-man.svg",
            "name": "Claw",
            "permission": {
                "default": 0
            },
            "sort": 1000000,
            "type": "melee"
        },
        {
            "_id": "nceXlZk44iBehzvl",
            "data": {
                "attack": {
                    "value": ""
                },
                "attackEffects": {
                    "value": []
                },
                "bonus": {
                    "value": 32
                },
                "damageRolls": {
                    "gqwk7jlbi99qq6gqczid": {
                        "damage": "3d12+17",
                        "damageType": "bludgeoning"
                    }
                },
                "description": {
                    "chat": "",
                    "unidentified": "",
                    "value": ""
                },
                "rules": [],
                "slug": null,
                "source": {
                    "value": ""
                },
                "traits": {
                    "custom": "",
                    "rarity": {
                        "value": "common"
                    },
                    "value": [
                        "magical",
                        "reach-25"
                    ]
                },
                "weaponType": {
                    "value": "melee"
                }
            },
            "effects": [],
            "flags": {},
            "folder": null,
            "img": "systems/pf2e/icons/default-icons/mystery-man.svg",
            "name": "Tail",
            "permission": {
                "default": 0
            },
            "sort": 1100000,
            "type": "melee"
        },
        {
            "_id": "8sphOZAnVIS4eVZ6",
            "data": {
                "attack": {
                    "value": ""
                },
                "attackEffects": {
                    "value": []
                },
                "bonus": {
                    "value": 32
                },
                "damageRolls": {
                    "9c0ta6816ad6a97orj2y": {
                        "damage": "2d12+17",
                        "damageType": "piercing"
                    }
                },
                "description": {
                    "chat": "",
                    "unidentified": "",
                    "value": ""
                },
                "rules": [],
                "slug": null,
                "source": {
                    "value": ""
                },
                "traits": {
                    "custom": "",
                    "rarity": {
                        "value": "common"
                    },
                    "value": [
                        "magical",
                        "reach-20"
                    ]
                },
                "weaponType": {
                    "value": "melee"
                }
            },
            "effects": [],
            "flags": {},
            "folder": null,
            "img": "systems/pf2e/icons/default-icons/mystery-man.svg",
            "name": "Wing",
            "permission": {
                "default": 0
            },
            "sort": 1200000,
            "type": "melee"
        },
        {
            "_id": "ZDynxQcPOYUqgupw",
            "data": {
                "actionCategory": {
                    "value": "interaction"
                },
                "actionType": {
                    "value": "passive"
                },
                "actions": {
                    "value": ""
                },
                "description": {
                    "chat": "",
                    "unidentified": "",
                    "value": "<p>A monster with darkvision can see perfectly well in areas of darkness and dim light, though such vision is in black and white only. Some forms of magical darkness, such as a 4th-level @Compendium[pf2e.spells-srd.Darkness]{Darkness} spell, block normal darkvision. A monster with @Compendium[pf2e.bestiary-ability-glossary-srd.Greater Darkvision]{Greater Darkvision}, however, can see through even these forms of magical darkness.</p>"
                },
                "requirements": {
                    "value": ""
                },
                "rules": [],
                "slug": "darkvision",
                "source": {
                    "value": ""
                },
                "traits": {
                    "custom": "",
                    "rarity": {
                        "value": "common"
                    },
                    "value": []
                },
                "trigger": {
                    "value": ""
                },
                "weapon": {
                    "value": ""
                }
            },
            "effects": [],
            "flags": {
                "core": {
                    "sourceId": "Compendium.pf2e.bestiary-ability-glossary-srd.qCCLZhnp2HhP3Ex6"
                }
            },
            "folder": null,
            "img": "systems/pf2e/icons/default-icons/action.svg",
            "name": "Darkvision",
            "permission": {
                "default": 0
            },
            "sort": 1300000,
            "type": "action"
        },
        {
            "_id": "LKQ6v7y7Jr6HEaPh",
            "data": {
                "actionCategory": {
                    "value": "interaction"
                },
                "actionType": {
                    "value": "passive"
                },
                "actions": {
                    "value": ""
                },
                "description": {
                    "chat": "",
                    "unidentified": "",
                    "value": "<p>Scent involves sensing creatures or objects by smell, and is usually a vague sense. The range is listed in the ability, and it functions only if the creature or object being detected emits an aroma (for instance, incorporeal creatures usually do not exude an aroma).</p>\n<p>If a creature emits a heavy aroma or is upwind, the GM can double or even triple the range of scent abilities used to detect that creature, and the GM can reduce the range if a creature is downwind.</p>"
                },
                "requirements": {
                    "value": ""
                },
                "rules": [],
                "slug": "scent",
                "source": {
                    "value": ""
                },
                "traits": {
                    "custom": "",
                    "rarity": {
                        "value": "common"
                    },
                    "value": []
                },
                "trigger": {
                    "value": ""
                },
                "weapon": {
                    "value": ""
                }
            },
            "effects": [],
            "flags": {
                "core": {
                    "sourceId": "Compendium.pf2e.bestiary-ability-glossary-srd.rqfnQ5VHT5hxm25r"
                }
            },
            "folder": null,
            "img": "systems/pf2e/icons/default-icons/action.svg",
            "name": "Scent",
            "permission": {
                "default": 0
            },
            "sort": 1400000,
            "type": "action"
        },
        {
            "_id": "o6CQEcEj0w3RIaZB",
            "data": {
                "actionCategory": {
                    "value": "interaction"
                },
                "actionType": {
                    "value": "passive"
                },
                "actions": {
                    "value": ""
                },
                "description": {
                    "chat": "",
                    "unidentified": "",
                    "value": "<p>The monster can cast its at-will spells any number of times without using up spell slots.</p>"
                },
                "requirements": {
                    "value": ""
                },
                "rules": [],
                "slug": "at-will-spells",
                "source": {
                    "value": ""
                },
                "traits": {
                    "custom": "",
                    "rarity": {
                        "value": "common"
                    },
                    "value": []
                },
                "trigger": {
                    "value": ""
                },
                "weapon": {
                    "value": ""
                }
            },
            "effects": [],
            "flags": {
                "core": {
                    "sourceId": "Compendium.pf2e.bestiary-ability-glossary-srd.2YRDYVnC1eljaXKK"
                }
            },
            "folder": null,
            "img": "systems/pf2e/icons/default-icons/mystery-man.svg",
            "name": "At-Will Spells",
            "permission": {
                "default": 0
            },
            "sort": 1500000,
            "type": "action"
        },
        {
            "_id": "8BGsf6kEIrCtKGgo",
            "data": {
                "actionCategory": {
                    "value": "defensive"
                },
                "actionType": {
                    "value": "passive"
                },
                "actions": {
                    "value": ""
                },
                "description": {
                    "value": ""
                },
                "requirements": {
                    "value": ""
                },
                "rules": [
                    {
                        "key": "PF2E.RuleElement.FlatModifier",
                        "predicate": {
                            "any": [
                                "magical",
                                "arcane",
                                "primal",
                                "occult",
                                "divine"
                            ]
                        },
                        "selector": "saving-throw",
                        "type": "status",
                        "value": 1
                    }
                ],
                "slug": null,
                "source": {
                    "value": ""
                },
                "traits": {
                    "custom": "",
                    "rarity": {
                        "value": "common"
                    },
                    "value": []
                },
                "trigger": {
                    "value": ""
                },
                "weapon": {
                    "value": ""
                }
            },
            "effects": [],
            "flags": {},
            "folder": null,
            "img": "systems/pf2e/icons/default-icons/mystery-man.svg",
            "name": "+1 Status Bonus on Saves vs Magic",
            "permission": {
                "default": 0
            },
            "sort": 1600000,
            "type": "action"
        },
        {
            "_id": "gozNFecLMRX00Wzz",
            "data": {
                "actionCategory": {
                    "value": "defensive"
                },
                "actionType": {
                    "value": "passive"
                },
                "actions": {
                    "value": ""
                },
                "description": {
                    "chat": "",
                    "unidentified": "",
                    "value": "<p>90 feet, DC 36</p>\n<p>A creature that first enters the area must attempt a Will save. Regardless of the result of the saving throw, the creature is temporarily immune to this monster's Frightful Presence for 1 minute.</p>\n<p><strong>Critical Success</strong> The creature is unaffected by the presence.</p>\n<p><strong>Success</strong> The creature is @Compendium[pf2e.conditionitems.Frightened]{Frightened 1}.</p>\n<p><strong>Failure</strong> The creature is @Compendium[pf2e.conditionitems.Frightened]{Frightened 2}.</p>\n<p><strong>Critical Failure</strong> The creature is @Compendium[pf2e.conditionitems.Frightened]{Frightened 4}.</p>"
                },
                "requirements": {
                    "value": ""
                },
                "rules": [],
                "slug": "frightful-presence",
                "source": {
                    "value": ""
                },
                "traits": {
                    "custom": "",
                    "rarity": {
                        "value": "common"
                    },
                    "value": [
                        "aura",
                        "emotion",
                        "fear",
                        "mental"
                    ]
                },
                "trigger": {
                    "value": ""
                },
                "weapon": {
                    "value": ""
                }
            },
            "effects": [],
            "flags": {
                "core": {
                    "sourceId": "Compendium.pf2e.bestiary-ability-glossary-srd.etMnv73EIdEZrYYu"
                }
            },
            "folder": null,
            "img": "systems/pf2e/icons/default-icons/mystery-man.svg",
            "name": "Frightful Presence",
            "permission": {
                "default": 0
            },
            "sort": 1700000,
            "type": "action"
        },
        {
            "_id": "CSHQvYrfiR0GmczO",
            "data": {
                "actionCategory": {
                    "value": "defensive"
                },
                "actionType": {
                    "value": "reaction"
                },
                "actions": {
                    "value": ""
                },
                "description": {
                    "chat": "",
                    "unidentified": "",
                    "value": "<p><strong>Trigger</strong> A creature the brine dragon observes within 30 feet uses a concentrate action;</p>\n<p><strong>Effect</strong> The dragon spits a glob of caustic salt water at the creature. The creature takes [[/r 7d6 #acid]] acid damage (<span data-pf2-saving-throw=\"reflex\" data-pf2-dc=\"36\" data-pf2-traits=\"concentrate,damaging-effect\" data-pf2-label=\"Brine Spit DC\" data-pf2-show-dc=\"gm\">basic Reflex</span> save). On a failure, the concentrate action is disrupted.</p>"
                },
                "requirements": {
                    "value": ""
                },
                "rules": [],
                "slug": null,
                "source": {
                    "value": ""
                },
                "traits": {
                    "custom": "",
                    "rarity": {
                        "value": "common"
                    },
                    "value": [
                        "concentrate"
                    ]
                },
                "trigger": {
                    "value": ""
                },
                "usage": {
                    "value": "held-in-one-hand"
                },
                "weapon": {
                    "value": ""
                }
            },
            "effects": [],
            "flags": {},
            "folder": null,
            "img": "systems/pf2e/icons/actions/Reaction.webp",
            "name": "Brine Spit",
            "permission": {
                "default": 0
            },
            "sort": 1800000,
            "type": "action"
        },
        {
            "_id": "oMj0SiABPgORm6t3",
            "data": {
                "actionCategory": {
                    "value": "offensive"
                },
                "actionType": {
                    "value": "action"
                },
                "actions": {
                    "value": "2"
                },
                "description": {
                    "chat": "",
                    "unidentified": "",
                    "value": "<p>The dragon breathes a spray of acidic salt water that deals [[/r 18d6 #acid]] acid damage in a 120-foot line (<span data-pf2-saving-throw=\"reflex\" data-pf2-dc=\"38\" data-pf2-traits=\"acid,evocation,primal,damaging-effect\" data-pf2-label=\"Breath Weapon DC\" data-pf2-show-dc=\"gm\">basic Reflex</span> save).</p>\n<p>They can't use Breath Weapon again for [[/r 1d4 #rounds]] rounds.</p>"
                },
                "requirements": {
                    "value": ""
                },
                "rules": [],
                "slug": null,
                "source": {
                    "value": ""
                },
                "traits": {
                    "custom": "",
                    "rarity": {
                        "value": "common"
                    },
                    "value": [
                        "acid",
                        "evocation",
                        "primal"
                    ]
                },
                "trigger": {
                    "value": ""
                },
                "usage": {
                    "value": "held-in-one-hand"
                },
                "weapon": {
                    "value": ""
                }
            },
            "effects": [],
            "flags": {},
            "folder": null,
            "img": "systems/pf2e/icons/actions/TwoActions.webp",
            "name": "Breath Weapon",
            "permission": {
                "default": 0
            },
            "sort": 1900000,
            "type": "action"
        },
        {
            "_id": "qV74gNViCaiEVUy2",
            "data": {
                "actionCategory": {
                    "value": "offensive"
                },
                "actionType": {
                    "value": "action"
                },
                "actions": {
                    "value": 1
                },
                "description": {
                    "chat": "",
                    "unidentified": "",
                    "value": "<p>The dragon tries to capsize an adjacent aquatic vessel of their size or smaller. They must succeed at an Athletics check with a DC of 35 (reduced by 5 for each size smaller the vessel is than the turtle) or the pilot's Sailing Lore DC, whichever is higher.</p>"
                },
                "requirements": {
                    "value": ""
                },
                "rules": [],
                "slug": null,
                "source": {
                    "value": ""
                },
                "traits": {
                    "custom": "",
                    "rarity": {
                        "value": "common"
                    },
                    "value": [
                        "attack"
                    ]
                },
                "trigger": {
                    "value": ""
                },
                "usage": {
                    "value": "held-in-one-hand"
                },
                "weapon": {
                    "value": ""
                }
            },
            "effects": [],
            "flags": {},
            "folder": null,
            "img": "systems/pf2e/icons/default-icons/mystery-man.svg",
            "name": "Capsize",
            "permission": {
                "default": 0
            },
            "sort": 2000000,
            "type": "action"
        },
        {
            "_id": "KtjrcbTPGagKVhSc",
            "data": {
                "actionCategory": {
                    "value": "offensive"
                },
                "actionType": {
                    "value": "action"
                },
                "actions": {
                    "value": "2"
                },
                "description": {
                    "chat": "",
                    "unidentified": "",
                    "value": "<p>The dragon makes a jaws Strike. On a hit, the target takes [[/r 6d6 #persistent acid]] @Compendium[pf2e.conditionitems.Persistent Damage]{Persistent Acid Damage}, and is @Compendium[pf2e.conditionitems.Sickened]{Sickened 3} from the pain of salt and brine in its wounds.</p>"
                },
                "requirements": {
                    "value": ""
                },
                "rules": [],
                "slug": null,
                "source": {
                    "value": ""
                },
                "traits": {
                    "custom": "",
                    "rarity": {
                        "value": "common"
                    },
                    "value": []
                },
                "trigger": {
                    "value": ""
                },
                "usage": {
                    "value": "held-in-one-hand"
                },
                "weapon": {
                    "value": ""
                }
            },
            "effects": [],
            "flags": {},
            "folder": null,
            "img": "systems/pf2e/icons/actions/TwoActions.webp",
            "name": "Desiccating Bite",
            "permission": {
                "default": 0
            },
            "sort": 2100000,
            "type": "action"
        },
        {
            "_id": "2IZWaM2O4amLWbye",
            "data": {
                "actionCategory": {
                    "value": "offensive"
                },
                "actionType": {
                    "value": "action"
                },
                "actions": {
                    "value": 2
                },
                "description": {
                    "chat": "",
                    "unidentified": "",
                    "value": "<p>The dragon makes two claw Strikes and one wing Strike in any order.</p>"
                },
                "requirements": {
                    "value": ""
                },
                "rules": [],
                "slug": null,
                "source": {
                    "value": ""
                },
                "traits": {
                    "custom": "",
                    "rarity": {
                        "value": "common"
                    },
                    "value": []
                },
                "trigger": {
                    "value": ""
                },
                "usage": {
                    "value": "held-in-one-hand"
                },
                "weapon": {
                    "value": ""
                }
            },
            "effects": [],
            "flags": {},
            "folder": null,
            "img": "systems/pf2e/icons/default-icons/mystery-man.svg",
            "name": "Draconic Frenzy",
            "permission": {
                "default": 0
            },
            "sort": 2200000,
            "type": "action"
        },
        {
            "_id": "xJOBW00PxizZ4M8X",
            "data": {
                "actionCategory": {
                    "value": "offensive"
                },
                "actionType": {
                    "value": "passive"
                },
                "actions": {
                    "value": ""
                },
                "description": {
                    "chat": "",
                    "unidentified": "",
                    "value": "<p>The dragon recharges their Breath Weapon whenever they score a critical hit with a Strike.</p>"
                },
                "requirements": {
                    "value": ""
                },
                "rules": [],
                "slug": null,
                "source": {
                    "value": ""
                },
                "traits": {
                    "custom": "",
                    "rarity": {
                        "value": "common"
                    },
                    "value": []
                },
                "trigger": {
                    "value": ""
                },
                "usage": {
                    "value": "held-in-one-hand"
                },
                "weapon": {
                    "value": ""
                }
            },
            "effects": [],
            "flags": {},
            "folder": null,
            "img": "systems/pf2e/icons/default-icons/mystery-man.svg",
            "name": "Draconic Momentum",
            "permission": {
                "default": 0
            },
            "sort": 2300000,
            "type": "action"
        },
        {
            "_id": "gPCpNSHZ6SvXUhij",
            "data": {
                "actionCategory": {
                    "value": "offensive"
                },
                "actionType": {
                    "value": "passive"
                },
                "actions": {
                    "value": ""
                },
                "description": {
                    "chat": "",
                    "unidentified": "",
                    "value": "<p>The brine dragon's body is encrusted with salty, acidic crystals. When a target takes damage from one of the dragon's melee Strikes, it must succeed at a <span data-pf2-saving-throw=\"fortitude\" data-pf2-dc=\"38\" data-pf2-traits=\"acid\" data-pf2-label=\"Painful Strikes DC\" data-pf2-show-dc=\"gm\">Fortitude</span> Save or be @Compendium[pf2e.conditionitems.Stunned]{Stunned 1} (@Compendium[pf2e.conditionitems.Stunned]{Stunned 3} on a critical failure). The target then becomes temporarily immune for 1 minute.</p>"
                },
                "requirements": {
                    "value": ""
                },
                "rules": [],
                "slug": null,
                "source": {
                    "value": ""
                },
                "traits": {
                    "custom": "",
                    "rarity": {
                        "value": "common"
                    },
                    "value": [
                        "acid"
                    ]
                },
                "trigger": {
                    "value": ""
                },
                "usage": {
                    "value": "held-in-one-hand"
                },
                "weapon": {
                    "value": ""
                }
            },
            "effects": [],
            "flags": {},
            "folder": null,
            "img": "systems/pf2e/icons/default-icons/mystery-man.svg",
            "name": "Painful Strikes",
            "permission": {
                "default": 0
            },
            "sort": 2400000,
            "type": "action"
        },
        {
            "_id": "Mc5vX0qRbf8Taf3o",
            "data": {
                "description": {
                    "chat": "",
                    "unidentified": "",
                    "value": ""
                },
                "item": {
                    "value": 0
                },
                "mod": {
                    "value": 28
                },
                "proficient": {
                    "value": 0
                },
                "rules": [],
                "slug": null,
                "source": {
                    "value": ""
                },
                "traits": {
                    "custom": "",
                    "rarity": {
                        "value": "common"
                    },
                    "value": []
                },
                "usage": {
                    "value": "held-in-one-hand"
                }
            },
            "effects": [],
            "flags": {},
            "folder": null,
            "img": "systems/pf2e/icons/default-icons/lore.svg",
            "name": "Acrobatics",
            "permission": {
                "default": 0
            },
            "sort": 2500000,
            "type": "lore"
        },
        {
            "_id": "zocrD274K12LjFux",
            "data": {
                "description": {
                    "chat": "",
                    "unidentified": "",
                    "value": ""
                },
                "item": {
                    "value": 0
                },
                "mod": {
                    "value": 32
                },
                "proficient": {
                    "value": 0
                },
                "rules": [],
                "slug": null,
                "source": {
                    "value": ""
                },
                "traits": {
                    "custom": "",
                    "rarity": {
                        "value": "common"
                    },
                    "value": []
                },
                "usage": {
                    "value": "held-in-one-hand"
                }
            },
            "effects": [],
            "flags": {},
            "folder": null,
            "img": "systems/pf2e/icons/default-icons/lore.svg",
            "name": "Athletics",
            "permission": {
                "default": 0
            },
            "sort": 2600000,
            "type": "lore"
        },
        {
            "_id": "jNA1opgJnVvioAYn",
            "data": {
                "description": {
                    "chat": "",
                    "unidentified": "",
                    "value": ""
                },
                "item": {
                    "value": 0
                },
                "mod": {
                    "value": 32
                },
                "proficient": {
                    "value": 0
                },
                "rules": [],
                "slug": null,
                "source": {
                    "value": ""
                },
                "traits": {
                    "custom": "",
                    "rarity": {
                        "value": "common"
                    },
                    "value": []
                },
                "usage": {
                    "value": "held-in-one-hand"
                }
            },
            "effects": [],
            "flags": {},
            "folder": null,
            "img": "systems/pf2e/icons/default-icons/lore.svg",
            "name": "Deception",
            "permission": {
                "default": 0
            },
            "sort": 2700000,
            "type": "lore"
        },
        {
            "_id": "DZOAz0JIvPiBhrEz",
            "data": {
                "description": {
                    "chat": "",
                    "unidentified": "",
                    "value": ""
                },
                "item": {
                    "value": 0
                },
                "mod": {
                    "value": 34
                },
                "proficient": {
                    "value": 0
                },
                "rules": [],
                "slug": null,
                "source": {
                    "value": ""
                },
                "traits": {
                    "custom": "",
                    "rarity": {
                        "value": "common"
                    },
                    "value": []
                },
                "usage": {
                    "value": "held-in-one-hand"
                }
            },
            "effects": [],
            "flags": {},
            "folder": null,
            "img": "systems/pf2e/icons/default-icons/lore.svg",
            "name": "Intimidation",
            "permission": {
                "default": 0
            },
            "sort": 2800000,
            "type": "lore"
        },
        {
            "_id": "5NLGhbbGIxX7JZNM",
            "data": {
                "description": {
                    "chat": "",
                    "unidentified": "",
                    "value": ""
                },
                "item": {
                    "value": 0
                },
                "mod": {
                    "value": 30
                },
                "proficient": {
                    "value": 0
                },
                "rules": [],
                "slug": null,
                "source": {
                    "value": ""
                },
                "traits": {
                    "custom": "",
                    "rarity": {
                        "value": "common"
                    },
                    "value": []
                },
                "usage": {
                    "value": "held-in-one-hand"
                }
            },
            "effects": [],
            "flags": {},
            "folder": null,
            "img": "systems/pf2e/icons/default-icons/lore.svg",
            "name": "Nature",
            "permission": {
                "default": 0
            },
            "sort": 2900000,
            "type": "lore"
        },
        {
            "_id": "E6wXP9rbPtSDbnzD",
            "data": {
                "description": {
                    "chat": "",
                    "unidentified": "",
                    "value": ""
                },
                "item": {
                    "value": 0
                },
                "mod": {
                    "value": 30
                },
                "proficient": {
                    "value": 0
                },
                "rules": [],
                "slug": null,
                "source": {
                    "value": ""
                },
                "traits": {
                    "custom": "",
                    "rarity": {
                        "value": "common"
                    },
                    "value": []
                },
                "usage": {
                    "value": "held-in-one-hand"
                }
            },
            "effects": [],
            "flags": {},
            "folder": null,
            "img": "systems/pf2e/icons/default-icons/lore.svg",
            "name": "Society",
            "permission": {
                "default": 0
            },
            "sort": 3000000,
            "type": "lore"
        },
        {
            "_id": "Dcg2sN6Nd0xPPVTw",
            "data": {
                "description": {
                    "chat": "",
                    "unidentified": "",
                    "value": ""
                },
                "item": {
                    "value": 0
                },
                "mod": {
                    "value": 29
                },
                "proficient": {
                    "value": 0
                },
                "rules": [],
                "slug": null,
                "source": {
                    "value": ""
                },
                "traits": {
                    "custom": "",
                    "rarity": {
                        "value": "common"
                    },
                    "value": []
                },
                "usage": {
                    "value": "held-in-one-hand"
                }
            },
            "effects": [],
            "flags": {},
            "folder": null,
            "img": "systems/pf2e/icons/default-icons/lore.svg",
            "name": "Survival",
            "permission": {
                "default": 0
            },
            "sort": 3100000,
            "type": "lore"
        }
    ],
    "name": "Ancient Brine Dragon",
    "permission": {
        "default": 0
    },
    "token": {
        "actorId": "oMZaSpBmWddKZ1KN",
        "actorLink": false,
        "alpha": 1,
        "bar1": {
            "attribute": null
        },
        "bar2": {
            "attribute": null
        },
        "brightLight": 0,
        "brightSight": 0,
        "dimLight": 0,
        "dimSight": 0,
        "displayBars": 20,
        "displayName": 20,
        "disposition": -1,
        "flags": {},
        "height": 4,
        "img": "systems/pf2e/icons/default-icons/npc.svg",
        "lightAlpha": 1,
        "lightAngle": 0,
        "lightAnimation": {
            "intensity": 5,
            "speed": 5
        },
        "lockRotation": false,
        "mirrorX": false,
        "mirrorY": false,
        "name": "Ancient Brine Dragon",
        "randomImg": false,
        "rotation": 0,
        "scale": 1,
        "sightAngle": 0,
        "tint": null,
        "vision": false,
        "width": 4
    },
    "type": "npc"
}
