{
    "_id": "gOjrie9YndQPomU8",
    "data": {
        "abilities": {
            "cha": {
                "min": 3,
                "mod": 1,
                "value": 12
            },
            "con": {
                "min": 3,
                "mod": 4,
                "value": 18
            },
            "dex": {
                "min": 3,
                "mod": 2,
                "value": 14
            },
            "int": {
                "min": 3,
                "mod": 0,
                "value": 10
            },
            "str": {
                "min": 3,
                "mod": "+5",
                "value": 20
            },
            "wis": {
                "min": 3,
                "mod": 2,
                "value": 14
            }
        },
        "attributes": {
            "ac": {
                "check": 0,
                "details": "",
                "dex": 0,
                "item": 0,
                "min": 0,
                "value": 24
            },
            "allSaves": {
                "value": ""
            },
            "ancestryhp": 0,
            "bonusEncumbranceBulk": 0,
            "bonusLimitBulk": 0,
            "classDC": {
                "ability": "str",
                "breakdown": "",
                "item": 0,
                "rank": 0,
                "value": 0
            },
            "classhp": 0,
            "flatbonushp": 0,
            "flatbonussp": 0,
            "hp": {
                "details": "",
                "max": 94,
                "min": 0,
                "temp": 0,
                "value": 94
            },
            "init": {
                "bonus": 0,
                "value": 0
            },
            "initiative": {
                "ability": "",
                "circumstance": 0,
                "status": 0
            },
            "levelbonushp": 0,
            "levelbonussp": 0,
            "perception": {
                "ability": "wis",
                "breakdown": "",
                "item": 0,
                "rank": 0,
                "value": 14
            },
            "resolve": {
                "value": 0
            },
            "shield": {
                "ac": 0,
                "brokenThreshold": 0,
                "hardness": 0,
                "max": 0,
                "min": 0,
                "value": 0
            },
            "sp": {
                "details": "",
                "max": 0,
                "min": 0,
                "value": 0
            },
            "speed": {
                "otherSpeeds": [
                    {
                        "exceptions": "",
                        "label": "Burrow",
                        "type": "burrow",
                        "value": "50"
                    }
                ],
                "value": "25"
            }
        },
        "currency": {
            "cp": {
                "value": 0
            },
            "gp": {
                "value": 0
            },
            "pp": {
                "value": 0
            },
            "sp": {
                "value": 0
            }
        },
        "details": {
            "alignment": {
                "value": "N"
            },
            "ancestry": {
                "value": "Elemental, Earth"
            },
            "biography": {
                "public": "",
                "value": ""
            },
            "class": {
                "value": ""
            },
            "creatureType": "Elemental",
            "deity": {
                "image": "systems/pf2e/assets/sheet/deity.webp",
                "value": ""
            },
            "flavorText": "Shifting back and forth between a detailed likeness of a human and a muted and featureless bipedal form, this creature of pure sand moves with an eerie grace. The sand sentry is often called upon by spellcasters to stand guard over an area of great importance-these elementals are patient participants in such roles, making them well suited for long-term service.<br /><br />",
            "flavourText": "",
            "heritage": {
                "value": ""
            },
            "keyability": {
                "value": "str"
            },
            "level": {
                "min": 1,
                "value": 6
            },
            "recallKnowledgeText": "Recall Knowledge - Elemental : DC 22",
            "sidebarText": "<h3 class=\"title\"><img alt=\"Sidebar - Additional Lore\" title=\"Sidebar - Additional Lore\" style=\"height:20px; padding:2px 10px 0px 2px\" src=\"Images\\Icons\\Sidebar_2_AdditionalLore.png\"> Sand Mimics</h3>Sand sentries have no true culture or society of their own, but they are endlessly fascinated with the society and culture of humanoids they encounter. They can shape their appearance to mimic any similarly sized humanoids, and although they always remain obviously composed of sand, they do their best to mimic the day-to-day activities they observe other humanoids performing. Of course, structures and objects sand sentries build from sand never last, but this never seems to stifle their obsession.",
            "source": {
                "value": "Bestiary 2 pg. 109"
            }
        },
        "martial": {
            "advanced": {
                "breakdown": "",
                "rank": 0,
                "value": 0
            },
            "heavy": {
                "breakdown": "",
                "rank": 0,
                "value": 0
            },
            "light": {
                "breakdown": "",
                "rank": 0,
                "value": 0
            },
            "martial": {
                "breakdown": "",
                "rank": 0,
                "value": 0
            },
            "medium": {
                "breakdown": "",
                "rank": 0,
                "value": 0
            },
            "simple": {
                "breakdown": "",
                "rank": 0,
                "value": 0
            },
            "unarmed": {
                "breakdown": "",
                "rank": 0,
                "value": 0
            },
            "unarmored": {
                "breakdown": "",
                "rank": 0,
                "value": 0
            }
        },
        "saves": {
            "fortitude": {
                "ability": "con",
                "breakdown": "",
                "item": 0,
                "rank": 0,
                "saveDetail": "",
                "value": 16
            },
            "reflex": {
                "ability": "dex",
                "breakdown": "",
                "item": 0,
                "rank": 0,
                "saveDetail": "",
                "value": 12
            },
            "will": {
                "ability": "wis",
                "breakdown": "",
                "item": 0,
                "rank": 0,
                "saveDetail": "",
                "value": 14
            }
        },
        "schema": {
            "version": {
                "value": ""
            }
        },
        "skills": {
            "acr": {
                "ability": "dex",
                "armor": 1,
                "breakdown": "",
                "item": 0,
                "mod": 0,
                "rank": 0,
                "value": 0
            },
            "arc": {
                "ability": "int",
                "breakdown": "",
                "item": 0,
                "mod": 0,
                "rank": 0,
                "value": 0
            },
            "ath": {
                "ability": "str",
                "armor": 1,
                "breakdown": "",
                "item": 0,
                "mod": 0,
                "rank": 0,
                "value": 0
            },
            "cra": {
                "ability": "int",
                "breakdown": "",
                "item": 0,
                "mod": 0,
                "rank": 0,
                "value": 0
            },
            "dec": {
                "ability": "cha",
                "breakdown": "",
                "item": 0,
                "mod": 0,
                "rank": 0,
                "value": 0
            },
            "dip": {
                "ability": "cha",
                "breakdown": "",
                "item": 0,
                "mod": 0,
                "rank": 0,
                "value": 0
            },
            "itm": {
                "ability": "cha",
                "breakdown": "",
                "item": 0,
                "mod": 0,
                "rank": 0,
                "value": 0
            },
            "med": {
                "ability": "wis",
                "breakdown": "",
                "item": 0,
                "mod": 0,
                "rank": 0,
                "value": 0
            },
            "nat": {
                "ability": "wis",
                "breakdown": "",
                "item": 0,
                "mod": 0,
                "rank": 0,
                "value": 0
            },
            "occ": {
                "ability": "int",
                "breakdown": "",
                "item": 0,
                "mod": 0,
                "rank": 0,
                "value": 0
            },
            "prf": {
                "ability": "cha",
                "breakdown": "",
                "item": 0,
                "mod": 0,
                "rank": 0,
                "value": 0
            },
            "rel": {
                "ability": "wis",
                "breakdown": "",
                "item": 0,
                "mod": 0,
                "rank": 0,
                "value": 0
            },
            "soc": {
                "ability": "int",
                "breakdown": "",
                "item": 0,
                "mod": 0,
                "rank": 0,
                "value": 0
            },
            "ste": {
                "ability": "dex",
                "armor": 1,
                "breakdown": "",
                "item": 0,
                "mod": 0,
                "rank": 0,
                "value": 0
            },
            "sur": {
                "ability": "wis",
                "breakdown": "",
                "item": 0,
                "mod": 0,
                "rank": 0,
                "value": 0
            },
            "thi": {
                "ability": "dex",
                "armor": 1,
                "breakdown": "",
                "item": 0,
                "mod": 0,
                "rank": 0,
                "value": 0
            }
        },
        "spells": {
            "spell0": {
                "max": 0
            },
            "spell1": {
                "max": 0
            },
            "spell10": {
                "max": 0
            },
            "spell11": {
                "max": 0
            },
            "spell2": {
                "max": 0
            },
            "spell3": {
                "max": 0
            },
            "spell4": {
                "max": 0
            },
            "spell5": {
                "max": 0
            },
            "spell6": {
                "max": 0
            },
            "spell7": {
                "max": 0
            },
            "spell8": {
                "max": 0
            },
            "spell9": {
                "max": 0
            }
        },
        "statusEffects": [],
        "traits": {
            "attitude": {
                "value": "hostile"
            },
            "ci": [],
            "di": {
                "custom": "",
                "value": [
                    "bleed",
                    "paralyzed",
                    "poison",
                    "sleep"
                ]
            },
            "dr": [],
            "dv": [],
            "languages": {
                "custom": "",
                "selected": [],
                "value": [
                    "terran"
                ]
            },
            "rarity": {
                "value": "common"
            },
            "senses": {
                "value": "darkvision, tremorsense (imprecise) 60 feet"
            },
            "size": {
                "value": "med"
            },
            "traits": {
                "custom": "",
                "value": [
                    "earth",
                    "elemental"
                ]
            }
        }
    },
    "effects": [],
    "flags": {},
    "folder": null,
    "img": "systems/pf2e/icons/default-icons/npc.svg",
    "items": [
        {
            "_id": "tByLKFHCnMANfCJV",
            "data": {
                "attack": {
                    "value": ""
                },
                "attackEffects": {
                    "custom": "",
                    "value": [
                        "Blinding Sand"
                    ]
                },
                "bonus": {
                    "value": 17
                },
                "damageRolls": {
                    "0": {
                        "damage": "2d8+8",
                        "damageType": "bludgeoning"
                    }
                },
                "description": {
                    "chat": "",
                    "unidentified": "",
                    "value": ""
                },
                "rules": [],
                "slug": null,
                "source": {
                    "value": ""
                },
                "traits": {
                    "custom": "",
                    "rarity": {
                        "value": "common"
                    },
                    "value": []
                },
                "weaponType": {
                    "value": "melee"
                }
            },
            "effects": [],
            "flags": {},
            "folder": null,
            "img": "systems/pf2e/icons/default-icons/mystery-man.svg",
            "name": "Fist",
            "permission": {
                "default": 0
            },
            "sort": 100000,
            "type": "melee"
        },
        {
            "_id": "bIfz2rvBHXjIjmyK",
            "data": {
                "actionCategory": {
                    "value": "interaction"
                },
                "actionType": {
                    "value": "passive"
                },
                "actions": {
                    "value": ""
                },
                "description": {
                    "chat": "",
                    "unidentified": "",
                    "value": "<p>A monster with darkvision can see perfectly well in areas of darkness and dim light, though such vision is in black and white only. Some forms of magical darkness, such as a 4th-level @Compendium[pf2e.spells-srd.Darkness]{Darkness} spell, block normal darkvision. A monster with @Compendium[pf2e.bestiary-ability-glossary-srd.Greater Darkvision]{Greater Darkvision}, however, can see through even these forms of magical darkness.</p>"
                },
                "requirements": {
                    "value": ""
                },
                "rules": [],
                "slug": "darkvision",
                "source": {
                    "value": ""
                },
                "traits": {
                    "custom": "",
                    "rarity": {
                        "value": "common"
                    },
                    "value": []
                },
                "trigger": {
                    "value": ""
                },
                "weapon": {
                    "value": ""
                }
            },
            "effects": [],
            "flags": {
                "core": {
                    "sourceId": "Compendium.pf2e.bestiary-ability-glossary-srd.qCCLZhnp2HhP3Ex6"
                }
            },
            "folder": null,
            "img": "systems/pf2e/icons/default-icons/action.svg",
            "name": "Darkvision",
            "permission": {
                "default": 0
            },
            "sort": 200000,
            "type": "action"
        },
        {
            "_id": "2MrVVGinZvjfZN22",
            "data": {
                "actionCategory": {
                    "value": "interaction"
                },
                "actionType": {
                    "value": "passive"
                },
                "actions": {
                    "value": ""
                },
                "description": {
                    "chat": "",
                    "unidentified": "",
                    "value": "<p>Tremorsense allows a monster to feel the vibrations through a solid surface caused by movement. It is an imprecise sense with a limited range (listed in the ability). Tremorsense functions only if the monster is on the same surface as the subject, and only if the subject is moving along (or burrowing through) the surface.</p>"
                },
                "requirements": {
                    "value": ""
                },
                "rules": [],
                "slug": "tremorsense",
                "source": {
                    "value": ""
                },
                "traits": {
                    "custom": "",
                    "rarity": {
                        "value": "common"
                    },
                    "value": []
                },
                "trigger": {
                    "value": ""
                },
                "weapon": {
                    "value": ""
                }
            },
            "effects": [],
            "flags": {
                "core": {
                    "sourceId": "Compendium.pf2e.bestiary-ability-glossary-srd.j2wsK6IsW5yMW1jW"
                }
            },
            "folder": null,
            "img": "systems/pf2e/icons/default-icons/action.svg",
            "name": "Tremorsense",
            "permission": {
                "default": 0
            },
            "sort": 300000,
            "type": "action"
        },
        {
            "_id": "O5P2324cJfYLLpmm",
            "data": {
                "actionCategory": {
                    "value": "defensive"
                },
                "actionType": {
                    "value": "passive"
                },
                "actions": {
                    "value": ""
                },
                "description": {
                    "chat": "",
                    "unidentified": "",
                    "value": "<p>When the sand sentry takes fire or lightning damage, its outer layer of sand fuses into sheets of hardened glass for 1 minute. This increases the sand sentry's AC to 26 and grants it resistance 5 to acid, cold, electricity, fire, force, piercing, and slashing damage. A sand sentry can't use earth glide while glass armor is active.</p>"
                },
                "requirements": {
                    "value": ""
                },
                "rules": [
                    {
                        "key": "PF2E.RuleElement.ToggleProperty",
                        "property": "flags.pf2e.rollOptions.ac.glass-armor"
                    },
                    {
                        "key": "PF2E.RuleElement.FlatModifier",
                        "predicate": {
                            "all": [
                                "glass-armor"
                            ]
                        },
                        "roll-options": [
                            "all",
                            "ac"
                        ],
                        "selector": "ac",
                        "value": 2
                    }
                ],
                "slug": null,
                "source": {
                    "value": ""
                },
                "traits": {
                    "custom": "",
                    "rarity": {
                        "value": "common"
                    },
                    "value": []
                },
                "trigger": {
                    "value": ""
                },
                "usage": {
                    "value": "held-in-one-hand"
                },
                "weapon": {
                    "value": ""
                }
            },
            "effects": [],
            "flags": {},
            "folder": null,
            "img": "systems/pf2e/icons/default-icons/mystery-man.svg",
            "name": "Glass Armor",
            "permission": {
                "default": 0
            },
            "sort": 400000,
            "type": "action"
        },
        {
            "_id": "6NgDd3kvRPxleBuE",
            "data": {
                "actionCategory": {
                    "value": "offensive"
                },
                "actionType": {
                    "value": "passive"
                },
                "actions": {
                    "value": ""
                },
                "description": {
                    "chat": "",
                    "unidentified": "",
                    "value": "<p>When the sand sentry critically hits with a fist Strike, the target is @Compendium[pf2e.conditionitems.Blinded]{Blinded} for 1 round.</p>"
                },
                "requirements": {
                    "value": ""
                },
                "rules": [],
                "slug": null,
                "source": {
                    "value": ""
                },
                "traits": {
                    "custom": "",
                    "rarity": {
                        "value": "common"
                    },
                    "value": []
                },
                "trigger": {
                    "value": ""
                },
                "usage": {
                    "value": "held-in-one-hand"
                },
                "weapon": {
                    "value": ""
                }
            },
            "effects": [],
            "flags": {},
            "folder": null,
            "img": "systems/pf2e/icons/default-icons/mystery-man.svg",
            "name": "Blinding Sand",
            "permission": {
                "default": 0
            },
            "sort": 500000,
            "type": "action"
        },
        {
            "_id": "XHjNDrJBXaCEsi2i",
            "data": {
                "actionCategory": {
                    "value": "offensive"
                },
                "actionType": {
                    "value": "passive"
                },
                "actions": {
                    "value": ""
                },
                "description": {
                    "chat": "",
                    "unidentified": "",
                    "value": "<p>A sand sentry can @Compendium[pf2e.actionspf2e.Burrow]{Burrow} through earthen matter, including rock. When it does so, it moves at its full burrow Speed, leaving no tunnels or signs of its passing.</p>"
                },
                "requirements": {
                    "value": ""
                },
                "rules": [],
                "slug": null,
                "source": {
                    "value": ""
                },
                "traits": {
                    "custom": "",
                    "rarity": {
                        "value": "common"
                    },
                    "value": []
                },
                "trigger": {
                    "value": ""
                },
                "usage": {
                    "value": "held-in-one-hand"
                },
                "weapon": {
                    "value": ""
                }
            },
            "effects": [],
            "flags": {},
            "folder": null,
            "img": "systems/pf2e/icons/default-icons/mystery-man.svg",
            "name": "Earth Glide",
            "permission": {
                "default": 0
            },
            "sort": 600000,
            "type": "action"
        },
        {
            "_id": "k1W45MkufYejTTye",
            "data": {
                "description": {
                    "chat": "",
                    "unidentified": "",
                    "value": ""
                },
                "item": {
                    "value": 0
                },
                "mod": {
                    "value": 14
                },
                "proficient": {
                    "value": 0
                },
                "rules": [],
                "slug": null,
                "source": {
                    "value": ""
                },
                "traits": {
                    "custom": "",
                    "rarity": {
                        "value": "common"
                    },
                    "value": []
                },
                "usage": {
                    "value": "held-in-one-hand"
                }
            },
            "effects": [],
            "flags": {},
            "folder": null,
            "img": "systems/pf2e/icons/default-icons/lore.svg",
            "name": "Acrobatics",
            "permission": {
                "default": 0
            },
            "sort": 700000,
            "type": "lore"
        },
        {
            "_id": "3IKSOIIWyaxP7Xbh",
            "data": {
                "description": {
                    "chat": "",
                    "unidentified": "",
                    "value": ""
                },
                "item": {
                    "value": 0
                },
                "mod": {
                    "value": 14
                },
                "proficient": {
                    "value": 0
                },
                "rules": [
                    {
                        "key": "PF2E.RuleElement.FlatModifier",
                        "label": "In Sand",
                        "predicate": {
                            "all": [
                                "terrain:sand"
                            ]
                        },
                        "selector": "stealth",
                        "value": 3
                    }
                ],
                "slug": null,
                "source": {
                    "value": ""
                },
                "traits": {
                    "custom": "",
                    "rarity": {
                        "value": "common"
                    },
                    "value": []
                },
                "usage": {
                    "value": "held-in-one-hand"
                },
                "variants": {
                    "0": {
                        "label": "+17 in sand",
                        "options": "terrain:sand"
                    }
                }
            },
            "effects": [],
            "flags": {},
            "folder": null,
            "img": "systems/pf2e/icons/default-icons/lore.svg",
            "name": "Stealth",
            "permission": {
                "default": 0
            },
            "sort": 800000,
            "type": "lore"
        }
    ],
    "name": "Sand Sentry",
    "permission": {
        "default": 0
    },
    "token": {
        "actorId": "gOjrie9YndQPomU8",
        "actorLink": false,
        "alpha": 1,
        "bar1": {
            "attribute": null
        },
        "bar2": {
            "attribute": null
        },
        "brightLight": 0,
        "brightSight": 0,
        "dimLight": 0,
        "dimSight": 0,
        "displayBars": 20,
        "displayName": 20,
        "disposition": -1,
        "flags": {},
        "height": 1,
        "img": "systems/pf2e/icons/default-icons/npc.svg",
        "lightAlpha": 1,
        "lightAngle": 0,
        "lightAnimation": {
            "intensity": 5,
            "speed": 5
        },
        "lockRotation": false,
        "mirrorX": false,
        "mirrorY": false,
        "name": "Sand Sentry",
        "randomImg": false,
        "rotation": 0,
        "scale": 1,
        "sightAngle": 0,
        "tint": null,
        "vision": false,
        "width": 1
    },
    "type": "npc"
}
