{
    "_id": "74K4QxDp37huY8dm",
    "data": {
        "description": {
            "value": "<p>Your dead flesh continues to rot, affecting your health.</p>\n<p>Non-magical effects that would restore your Hit Points only grant you half as many HP as normal.</p>\n<p>You become @Compendium[pf2e.conditionitems.Drained]{Drained 1}, and this drained condition is cumulative with any other drained conditions you gain. This drained condition is removed only when you Refocus; effects that normally remove the drained condition reduce your drained condition to drained 1 instead.</p>\n<p>In addition, you gain resistance to poison equal to half your level.</p>\n<p>You gain a +4 status bonus to saves against diseases, poisons, and death effects, and if you roll a success on such a save, you get a critical success instead.</p>\n<hr />\n<p><em>Note: The bonus to saving throws is applied automatically. You need to apply the remaining effects manually.</em></p>"
        },
        "duration": {
            "expiry": "turn-start",
            "sustained": false,
            "unit": "unlimited",
            "value": -1
        },
        "level": {
            "value": 1
        },
        "rules": [
            {
                "key": "PF2E.RuleElement.TokenEffectIcon"
            },
            {
                "key": "PF2E.RuleElement.Note",
                "predicate": {
                    "any": [
                        "disease",
                        "poison",
                        "death"
                    ]
                },
                "selector": "saving-throw",
                "text": "<p class='compact-text'><strong>Moderate Curse of Bones</strong> When you roll a success at a saving throw against a disease, poison or death effect, you get a critical success instead.</p>"
            },
            {
                "key": "PF2E.RuleElement.FlatModifier",
                "label": "Moderate Bones Curse (vs Disease, Poison, or Death)",
                "predicate": {
                    "any": [
                        "disease",
                        "poison",
                        "death"
                    ]
                },
                "selector": "saving-throw",
                "type": "status",
                "value": 4
            }
        ],
        "source": {
            "value": ""
        },
        "start": {
            "initiative": null,
            "value": 0
        },
        "target": null,
        "traits": {
            "custom": "",
            "rarity": {
                "value": "common"
            },
            "value": []
        }
    },
    "effects": [],
    "flags": {},
    "img": "systems/pf2e/icons/features/classes/bones-mystery.webp",
    "name": "Effect: Moderate Bones Curse",
    "permission": {
        "default": 0
    },
    "type": "effect"
}
