{
    "_id": "5WM3WjshXgrkVCg6",
    "data": {
        "ability": {
            "value": ""
        },
        "area": {
            "value": ""
        },
        "areasize": {
            "value": ""
        },
        "category": {
            "value": "focus"
        },
        "components": {
            "material": false,
            "somatic": true,
            "verbal": true
        },
        "cost": {
            "value": ""
        },
        "damage": {
            "applyMod": false,
            "value": ""
        },
        "damageType": {
            "value": ""
        },
        "description": {
            "chat": "",
            "unidentified": "",
            "value": "<p>You enter a magical trance that allows you to perceive through the senses of the target companion. You attempt Perception checks using your own Perception, but you have any special senses the target has, such as @Compendium[pf2e.ancestryfeatures.Low-Light Vision]{Low-Light Vision} or @Compendium[pf2e.ancestryfeatures.Darkvision]{Darkvision}.</p>\n<p>This spell grants no special method of communication with the chosen animal, so it follows any instructions you gave it before you entered the trance and, failing that, it does as it wishes.</p>\n<p>For the duration of the trance, your own senses are muted, though you can still communicate. This lack of awareness makes you @Compendium[pf2e.conditionitems.Flat-Footed]{Flat-Footed}. You can't take actions with the attack or move traits.</p>\n<hr />\n<p><strong>Heightened (6th)</strong> Increase the range to 100 miles and the duration to sustained up to 10 minutes. The target can hear you through the spell, allowing you to @Compendium[pf2e.actionspf2e.Command an Animal]{Command the Animal} or use other actions that have the auditory trait.</p>\n<p><strong>Heightened (8th)</strong> Increase the range to planetary and the duration to sustained up to 1 hour. You can communicate telepathically with the target for the duration of the trance.</p>"
        },
        "duration": {
            "value": "sustained up to 1 minute"
        },
        "hasCounteractCheck": {
            "value": false
        },
        "level": {
            "value": 3
        },
        "location": {
            "value": ""
        },
        "materials": {
            "value": ""
        },
        "prepared": {
            "value": ""
        },
        "primarycheck": {
            "value": ""
        },
        "range": {
            "value": "1 mile"
        },
        "rules": [],
        "save": {
            "basic": "",
            "value": ""
        },
        "scaling": {
            "formula": "",
            "mode": "none"
        },
        "school": {
            "value": "divination"
        },
        "secondarycasters": {
            "value": ""
        },
        "secondarycheck": {
            "value": ""
        },
        "source": {
            "value": ""
        },
        "spellType": {
            "value": "utility"
        },
        "sustained": {
            "value": false
        },
        "target": {
            "value": "one of you animal companions you can perceive"
        },
        "time": {
            "value": "3"
        },
        "traditions": {
            "value": []
        },
        "traits": {
            "custom": "",
            "rarity": {
                "value": "common"
            },
            "value": [
                "concentrate",
                "divination",
                "mental"
            ]
        }
    },
    "effects": [],
    "flags": {},
    "folder": null,
    "img": "systems/pf2e/icons/spells/beastmaster-trance.webp",
    "name": "Beastmaster Trance",
    "permission": {
        "default": 0
    },
    "type": "spell"
}
