{
    "_id": "7DN13ILADW2N9Z1t",
    "data": {
        "ability": {
            "value": ""
        },
        "area": {
            "value": ""
        },
        "areasize": {
            "value": ""
        },
        "category": {
            "value": "ritual"
        },
        "components": {
            "material": false,
            "somatic": false,
            "verbal": false
        },
        "cost": {
            "value": "rare incense worth a total value of 150 gp"
        },
        "damage": {
            "applyMod": false,
            "value": ""
        },
        "damageType": {
            "value": ""
        },
        "description": {
            "chat": "",
            "unidentified": "",
            "value": "<p>You call upon an unknown planar entity to answer questions; this is a servitor of your deity if you have one and use Religion. You can ask up to seven questions that could be answered with \"Yes\" or \"No.\" The entity is likely to know answers related to its purview; a servitor of @Compendium[pf2e.deities.Gozreh]{Gozreh} would likely know about unnatural weather patterns and a servitor of @Compendium[pf2e.deities.Desna]{Desna} would likely know someone's travel route. The entity answers with one word answers such as \"Yes,\" \"No,\" \"Likely,\" and \"Unknown,\" though its answers always reflect its own agenda and could be deceptive.</p>\n<hr />\n<p><span><strong>Critical Success</strong> You contact a more powerful entity aligned strongly with your interests, possibly even your deity. The entity won't attempt to deceive you, though it still might not know the answers. When it's important to provide clarity, the entity will answer your questions with up to five words, such as \"If you leave immediately\" or \"That was true once.\"</span></p>\n<p><span><strong>Success</strong> You can ask your questions and receive answers.</span></p>\n<p><span><strong>Failure</strong> You fail to contact a planar entity.</span></p>\n<p><span><strong>Critical Failure</strong> You are exposed to the enormity of the cosmos and are @Compendium[pf2e.conditionitems.Stupefied]{Stupefied 4} for 1 week (can't remove by any means).</span></p>"
        },
        "duration": {
            "value": "up to 10 minutes"
        },
        "hasCounteractCheck": {
            "value": false
        },
        "level": {
            "value": 6
        },
        "location": {
            "value": ""
        },
        "materials": {
            "value": ""
        },
        "prepared": {
            "value": ""
        },
        "primarycheck": {
            "value": "Occultism (master) or Religion (master)"
        },
        "range": {
            "value": ""
        },
        "rules": [],
        "save": {
            "basic": "",
            "value": ""
        },
        "scaling": {
            "formula": "",
            "mode": "none"
        },
        "school": {
            "value": "divination"
        },
        "secondarycasters": {
            "value": "1"
        },
        "secondarycheck": {
            "value": "Occultism or Religion (whichever is used for the primary check)"
        },
        "source": {
            "value": ""
        },
        "spellType": {
            "value": "utility"
        },
        "sustained": {
            "value": false
        },
        "target": {
            "value": ""
        },
        "time": {
            "value": "1 day"
        },
        "traditions": {
            "value": []
        },
        "traits": {
            "custom": "",
            "rarity": {
                "value": "uncommon"
            },
            "value": [
                "divination"
            ]
        }
    },
    "effects": [],
    "flags": {},
    "folder": null,
    "img": "systems/pf2e/icons/spells/commune.webp",
    "name": "Commune",
    "permission": {
        "default": 0
    },
    "type": "spell"
}
