{
    "_id": "CHZQJg7O7991Vl4m",
    "data": {
        "ability": {
            "value": ""
        },
        "area": {
            "value": ""
        },
        "areasize": {
            "value": ""
        },
        "category": {
            "value": "focus"
        },
        "components": {
            "material": false,
            "somatic": true,
            "verbal": true
        },
        "cost": {
            "value": ""
        },
        "damage": {
            "applyMod": false,
            "value": ""
        },
        "damageType": {
            "value": ""
        },
        "description": {
            "chat": "",
            "unidentified": "",
            "value": "<p>You transform into a Tiny animal that commonly serves as a spellcaster's familiar. You gain the effects of the spell pest form, heightened to the level of familiar form you cast. However, you can transform into only a bat, cat, raven, snake, or other Tiny animal of a type that you have seen serve as a spellcaster's familiar.</p>\n<p>While in this form, despite the restrictions from polymorph battle forms, you retain the ability to cast spells of 1st level or lower but only those without material components. You still can't make any Strikes or other attacks in pest form, as normal.</p>\n<hr />\n<p><strong>Heightened (6th)</strong> You retain the ability to cast spells of 2nd level or lower, rather than 1st, but still only those without material components. Additionally, the duration of familiar form increases to 10 minutes.</p>\n<p><strong>Heightened (8th)</strong> You retain the ability to cast spells of 3rd level or lower, rather than 1st, but still only those without material components. Additionally, the duration of familiar form increases to 10 minutes.</p>"
        },
        "duration": {
            "value": "1 minute"
        },
        "hasCounteractCheck": {
            "value": false
        },
        "level": {
            "value": 4
        },
        "location": {
            "value": "SxRPXF30ZP92OBPF"
        },
        "materials": {
            "value": ""
        },
        "prepared": {
            "value": ""
        },
        "primarycheck": {
            "value": ""
        },
        "range": {
            "value": ""
        },
        "rules": [],
        "save": {
            "basic": "",
            "value": ""
        },
        "scaling": {
            "formula": "",
            "mode": "none"
        },
        "school": {
            "value": "transmutation"
        },
        "secondarycasters": {
            "value": ""
        },
        "secondarycheck": {
            "value": ""
        },
        "source": {
            "value": ""
        },
        "spellType": {
            "value": "utility"
        },
        "sustained": {
            "value": false
        },
        "target": {
            "value": ""
        },
        "time": {
            "value": "2"
        },
        "traditions": {
            "custom": "",
            "value": []
        },
        "traits": {
            "custom": "",
            "rarity": {
                "value": "uncommon"
            },
            "selected": [],
            "value": [
                "polymorph",
                "transmutation"
            ]
        }
    },
    "effects": [],
    "flags": {},
    "folder": null,
    "img": "systems/pf2e/icons/spells/familiar-form.webp",
    "name": "Familiar Form",
    "permission": {
        "default": 0
    },
    "type": "spell"
}
