{
    "_id": "KktHf7zIAWOr499h",
    "data": {
        "ability": {
            "value": ""
        },
        "area": {
            "value": ""
        },
        "areasize": {
            "value": "all squares that contain plants in a 5-foot burst"
        },
        "category": {
            "value": "focus"
        },
        "components": {
            "material": false,
            "somatic": true,
            "verbal": true
        },
        "cost": {
            "value": ""
        },
        "damage": {
            "applyMod": false,
            "value": ""
        },
        "damageType": {
            "value": ""
        },
        "description": {
            "chat": "",
            "unidentified": "",
            "value": "<p>You cause plants in the area to entangle your foes, with the effects of @Compendium[pf2e.spells-srd.Entangle]{Entangle}.</p>\n<p>A creature that critically fails the save takes [[/r 2d4 #persistent bleed]] persistent bleed damage in addition to being @Compendium[pf2e.conditionitems.Immobilized]{Immobilized}. @Compendium[pf2e.actionspf2e.Escape]{Escaping} your bramble doesn't end the bleed damage.</p>\n<hr />\n<p><strong>Heightened (+1)</strong> The bleed damage on a critical failure<br />increases by [[/r 1d4 #persistent bleed]].</p>"
        },
        "duration": {
            "value": "1 minute"
        },
        "hasCounteractCheck": {
            "value": false
        },
        "level": {
            "value": 3
        },
        "location": {
            "value": ""
        },
        "materials": {
            "value": ""
        },
        "prepared": {
            "value": ""
        },
        "primarycheck": {
            "value": ""
        },
        "range": {
            "value": "100 feet"
        },
        "rules": [],
        "save": {
            "basic": "",
            "value": ""
        },
        "scaling": {
            "formula": "",
            "mode": "level1"
        },
        "school": {
            "value": "transmutation"
        },
        "secondarycasters": {
            "value": ""
        },
        "secondarycheck": {
            "value": ""
        },
        "source": {
            "value": ""
        },
        "spellType": {
            "value": "save"
        },
        "sustained": {
            "value": false
        },
        "target": {
            "value": ""
        },
        "time": {
            "value": "2"
        },
        "traditions": {
            "value": []
        },
        "traits": {
            "custom": "",
            "rarity": {
                "value": "uncommon"
            },
            "value": [
                "plant",
                "ranger",
                "transmutation"
            ]
        }
    },
    "effects": [],
    "flags": {},
    "folder": null,
    "img": "systems/pf2e/icons/spells/rangers-bramble.webp",
    "name": "Ranger's Bramble",
    "permission": {
        "default": 0
    },
    "type": "spell"
}
