{
    "_id": "nF5NUinK23fOLn5u",
    "data": {
        "actionCategory": {
            "value": ""
        },
        "actionType": {
            "value": "passive"
        },
        "actions": {
            "value": ""
        },
        "description": {
            "chat": "",
            "unidentified": "",
            "value": "<p>Your scales are especially colorful, possessing some of the same resistance a dragon possesses. You gain resistance equal to half your level (minimum 1) to the damage type associated with your @Compendium[pf2e.ancestryfeatures.Draconic Exemplar]{Draconic Exemplar}. Double this resistance against dragons' Breath Weapons.</p>"
        },
        "featType": {
            "value": "heritage"
        },
        "level": {
            "value": 1
        },
        "location": "",
        "prerequisites": {
            "value": []
        },
        "rules": [],
        "source": {
            "value": ""
        },
        "traits": {
            "custom": "",
            "rarity": {
                "value": "common"
            },
            "value": [
                "kobold"
            ]
        }
    },
    "effects": [],
    "flags": {},
    "folder": null,
    "img": "systems/pf2e/icons/features/ancestry/dragonscaled-kobold.webp",
    "name": "Dragonscaled Kobold",
    "permission": {
        "default": 0
    },
    "type": "feat"
}
