{
    "_id": "VRyX00OuPGsJSurM",
    "data": {
        "actionCategory": {
            "value": ""
        },
        "actionType": {
            "value": "passive"
        },
        "actions": {
            "value": ""
        },
        "description": {
            "chat": "",
            "unidentified": "",
            "value": "<p>A trace of draconic magic flows through your veins. Choose one cantrip from the arcane spell list. You can Cast this Spell as an arcane innate spell at will. A cantrip is heightened to a spell level equal to half your level rounded up. You gain the trained proficiency rank in arcane spell attack rolls and spell DCs, and your key spellcasting ability is Charisma.</p>"
        },
        "featType": {
            "value": "heritage"
        },
        "level": {
            "value": 1
        },
        "location": "",
        "prerequisites": {
            "value": []
        },
        "rules": [],
        "source": {
            "value": ""
        },
        "traits": {
            "custom": "",
            "rarity": {
                "value": "common"
            },
            "value": [
                "kobold"
            ]
        }
    },
    "effects": [],
    "flags": {},
    "folder": null,
    "img": "systems/pf2e/icons/features/ancestry/spellscale-kobold.webp",
    "name": "Spellscale Kobold",
    "permission": {
        "default": 0
    },
    "type": "feat"
}
