{
    "_id": "qbWaybAX1LK7kUyY",
    "data": {
        "actionCategory": {
            "value": ""
        },
        "actionType": {
            "value": "passive"
        },
        "actions": {
            "value": ""
        },
        "description": {
            "value": "<p>You trace your lineage from azarketis who lived their lives among the great oceans and seas of the world. You know how to use the currents and the primal magic of water to guide your attacks. You gain the @Compendium[pf2e.feats-srd.Underwater Marauder]{Underwater Marauder} skill feat, and your piercing ranged attacks don’t have their range increments halved when fighting underwater targets.</p>"
        },
        "featType": {
            "value": "heritage"
        },
        "level": {
            "value": 1
        },
        "location": "",
        "prerequisites": {
            "value": []
        },
        "rules": [],
        "source": {
            "value": ""
        },
        "traits": {
            "custom": "",
            "rarity": {
                "value": "common"
            },
            "value": [
                "azarketi"
            ]
        }
    },
    "effects": [],
    "flags": {},
    "folder": null,
    "img": "systems/pf2e/icons/default-icons/feat.svg",
    "name": "Thalassic Azarketi",
    "permission": {
        "default": 0
    },
    "type": "feat"
}
