{
    "_id": "Mu5GQ9ZEz3geAYxK",
    "data": {
        "actionCategory": {
            "value": ""
        },
        "actionType": {
            "value": "passive"
        },
        "actions": {
            "value": ""
        },
        "description": {
            "chat": "",
            "unidentified": "",
            "value": "<p><strong>[Ally]</strong></p>\n<p><strong>Prerequisites:</strong> Tier 2 with the Verdant Wheel</p>\n<p><strong>Cost</strong>: 4 Fame</p>\n<p><strong>Effect</strong>: You can select the @Compendium[pf2e.feats-srd.Leshy Familiar]{Leshy Familiar} feat as a 2nd level class feat, even if you are not a Druid. You can ignore the prerequisite of belonging to the @Compendium[pf2e.classfeatures.Leaf Order]{Leaf Order}.</p>"
        },
        "featType": {
            "value": "pfsboon"
        },
        "level": {
            "value": "0"
        },
        "prerequisites": {
            "value": []
        },
        "rules": [],
        "source": {
            "value": ""
        },
        "traits": {
            "custom": "",
            "rarity": {
                "value": "common"
            },
            "selected": {},
            "value": []
        }
    },
    "effects": [],
    "flags": {},
    "img": "systems/pf2e/icons/default-icons/mystery-man.webp",
    "name": "Leshy Companion",
    "permission": {
        "default": 0
    },
    "type": "feat"
}
