{
    "_id": "DvyyA11a63FBwV7x",
    "data": {
        "description": {
            "value": "<p>Granted by @Compendium[pf2e.feats-srd.Known Weaknesses]{Known Weaknesses}.</p>\n<p>Your ally gains a +1 circumstance bonus to their next attack roll against the subject of known weakness, as long as their attack is made before the beginning of your next turn.</p>"
        },
        "duration": {
            "expiry": "turn-start",
            "sustained": false,
            "unit": "unlimited",
            "value": -1
        },
        "level": {
            "value": 1
        },
        "rules": [
            {
                "key": "PF2E.RuleElement.FlatModifier",
                "selector": "attack",
                "type": "circumstance",
                "value": 1
            },
            {
                "key": "PF2E.RuleElement.TokenEffectIcon"
            }
        ],
        "source": {
            "value": ""
        },
        "start": {
            "initiative": null,
            "value": 0
        },
        "target": null,
        "traits": {
            "custom": "",
            "rarity": {
                "value": "common"
            },
            "value": []
        }
    },
    "effects": [],
    "flags": {},
    "img": "systems/pf2e/icons/equipment/adventuring-gear/advanced-book-of-translation.webp",
    "name": "Effect: Known Weakness",
    "permission": {
        "default": 0
    },
    "type": "effect"
}
