{
    "_id": "T7AJQbfmlA57y625",
    "data": {
        "description": {
            "value": "<p>Granted when you use @Compendium[pf2e.feats-srd.Vivacious Bravado]{Vivacious Bravado}.</p>"
        },
        "duration": {
            "expiry": "turn-start",
            "sustained": false,
            "unit": "rounds",
            "value": 1
        },
        "level": {
            "value": 8
        },
        "rules": [
            {
                "key": "PF2E.RuleElement.TempHP",
                "value": "@details.level.value + @abilities.cha.mod"
            }
        ],
        "source": {
            "value": ""
        },
        "start": {
            "initiative": null,
            "value": 0
        },
        "target": null,
        "tokenIcon": {
            "show": true
        },
        "traits": {
            "custom": "",
            "rarity": {
                "value": "common"
            },
            "value": []
        }
    },
    "effects": [],
    "flags": {},
    "folder": null,
    "img": "systems/pf2e/icons/spells/angelic-halo.webp",
    "name": "Effect: Vivacious Bravado",
    "permission": {
        "default": 0
    },
    "type": "effect"
}
