{
    "_id": "WM8ycweNEOEFE08F",
    "data": {
        "attributes": {
            "ac": {
                "value": 22
            },
            "hardness": 10,
            "hasHealth": true,
            "hp": {
                "details": "",
                "max": 42,
                "temp": 0,
                "value": 42
            },
            "stealth": {
                "details": "<p>(DC 20 to find the cluster of <em>aeon stones</em> at the center of the nexus in the fog)</p>",
                "value": 8
            }
        },
        "creatureType": "",
        "details": {
            "description": "<p>A small cluster of aeon stones floats two feet off the ground, orbiting by shards of shattered aeon stones that crackle with electricity.</p>",
            "disable": "<p>DC 23 Thievery (trained) to remove one nexus <em>aeon stone</em> from the center</p>",
            "isComplex": true,
            "level": 3,
            "reset": "",
            "routine": "<p><span class=\"pf2-icon\">3</span> The trap loses one action each turn for each nexus aeon stone removed from its center. On each action, it shoots a jet of electrified, razor-sharp aeon stone shards at a different creature within 30 feet, dealing [[/r 1d8 #piercing]] piercing damage and [[/r 1d8 #electricity]] electricity damage (<span data-pf2-saving-throw=\"reflex\" data-pf2-traits=\"damaging-effect\" data-pf2-label=\"Aeon Nexus\" data-pf2-dc=\"21\" data-pf2-show-dc=\"gm\">basic Reflex</span>).</p>"
        },
        "recallKnowledgeText": "",
        "saves": {
            "fortitude": {
                "rank": 0,
                "saveDetail": "",
                "value": 14
            },
            "reflex": {
                "rank": 0,
                "saveDetail": "",
                "value": 8
            },
            "will": {
                "rank": 0,
                "saveDetail": "",
                "value": null
            }
        },
        "schema": {
            "version": {
                "value": ""
            }
        },
        "source": {
            "value": ""
        },
        "statusEffects": [],
        "traits": {
            "ci": [],
            "di": {
                "custom": "",
                "selected": {},
                "value": []
            },
            "dr": [],
            "dv": [],
            "rarity": {
                "value": "common"
            },
            "size": {
                "value": "med"
            },
            "traits": {
                "custom": "",
                "value": [
                    "magical",
                    "trap"
                ]
            }
        }
    },
    "effects": [],
    "flags": {},
    "folder": null,
    "img": "systems/pf2e/icons/default-icons/hazard.svg",
    "items": [
        {
            "_id": "BZbjUiSahHTYztMv",
            "data": {
                "actionCategory": {
                    "value": ""
                },
                "actionType": {
                    "value": "reaction"
                },
                "actions": {
                    "value": ""
                },
                "description": {
                    "value": "<p><strong>Trigger</strong> A creature who is not carrying a wayfinder with an aeon stone from the nexus slotted into it approaches within 15 feet of the aeon nexus;</p>\n<p><strong>Effect</strong> The trap shocks the target, dealing [[/r 2d8 #electricity]] electricity damage to the triggering creature (<span data-pf2-saving-throw=\"reflex\" data-pf2-traits=\"damaging-effect\" data-pf2-label=\"Static DC\" data-pf2-dc=\"21\" data-pf2-show-dc=\"gm\">basic Reflex</span>), then rolls initiative.</p>"
                },
                "requirements": {
                    "value": ""
                },
                "rules": [],
                "slug": null,
                "source": {
                    "value": ""
                },
                "traits": {
                    "custom": "",
                    "rarity": {
                        "value": "common"
                    },
                    "value": []
                },
                "trigger": {
                    "value": ""
                },
                "weapon": {
                    "value": ""
                }
            },
            "effects": [],
            "flags": {},
            "folder": null,
            "img": "systems/pf2e/icons/actions/Reaction.webp",
            "name": "Static",
            "permission": {
                "default": 0
            },
            "sort": 0,
            "type": "action"
        }
    ],
    "name": "Aeon Nexus (3-4)",
    "permission": {
        "default": 0
    },
    "token": {
        "actorLink": false,
        "alpha": 1,
        "bar1": {
            "attribute": null
        },
        "bar2": {
            "attribute": null
        },
        "brightLight": 0,
        "brightSight": 0,
        "dimLight": 0,
        "dimSight": 0,
        "displayBars": 20,
        "displayName": 20,
        "disposition": 0,
        "flags": {},
        "height": 1,
        "img": "systems/pf2e/icons/default-icons/hazard.svg",
        "lightAlpha": 0.25,
        "lightAngle": 0,
        "lightAnimation": {
            "intensity": 5,
            "speed": 5
        },
        "lockRotation": false,
        "mirrorX": false,
        "mirrorY": false,
        "name": "Aeon Nexus",
        "randomImg": false,
        "rotation": 0,
        "scale": 1,
        "sightAngle": 0,
        "vision": false,
        "width": 1
    },
    "type": "hazard"
}
